%YAML 1.1
%TAG !u! tag:unity3d.com,2011:
--- !u!114 &11400000
MonoBehaviour:
  m_ObjectHideFlags: 0
  m_PrefabParentObject: {fileID: 0}
  m_PrefabInternal: {fileID: 0}
  m_GameObject: {fileID: 0}
  m_Enabled: 1
  m_EditorHideFlags: 0
  m_Script: {fileID: -1223223985, guid: aa81bbec85a3f423193272a7c6154986, type: 3}
  m_Name: P55track
  m_EditorClassIdentifier: 
  mEventID: Note
  mEventList:
  - mStartSample: 2300
    mEndSample: 2300
  - mStartSample: 14527
    mEndSample: 14527
  - mStartSample: 26754
    mEndSample: 26754
  - mStartSample: 38982
    mEndSample: 38982
  - mStartSample: 51209
    mEndSample: 51209
  - mStartSample: 63436
    mEndSample: 63436
  - mStartSample: 75663
    mEndSample: 75663
  - mStartSample: 87891
    mEndSample: 87891
  - mStartSample: 100118
    mEndSample: 100118
  - mStartSample: 112345
    mEndSample: 112345
  - mStartSample: 124572
    mEndSample: 124572
  - mStartSample: 136800
    mEndSample: 136800
  - mStartSample: 149028
    mEndSample: 149028
  - mStartSample: 161255
    mEndSample: 161255
  - mStartSample: 173482
    mEndSample: 173482
  - mStartSample: 185710
    mEndSample: 185710
  - mStartSample: 197937
    mEndSample: 197937
  - mStartSample: 210164
    mEndSample: 210164
  - mStartSample: 222391
    mEndSample: 222391
  - mStartSample: 234619
    mEndSample: 234619
  - mStartSample: 246847
    mEndSample: 246847
  - mStartSample: 259074
    mEndSample: 259074
  - mStartSample: 271301
    mEndSample: 271301
  - mStartSample: 283529
    mEndSample: 283529
  - mStartSample: 295756
    mEndSample: 295756
  - mStartSample: 307983
    mEndSample: 307983
  - mStartSample: 320210
    mEndSample: 320210
  - mStartSample: 332438
    mEndSample: 332438
  - mStartSample: 344665
    mEndSample: 344665
  - mStartSample: 356892
    mEndSample: 356892
  - mStartSample: 369119
    mEndSample: 369119
  - mStartSample: 381347
    mEndSample: 381347
  - mStartSample: 393575
    mEndSample: 393575
  - mStartSample: 405802
    mEndSample: 405802
  - mStartSample: 479166
    mEndSample: 479166
  - mStartSample: 491394
    mEndSample: 491394
  - mStartSample: 507696
    mEndSample: 507696
  - mStartSample: 528076
    mEndSample: 528076
  - mStartSample: 552531
    mEndSample: 552531
  - mStartSample: 564758
    mEndSample: 564758
  - mStartSample: 576985
    mEndSample: 576985
  - mStartSample: 589213
    mEndSample: 589213
  - mStartSample: 601440
    mEndSample: 601440
  - mStartSample: 625895
    mEndSample: 625895
  - mStartSample: 674804
    mEndSample: 674804
  - mStartSample: 687031
    mEndSample: 687031
  - mStartSample: 703110
    mEndSample: 703110
  - mStartSample: 723714
    mEndSample: 723714
  - mStartSample: 748168
    mEndSample: 748168
  - mStartSample: 760396
    mEndSample: 760396
  - mStartSample: 772623
    mEndSample: 772623
  - mStartSample: 784850
    mEndSample: 784850
  - mStartSample: 797078
    mEndSample: 797078
  - mStartSample: 809305
    mEndSample: 809305
  - mStartSample: 821532
    mEndSample: 821532
  - mStartSample: 833760
    mEndSample: 833760
  - mStartSample: 882669
    mEndSample: 882669
  - mStartSample: 894897
    mEndSample: 894897
  - mStartSample: 907124
    mEndSample: 907124
  - mStartSample: 919351
    mEndSample: 919351
  - mStartSample: 931579
    mEndSample: 931579
  - mStartSample: 981932
    mEndSample: 981932
  - mStartSample: 994160
    mEndSample: 994160
  - mStartSample: 1006387
    mEndSample: 1006387
  - mStartSample: 1018614
    mEndSample: 1018614
  - mStartSample: 1030842
    mEndSample: 1030842
  - mStartSample: 1079751
    mEndSample: 1079751
  - mStartSample: 1091979
    mEndSample: 1091979
  - mStartSample: 1104206
    mEndSample: 1104206
  - mStartSample: 1116433
    mEndSample: 1116433
  - mStartSample: 1128661
    mEndSample: 1128661
  - mStartSample: 1177570
    mEndSample: 1177570
  - mStartSample: 1189798
    mEndSample: 1189798
  - mStartSample: 1202025
    mEndSample: 1202025
  - mStartSample: 1214252
    mEndSample: 1214252
  - mStartSample: 1226480
    mEndSample: 1226480
  - mStartSample: 1275389
    mEndSample: 1275389
  - mStartSample: 1287617
    mEndSample: 1287617
  - mStartSample: 1299844
    mEndSample: 1299844
  - mStartSample: 1312071
    mEndSample: 1312071
  - mStartSample: 1324299
    mEndSample: 1324299
  - mStartSample: 1373207
    mEndSample: 1373207
  - mStartSample: 1385435
    mEndSample: 1385435
  - mStartSample: 1397662
    mEndSample: 1397662
  - mStartSample: 1409889
    mEndSample: 1409889
  - mStartSample: 1422117
    mEndSample: 1422117
  - mStartSample: 1471026
    mEndSample: 1471026
  - mStartSample: 1483254
    mEndSample: 1483254
  - mStartSample: 1495481
    mEndSample: 1495481
  - mStartSample: 1507708
    mEndSample: 1507708
  - mStartSample: 1519936
    mEndSample: 1519936
  - mStartSample: 1569404
    mEndSample: 1569404
  - mStartSample: 1585707
    mEndSample: 1585707
  - mStartSample: 1606086
    mEndSample: 1606086
  - mStartSample: 1654995
    mEndSample: 1654995
  - mStartSample: 1667222
    mEndSample: 1667222
  - mStartSample: 1683525
    mEndSample: 1683525
  - mStartSample: 1703904
    mEndSample: 1703904
  - mStartSample: 1728359
    mEndSample: 1728359
  - mStartSample: 1740586
    mEndSample: 1740586
  - mStartSample: 1752814
    mEndSample: 1752814
  - mStartSample: 1765041
    mEndSample: 1765041
  - mStartSample: 1781344
    mEndSample: 1781344
  - mStartSample: 1801723
    mEndSample: 1801723
  - mStartSample: 1850632
    mEndSample: 1850632
  - mStartSample: 1862860
    mEndSample: 1862860
  - mStartSample: 1879163
    mEndSample: 1879163
  - mStartSample: 1899542
    mEndSample: 1899542
  - mStartSample: 1923996
    mEndSample: 1923996
  - mStartSample: 1936223
    mEndSample: 1936223
  - mStartSample: 1948451
    mEndSample: 1948451
  - mStartSample: 1961350
    mEndSample: 1961350
  - mStartSample: 1973600
    mEndSample: 1973600
  - mStartSample: 1985850
    mEndSample: 1985850
  - mStartSample: 1998100
    mEndSample: 1998100
  - mStartSample: 2010350
    mEndSample: 2010350
  - mStartSample: 2022600
    mEndSample: 2022600
  - mStartSample: 2034850
    mEndSample: 2034850
  - mStartSample: 2047100
    mEndSample: 2047100
  - mStartSample: 2059350
    mEndSample: 2059350
  - mStartSample: 2071600
    mEndSample: 2071600
  - mStartSample: 2083850
    mEndSample: 2083850
  - mStartSample: 2096100
    mEndSample: 2096100
  - mStartSample: 2108350
    mEndSample: 2108350
  - mStartSample: 2120600
    mEndSample: 2120600
  - mStartSample: 2132850
    mEndSample: 2132850
  - mStartSample: 2145100
    mEndSample: 2145100
  - mStartSample: 2157350
    mEndSample: 2157350
  - mStartSample: 2169600
    mEndSample: 2169600
  - mStartSample: 2181850
    mEndSample: 2181850
  - mStartSample: 2194100
    mEndSample: 2194100
  - mStartSample: 2206350
    mEndSample: 2206350
  - mStartSample: 2218600
    mEndSample: 2218600
  - mStartSample: 2230850
    mEndSample: 2230850
  - mStartSample: 2243100
    mEndSample: 2243100
  - mStartSample: 2255350
    mEndSample: 2255350
  - mStartSample: 2267600
    mEndSample: 2267600
  - mStartSample: 2279850
    mEndSample: 2279850
  - mStartSample: 2292100
    mEndSample: 2292100
  - mStartSample: 2304350
    mEndSample: 2304350
  - mStartSample: 2316600
    mEndSample: 2316600
  - mStartSample: 2328850
    mEndSample: 2328850
  - mStartSample: 2341100
    mEndSample: 2341100
  - mStartSample: 2353350
    mEndSample: 2353350
  - mStartSample: 2365600
    mEndSample: 2365600
  - mStartSample: 2377850
    mEndSample: 2377850
  - mStartSample: 2390100
    mEndSample: 2390100
  - mStartSample: 2402350
    mEndSample: 2402350
  - mStartSample: 2414600
    mEndSample: 2414600
  - mStartSample: 2426850
    mEndSample: 2426850
  - mStartSample: 2439100
    mEndSample: 2439100
  - mStartSample: 2451350
    mEndSample: 2451350
  - mStartSample: 2463600
    mEndSample: 2463600
  - mStartSample: 2475850
    mEndSample: 2475850
  - mStartSample: 2488100
    mEndSample: 2488100
  - mStartSample: 2500350
    mEndSample: 2500350
  - mStartSample: 2512600
    mEndSample: 2512600
  - mStartSample: 2524850
    mEndSample: 2524850
  - mStartSample: 2537100
    mEndSample: 2537100
  - mStartSample: 2549350
    mEndSample: 2549350
  - mStartSample: 2561600
    mEndSample: 2561600
  - mStartSample: 2573850
    mEndSample: 2573850
  - mStartSample: 2586100
    mEndSample: 2586100
  - mStartSample: 2598350
    mEndSample: 2598350
  - mStartSample: 2610600
    mEndSample: 2610600
  - mStartSample: 2622850
    mEndSample: 2622850
  - mStartSample: 2635100
    mEndSample: 2635100
  - mStartSample: 2647350
    mEndSample: 2647350
  - mStartSample: 2659600
    mEndSample: 2659600
  - mStartSample: 2671850
    mEndSample: 2671850
  - mStartSample: 2684100
    mEndSample: 2684100
  - mStartSample: 2696350
    mEndSample: 2696350
  - mStartSample: 2708600
    mEndSample: 2708600
  - mStartSample: 2720850
    mEndSample: 2720850
  - mStartSample: 2733100
    mEndSample: 2733100
  - mStartSample: 2745350
    mEndSample: 2745350
  - mStartSample: 2757600
    mEndSample: 2757600
  - mStartSample: 2769850
    mEndSample: 2769850
  - mStartSample: 2782100
    mEndSample: 2782100
  - mStartSample: 2794350
    mEndSample: 2794350
  - mStartSample: 2806600
    mEndSample: 2806600
  - mStartSample: 2818850
    mEndSample: 2818850
  - mStartSample: 2831100
    mEndSample: 2831100
  - mStartSample: 2843350
    mEndSample: 2843350
  - mStartSample: 2855600
    mEndSample: 2855600
  - mStartSample: 2867850
    mEndSample: 2867850
  - mStartSample: 2880100
    mEndSample: 2880100
  - mStartSample: 2892350
    mEndSample: 2892350
  - mStartSample: 2904600
    mEndSample: 2904600
  - mStartSample: 2916850
    mEndSample: 2916850
  - mStartSample: 2929100
    mEndSample: 2929100
  - mStartSample: 2941350
    mEndSample: 2941350
  - mStartSample: 2953600
    mEndSample: 2953600
  - mStartSample: 2965850
    mEndSample: 2965850
  - mStartSample: 2978100
    mEndSample: 2978100
  - mStartSample: 2990350
    mEndSample: 2990350
  - mStartSample: 3002600
    mEndSample: 3002600
  - mStartSample: 3014850
    mEndSample: 3014850
  - mStartSample: 3027100
    mEndSample: 3027100
  - mStartSample: 3039350
    mEndSample: 3039350
  - mStartSample: 3051600
    mEndSample: 3051600
  - mStartSample: 3063850
    mEndSample: 3063850
  - mStartSample: 3076100
    mEndSample: 3076100
  - mStartSample: 3088350
    mEndSample: 3088350
  - mStartSample: 3100600
    mEndSample: 3100600
  - mStartSample: 3112850
    mEndSample: 3112850
  - mStartSample: 3125100
    mEndSample: 3125100
  - mStartSample: 3137350
    mEndSample: 3137350
  - mStartSample: 3174100
    mEndSample: 3174100
  - mStartSample: 3223100
    mEndSample: 3223100
  - mStartSample: 3235350
    mEndSample: 3235350
  - mStartSample: 3251683
    mEndSample: 3251683
  - mStartSample: 3272100
    mEndSample: 3272100
  - mStartSample: 3296600
    mEndSample: 3296600
  - mStartSample: 3308850
    mEndSample: 3308850
  - mStartSample: 3321100
    mEndSample: 3321100
  - mStartSample: 3333350
    mEndSample: 3333350
  - mStartSample: 3349950
    mEndSample: 3349950
  - mStartSample: 3370100
    mEndSample: 3370100
  - mStartSample: 3419100
    mEndSample: 3419100
  - mStartSample: 3431350
    mEndSample: 3431350
  - mStartSample: 3447683
    mEndSample: 3447683
  - mStartSample: 3468100
    mEndSample: 3468100
  - mStartSample: 3492600
    mEndSample: 3492600
  - mStartSample: 3504850
    mEndSample: 3504850
  - mStartSample: 3517100
    mEndSample: 3517100
  - mStartSample: 3529350
    mEndSample: 3529350
  - mStartSample: 3566100
    mEndSample: 3566100
  - mStartSample: 3615100
    mEndSample: 3615100
  - mStartSample: 3627350
    mEndSample: 3627350
  - mStartSample: 3643683
    mEndSample: 3643683
  - mStartSample: 3664100
    mEndSample: 3664100
  - mStartSample: 3688600
    mEndSample: 3688600
  - mStartSample: 3700850
    mEndSample: 3700850
  - mStartSample: 3713100
    mEndSample: 3713100
  - mStartSample: 3725350
    mEndSample: 3725350
  - mStartSample: 3762100
    mEndSample: 3762100
  - mStartSample: 3811100
    mEndSample: 3811100
  - mStartSample: 3823350
    mEndSample: 3823350
  - mStartSample: 3839683
    mEndSample: 3839683
  - mStartSample: 3860100
    mEndSample: 3860100
  - mStartSample: 3884600
    mEndSample: 3884600
  - mStartSample: 3896850
    mEndSample: 3896850
  - mStartSample: 3909100
    mEndSample: 3909100
  - mStartSample: 3921350
    mEndSample: 3921350
  - mStartSample: 3933600
    mEndSample: 3933600
  - mStartSample: 3945850
    mEndSample: 3945850
  - mStartSample: 3958100
    mEndSample: 3958100
  - mStartSample: 3970350
    mEndSample: 3970350
  - mStartSample: 3982600
    mEndSample: 3982600
  - mStartSample: 3994850
    mEndSample: 3994850
  - mStartSample: 4007100
    mEndSample: 4007100
  - mStartSample: 4019350
    mEndSample: 4019350
  - mStartSample: 4031600
    mEndSample: 4031600
  - mStartSample: 4043850
    mEndSample: 4043850
  - mStartSample: 4056100
    mEndSample: 4056100
  - mStartSample: 4068350
    mEndSample: 4068350
  - mStartSample: 4080600
    mEndSample: 4080600
  - mStartSample: 4092850
    mEndSample: 4092850
  - mStartSample: 4105100
    mEndSample: 4105100
  - mStartSample: 4117350
    mEndSample: 4117350
  - mStartSample: 4129600
    mEndSample: 4129600
  - mStartSample: 4141850
    mEndSample: 4141850
  - mStartSample: 4154100
    mEndSample: 4154100
  - mStartSample: 4166350
    mEndSample: 4166350
  - mStartSample: 4178600
    mEndSample: 4178600
  - mStartSample: 4190850
    mEndSample: 4190850
  - mStartSample: 4203100
    mEndSample: 4203100
  - mStartSample: 4215350
    mEndSample: 4215350
  - mStartSample: 4227600
    mEndSample: 4227600
  - mStartSample: 4239850
    mEndSample: 4239850
  - mStartSample: 4252100
    mEndSample: 4252100
  - mStartSample: 4264350
    mEndSample: 4264350
  - mStartSample: 4276600
    mEndSample: 4276600
  - mStartSample: 4288850
    mEndSample: 4288850
  - mStartSample: 4301100
    mEndSample: 4301100
  - mStartSample: 4313350
    mEndSample: 4313350
  - mStartSample: 4325600
    mEndSample: 4325600
  - mStartSample: 4337850
    mEndSample: 4337850
  - mStartSample: 4350100
    mEndSample: 4350100
  - mStartSample: 4362350
    mEndSample: 4362350
  - mStartSample: 4374600
    mEndSample: 4374600
  - mStartSample: 4386850
    mEndSample: 4386850
  - mStartSample: 4399100
    mEndSample: 4399100
  - mStartSample: 4411350
    mEndSample: 4411350
  - mStartSample: 4423600
    mEndSample: 4423600
  - mStartSample: 4435850
    mEndSample: 4435850
  - mStartSample: 4448100
    mEndSample: 4448100
  - mStartSample: 4460350
    mEndSample: 4460350
  - mStartSample: 4472600
    mEndSample: 4472600
  - mStartSample: 4484850
    mEndSample: 4484850
  - mStartSample: 4497100
    mEndSample: 4497100
  - mStartSample: 4509350
    mEndSample: 4509350
  - mStartSample: 4521600
    mEndSample: 4521600
  - mStartSample: 4533850
    mEndSample: 4533850
  - mStartSample: 4546100
    mEndSample: 4546100
  - mStartSample: 4558350
    mEndSample: 4558350
  - mStartSample: 4570600
    mEndSample: 4570600
  - mStartSample: 4582850
    mEndSample: 4582850
  - mStartSample: 4595100
    mEndSample: 4595100
  - mStartSample: 4607350
    mEndSample: 4607350
  - mStartSample: 4619600
    mEndSample: 4619600
  - mStartSample: 4631850
    mEndSample: 4631850
  - mStartSample: 4644100
    mEndSample: 4644100
  - mStartSample: 4656350
    mEndSample: 4656350
  - mStartSample: 4668600
    mEndSample: 4668600
  - mStartSample: 4680850
    mEndSample: 4680850
  - mStartSample: 4693100
    mEndSample: 4693100
  - mStartSample: 4705350
    mEndSample: 4705350
  - mStartSample: 4717600
    mEndSample: 4717600
  - mStartSample: 4729850
    mEndSample: 4729850
  - mStartSample: 4742100
    mEndSample: 4742100
  - mStartSample: 4754350
    mEndSample: 4754350
  - mStartSample: 4766600
    mEndSample: 4766600
  - mStartSample: 4778850
    mEndSample: 4778850
  - mStartSample: 4791100
    mEndSample: 4791100
  - mStartSample: 4803350
    mEndSample: 4803350
  - mStartSample: 4815600
    mEndSample: 4815600
  - mStartSample: 4827850
    mEndSample: 4827850
  - mStartSample: 4840100
    mEndSample: 4840100
  - mStartSample: 4852350
    mEndSample: 4852350
  - mStartSample: 4864600
    mEndSample: 4864600
  - mStartSample: 4876850
    mEndSample: 4876850
  - mStartSample: 4889100
    mEndSample: 4889100
  - mStartSample: 4901350
    mEndSample: 4901350
  - mStartSample: 4913600
    mEndSample: 4913600
  - mStartSample: 4925850
    mEndSample: 4925850
  - mStartSample: 4938100
    mEndSample: 4938100
  - mStartSample: 4950350
    mEndSample: 4950350
  - mStartSample: 4962600
    mEndSample: 4962600
  - mStartSample: 4974850
    mEndSample: 4974850
  - mStartSample: 4987100
    mEndSample: 4987100
  - mStartSample: 4999350
    mEndSample: 4999350
  - mStartSample: 5011600
    mEndSample: 5011600
  - mStartSample: 5023850
    mEndSample: 5023850
  - mStartSample: 5036100
    mEndSample: 5036100
  - mStartSample: 5048350
    mEndSample: 5048350
  - mStartSample: 5060600
    mEndSample: 5060600
  - mStartSample: 5072850
    mEndSample: 5072850
  - mStartSample: 5085100
    mEndSample: 5085100
  - mStartSample: 5097350
    mEndSample: 5097350
  - mStartSample: 5134100
    mEndSample: 5134100
  - mStartSample: 5183100
    mEndSample: 5183100
  - mStartSample: 5195350
    mEndSample: 5195350
  - mStartSample: 5211683
    mEndSample: 5211683
  - mStartSample: 5232100
    mEndSample: 5232100
  - mStartSample: 5256600
    mEndSample: 5256600
  - mStartSample: 5268850
    mEndSample: 5268850
  - mStartSample: 5281100
    mEndSample: 5281100
  - mStartSample: 5293350
    mEndSample: 5293350
  - mStartSample: 5309683
    mEndSample: 5309683
  - mStartSample: 5330100
    mEndSample: 5330100
  - mStartSample: 5379100
    mEndSample: 5379100
  - mStartSample: 5391350
    mEndSample: 5391350
  - mStartSample: 5407683
    mEndSample: 5407683
  - mStartSample: 5428100
    mEndSample: 5428100
  - mStartSample: 5452600
    mEndSample: 5452600
  - mStartSample: 5464850
    mEndSample: 5464850
  - mStartSample: 5477100
    mEndSample: 5477100
  - mStartSample: 5489350
    mEndSample: 5489350
  _SerializedPayloadTypes:
  - SonicBloom.Koreo.TextPayload
  _AssetPayloads: []
  _AssetPayloadIdxs: 
  _ColorPayloads: []
  _ColorPayloadIdxs: 
  _CurvePayloads: []
  _CurvePayloadIdxs: 
  _FloatPayloads: []
  _FloatPayloadIdxs: 
  _GradientPayloads: []
  _GradientPayloadIdxs: 
  _IntPayloads: []
  _IntPayloadIdxs: 
  _SpectrumPayloads: []
  _SpectrumPayloadIdxs: 
  _TextPayloads:
  - mTextVal: 1
  - mTextVal: 7
  - mTextVal: 1
  - mTextVal: 7
  - mTextVal: 1
  - mTextVal: 7
  - mTextVal: 1
  - mTextVal: 7
  - mTextVal: 1
  - mTextVal: 7
  - mTextVal: 1
  - mTextVal: 7
  - mTextVal: 1
  - mTextVal: 7
  - mTextVal: 1
  - mTextVal: 7
  - mTextVal: 1
  - mTextVal: 7
  - mTextVal: 1
  - mTextVal: 7
  - mTextVal: 1
  - mTextVal: 7
  - mTextVal: 1
  - mTextVal: 7
  - mTextVal: 1
  - mTextVal: 7
  - mTextVal: 1
  - mTextVal: 7
  - mTextVal: 1
  - mTextVal: 7
  - mTextVal: 1
  - mTextVal: 7
  - mTextVal: 1
  - mTextVal: 7
  - mTextVal: 1
  - mTextVal: 7
  - mTextVal: 1
  - mTextVal: 7
  - mTextVal: 1
  - mTextVal: 7
  - mTextVal: 1
  - mTextVal: 7
  - mTextVal: 1
  - mTextVal: 7
  - mTextVal: 1
  - mTextVal: 7
  - mTextVal: 1
  - mTextVal: 7
  - mTextVal: 1
  - mTextVal: 7
  - mTextVal: 1
  - mTextVal: 7
  - mTextVal: 1
  - mTextVal: 7
  - mTextVal: 1
  - mTextVal: 7
  _TextPayloadIdxs: 00000000030000000400000007000000080000000b0000000c0000000f00000010000000130000001400000017000000180000001b0000001c0000001f0000003300000037000000380000003c0000003d000000410000004200000046000000470000004b0000004c000000500000005100000055000000560000005a0000006f0000007e0000007f0000008e0000008f0000009e0000009f000000ae000000af000000be000000bf000000ce000000f40000000301000004010000130100001401000023010000240100003301000034010000430100004401000053010000
