%YAML 1.1
%TAG !u! tag:unity3d.com,2011:
--- !u!114 &11400000
MonoBehaviour:
  m_ObjectHideFlags: 0
  m_PrefabParentObject: {fileID: 0}
  m_PrefabInternal: {fileID: 0}
  m_GameObject: {fileID: 0}
  m_Enabled: 1
  m_EditorHideFlags: 0
  m_Script: {fileID: -1223223985, guid: aa81bbec85a3f423193272a7c6154986, type: 3}
  m_Name: P79track
  m_EditorClassIdentifier: 
  mEventID: Note
  mEventList:
  - mStartSample: 13000
    mEndSample: 13000
  - mStartSample: 24211
    mEndSample: 24211
  - mStartSample: 29817
    mEndSample: 29817
  - mStartSample: 35423
    mEndSample: 35423
  - mStartSample: 46635
    mEndSample: 46635
  - mStartSample: 52241
    mEndSample: 52241
  - mStartSample: 57847
    mEndSample: 57847
  - mStartSample: 69059
    mEndSample: 69059
  - mStartSample: 80271
    mEndSample: 80271
  - mStartSample: 102694
    mEndSample: 102694
  - mStartSample: 108300
    mEndSample: 108300
  - mStartSample: 113906
    mEndSample: 113906
  - mStartSample: 119512
    mEndSample: 119512
  - mStartSample: 125118
    mEndSample: 125118
  - mStartSample: 136330
    mEndSample: 136330
  - mStartSample: 147542
    mEndSample: 147542
  - mStartSample: 158754
    mEndSample: 158754
  - mStartSample: 169966
    mEndSample: 169966
  - mStartSample: 192389
    mEndSample: 192389
  - mStartSample: 203600
    mEndSample: 203600
  - mStartSample: 209206
    mEndSample: 209206
  - mStartSample: 214812
    mEndSample: 214812
  - mStartSample: 226024
    mEndSample: 226024
  - mStartSample: 231630
    mEndSample: 231630
  - mStartSample: 237236
    mEndSample: 237236
  - mStartSample: 248448
    mEndSample: 248448
  - mStartSample: 259660
    mEndSample: 259660
  - mStartSample: 282083
    mEndSample: 282083
  - mStartSample: 287689
    mEndSample: 287689
  - mStartSample: 293295
    mEndSample: 293295
  - mStartSample: 298901
    mEndSample: 298901
  - mStartSample: 304507
    mEndSample: 304507
  - mStartSample: 315719
    mEndSample: 315719
  - mStartSample: 326931
    mEndSample: 326931
  - mStartSample: 338143
    mEndSample: 338143
  - mStartSample: 349355
    mEndSample: 349355
  - mStartSample: 371779
    mEndSample: 371779
  - mStartSample: 377385
    mEndSample: 377385
  - mStartSample: 382991
    mEndSample: 382991
  - mStartSample: 388597
    mEndSample: 388597
  - mStartSample: 394203
    mEndSample: 394203
  - mStartSample: 416627
    mEndSample: 416627
  - mStartSample: 422233
    mEndSample: 422233
  - mStartSample: 427839
    mEndSample: 427839
  - mStartSample: 433445
    mEndSample: 433445
  - mStartSample: 439051
    mEndSample: 439051
  - mStartSample: 461474
    mEndSample: 461474
  - mStartSample: 467080
    mEndSample: 467080
  - mStartSample: 472686
    mEndSample: 472686
  - mStartSample: 478292
    mEndSample: 478292
  - mStartSample: 483898
    mEndSample: 483898
  - mStartSample: 495110
    mEndSample: 495110
  - mStartSample: 506322
    mEndSample: 506322
  - mStartSample: 511928
    mEndSample: 511928
  - mStartSample: 517534
    mEndSample: 517534
  - mStartSample: 523140
    mEndSample: 523140
  - mStartSample: 528746
    mEndSample: 528746
  - mStartSample: 551169
    mEndSample: 551169
  - mStartSample: 556775
    mEndSample: 556775
  - mStartSample: 562381
    mEndSample: 562381
  - mStartSample: 567987
    mEndSample: 567987
  - mStartSample: 573593
    mEndSample: 573593
  - mStartSample: 584805
    mEndSample: 584805
  - mStartSample: 596016
    mEndSample: 596016
  - mStartSample: 601622
    mEndSample: 601622
  - mStartSample: 607228
    mEndSample: 607228
  - mStartSample: 612834
    mEndSample: 612834
  - mStartSample: 618440
    mEndSample: 618440
  - mStartSample: 640864
    mEndSample: 640864
  - mStartSample: 652076
    mEndSample: 652076
  - mStartSample: 663288
    mEndSample: 663288
  - mStartSample: 674500
    mEndSample: 674500
  - mStartSample: 685711
    mEndSample: 685711
  - mStartSample: 691317
    mEndSample: 691317
  - mStartSample: 696923
    mEndSample: 696923
  - mStartSample: 702529
    mEndSample: 702529
  - mStartSample: 708135
    mEndSample: 708135
  - mStartSample: 730559
    mEndSample: 730559
  - mStartSample: 741771
    mEndSample: 741771
  - mStartSample: 747377
    mEndSample: 747377
  - mStartSample: 752983
    mEndSample: 752983
  - mStartSample: 764194
    mEndSample: 764194
  - mStartSample: 775406
    mEndSample: 775406
  - mStartSample: 786618
    mEndSample: 786618
  - mStartSample: 792224
    mEndSample: 792224
  - mStartSample: 797830
    mEndSample: 797830
  - mStartSample: 820253
    mEndSample: 820253
  - mStartSample: 831465
    mEndSample: 831465
  - mStartSample: 837071
    mEndSample: 837071
  - mStartSample: 842677
    mEndSample: 842677
  - mStartSample: 853888
    mEndSample: 853888
  - mStartSample: 865100
    mEndSample: 865100
  - mStartSample: 876312
    mEndSample: 876312
  - mStartSample: 881918
    mEndSample: 881918
  - mStartSample: 887524
    mEndSample: 887524
  - mStartSample: 909948
    mEndSample: 909948
  - mStartSample: 921160
    mEndSample: 921160
  - mStartSample: 926766
    mEndSample: 926766
  - mStartSample: 932372
    mEndSample: 932372
  - mStartSample: 943583
    mEndSample: 943583
  - mStartSample: 954795
    mEndSample: 954795
  - mStartSample: 960402
    mEndSample: 960402
  - mStartSample: 966007
    mEndSample: 966007
  - mStartSample: 971613
    mEndSample: 971613
  - mStartSample: 977219
    mEndSample: 977219
  - mStartSample: 999643
    mEndSample: 999643
  - mStartSample: 1010855
    mEndSample: 1010855
  - mStartSample: 1016461
    mEndSample: 1016461
  - mStartSample: 1022067
    mEndSample: 1022067
  - mStartSample: 1033278
    mEndSample: 1033278
  - mStartSample: 1044490
    mEndSample: 1044490
  - mStartSample: 1050097
    mEndSample: 1050097
  - mStartSample: 1055702
    mEndSample: 1055702
  - mStartSample: 1061308
    mEndSample: 1061308
  - mStartSample: 1066914
    mEndSample: 1066914
  - mStartSample: 1089338
    mEndSample: 1089338
  - mStartSample: 1100550
    mEndSample: 1100550
  - mStartSample: 1106156
    mEndSample: 1106156
  - mStartSample: 1111762
    mEndSample: 1111762
  - mStartSample: 1122973
    mEndSample: 1122973
  - mStartSample: 1134185
    mEndSample: 1134185
  - mStartSample: 1145397
    mEndSample: 1145397
  - mStartSample: 1156609
    mEndSample: 1156609
  - mStartSample: 1179033
    mEndSample: 1179033
  - mStartSample: 1190245
    mEndSample: 1190245
  - mStartSample: 1195851
    mEndSample: 1195851
  - mStartSample: 1201457
    mEndSample: 1201457
  - mStartSample: 1212668
    mEndSample: 1212668
  - mStartSample: 1223880
    mEndSample: 1223880
  - mStartSample: 1235092
    mEndSample: 1235092
  - mStartSample: 1246304
    mEndSample: 1246304
  - mStartSample: 1268728
    mEndSample: 1268728
  - mStartSample: 1279940
    mEndSample: 1279940
  - mStartSample: 1285546
    mEndSample: 1285546
  - mStartSample: 1291152
    mEndSample: 1291152
  - mStartSample: 1302363
    mEndSample: 1302363
  - mStartSample: 1313575
    mEndSample: 1313575
  - mStartSample: 1324787
    mEndSample: 1324787
  - mStartSample: 1335999
    mEndSample: 1335999
  - mStartSample: 1358423
    mEndSample: 1358423
  - mStartSample: 1369635
    mEndSample: 1369635
  - mStartSample: 1375241
    mEndSample: 1375241
  - mStartSample: 1380847
    mEndSample: 1380847
  - mStartSample: 1392058
    mEndSample: 1392058
  - mStartSample: 1403270
    mEndSample: 1403270
  - mStartSample: 1414482
    mEndSample: 1414482
  - mStartSample: 1425694
    mEndSample: 1425694
  - mStartSample: 1448118
    mEndSample: 1448118
  - mStartSample: 1459329
    mEndSample: 1459329
  - mStartSample: 1464935
    mEndSample: 1464935
  - mStartSample: 1470541
    mEndSample: 1470541
  - mStartSample: 1481753
    mEndSample: 1481753
  - mStartSample: 1487359
    mEndSample: 1487359
  - mStartSample: 1492965
    mEndSample: 1492965
  - mStartSample: 1504177
    mEndSample: 1504177
  - mStartSample: 1515389
    mEndSample: 1515389
  - mStartSample: 1537812
    mEndSample: 1537812
  - mStartSample: 1543418
    mEndSample: 1543418
  - mStartSample: 1549024
    mEndSample: 1549024
  - mStartSample: 1554630
    mEndSample: 1554630
  - mStartSample: 1560236
    mEndSample: 1560236
  - mStartSample: 1571448
    mEndSample: 1571448
  - mStartSample: 1582660
    mEndSample: 1582660
  - mStartSample: 1593872
    mEndSample: 1593872
  - mStartSample: 1605084
    mEndSample: 1605084
  - mStartSample: 1627507
    mEndSample: 1627507
  - mStartSample: 1638718
    mEndSample: 1638718
  - mStartSample: 1644324
    mEndSample: 1644324
  - mStartSample: 1649930
    mEndSample: 1649930
  - mStartSample: 1661142
    mEndSample: 1661142
  - mStartSample: 1666748
    mEndSample: 1666748
  - mStartSample: 1672354
    mEndSample: 1672354
  - mStartSample: 1683566
    mEndSample: 1683566
  - mStartSample: 1694778
    mEndSample: 1694778
  - mStartSample: 1717201
    mEndSample: 1717201
  - mStartSample: 1722807
    mEndSample: 1722807
  - mStartSample: 1728413
    mEndSample: 1728413
  - mStartSample: 1734019
    mEndSample: 1734019
  - mStartSample: 1739625
    mEndSample: 1739625
  - mStartSample: 1750837
    mEndSample: 1750837
  - mStartSample: 1762049
    mEndSample: 1762049
  - mStartSample: 1773261
    mEndSample: 1773261
  - mStartSample: 1784473
    mEndSample: 1784473
  - mStartSample: 1806897
    mEndSample: 1806897
  - mStartSample: 1818109
    mEndSample: 1818109
  - mStartSample: 1851745
    mEndSample: 1851745
  - mStartSample: 1862956
    mEndSample: 1862956
  - mStartSample: 1896592
    mEndSample: 1896592
  - mStartSample: 1907804
    mEndSample: 1907804
  - mStartSample: 1941440
    mEndSample: 1941440
  - mStartSample: 1952651
    mEndSample: 1952651
  - mStartSample: 1986287
    mEndSample: 1986287
  - mStartSample: 1997499
    mEndSample: 1997499
  - mStartSample: 2031134
    mEndSample: 2031134
  - mStartSample: 2042346
    mEndSample: 2042346
  - mStartSample: 2075982
    mEndSample: 2075982
  - mStartSample: 2080015
    mEndSample: 2080015
  - mStartSample: 2082465
    mEndSample: 2082465
  - mStartSample: 2085930
    mEndSample: 2085930
  - mStartSample: 2088555
    mEndSample: 2088555
  - mStartSample: 2091145
    mEndSample: 2091145
  - mStartSample: 2093910
    mEndSample: 2093910
  - mStartSample: 2096605
    mEndSample: 2096605
  - mStartSample: 2100070
    mEndSample: 2100070
  - mStartSample: 2103080
    mEndSample: 2103080
  - mStartSample: 2106545
    mEndSample: 2106545
  - mStartSample: 2108925
    mEndSample: 2108925
  - mStartSample: 2112610
    mEndSample: 2112610
  - mStartSample: 2115960
    mEndSample: 2115960
  - mStartSample: 2118370
    mEndSample: 2118370
  - mStartSample: 2120829
    mEndSample: 2120829
  - mStartSample: 2165677
    mEndSample: 2165677
  - mStartSample: 2176888
    mEndSample: 2176888
  - mStartSample: 2182494
    mEndSample: 2182494
  - mStartSample: 2188100
    mEndSample: 2188100
  - mStartSample: 2199312
    mEndSample: 2199312
  - mStartSample: 2204918
    mEndSample: 2204918
  - mStartSample: 2210524
    mEndSample: 2210524
  - mStartSample: 2221736
    mEndSample: 2221736
  - mStartSample: 2232948
    mEndSample: 2232948
  - mStartSample: 2255371
    mEndSample: 2255371
  - mStartSample: 2260977
    mEndSample: 2260977
  - mStartSample: 2266583
    mEndSample: 2266583
  - mStartSample: 2272189
    mEndSample: 2272189
  - mStartSample: 2277795
    mEndSample: 2277795
  - mStartSample: 2289007
    mEndSample: 2289007
  - mStartSample: 2300219
    mEndSample: 2300219
  - mStartSample: 2311431
    mEndSample: 2311431
  - mStartSample: 2322643
    mEndSample: 2322643
  - mStartSample: 2345067
    mEndSample: 2345067
  - mStartSample: 2356278
    mEndSample: 2356278
  - mStartSample: 2361884
    mEndSample: 2361884
  - mStartSample: 2367490
    mEndSample: 2367490
  - mStartSample: 2378702
    mEndSample: 2378702
  - mStartSample: 2384308
    mEndSample: 2384308
  - mStartSample: 2389914
    mEndSample: 2389914
  - mStartSample: 2401126
    mEndSample: 2401126
  - mStartSample: 2412338
    mEndSample: 2412338
  - mStartSample: 2434761
    mEndSample: 2434761
  - mStartSample: 2440367
    mEndSample: 2440367
  - mStartSample: 2445973
    mEndSample: 2445973
  - mStartSample: 2451579
    mEndSample: 2451579
  - mStartSample: 2457185
    mEndSample: 2457185
  - mStartSample: 2468397
    mEndSample: 2468397
  - mStartSample: 2479609
    mEndSample: 2479609
  - mStartSample: 2490821
    mEndSample: 2490821
  - mStartSample: 2502033
    mEndSample: 2502033
  - mStartSample: 2524456
    mEndSample: 2524456
  - mStartSample: 2530062
    mEndSample: 2530062
  - mStartSample: 2535668
    mEndSample: 2535668
  - mStartSample: 2541274
    mEndSample: 2541274
  - mStartSample: 2546880
    mEndSample: 2546880
  - mStartSample: 2569304
    mEndSample: 2569304
  - mStartSample: 2574910
    mEndSample: 2574910
  - mStartSample: 2580516
    mEndSample: 2580516
  - mStartSample: 2586122
    mEndSample: 2586122
  - mStartSample: 2591728
    mEndSample: 2591728
  - mStartSample: 2614151
    mEndSample: 2614151
  - mStartSample: 2619757
    mEndSample: 2619757
  - mStartSample: 2625363
    mEndSample: 2625363
  - mStartSample: 2630969
    mEndSample: 2630969
  - mStartSample: 2636575
    mEndSample: 2636575
  - mStartSample: 2647787
    mEndSample: 2647787
  - mStartSample: 2658999
    mEndSample: 2658999
  - mStartSample: 2664605
    mEndSample: 2664605
  - mStartSample: 2670211
    mEndSample: 2670211
  - mStartSample: 2675817
    mEndSample: 2675817
  - mStartSample: 2681423
    mEndSample: 2681423
  - mStartSample: 2703846
    mEndSample: 2703846
  - mStartSample: 2709452
    mEndSample: 2709452
  - mStartSample: 2715058
    mEndSample: 2715058
  - mStartSample: 2720664
    mEndSample: 2720664
  - mStartSample: 2726270
    mEndSample: 2726270
  - mStartSample: 2737482
    mEndSample: 2737482
  - mStartSample: 2748693
    mEndSample: 2748693
  - mStartSample: 2754299
    mEndSample: 2754299
  - mStartSample: 2759905
    mEndSample: 2759905
  - mStartSample: 2765511
    mEndSample: 2765511
  - mStartSample: 2771117
    mEndSample: 2771117
  - mStartSample: 2793541
    mEndSample: 2793541
  - mStartSample: 2804753
    mEndSample: 2804753
  - mStartSample: 2815965
    mEndSample: 2815965
  - mStartSample: 2827177
    mEndSample: 2827177
  - mStartSample: 2838388
    mEndSample: 2838388
  - mStartSample: 2843994
    mEndSample: 2843994
  - mStartSample: 2849600
    mEndSample: 2849600
  - mStartSample: 2855206
    mEndSample: 2855206
  - mStartSample: 2860812
    mEndSample: 2860812
  - mStartSample: 2883236
    mEndSample: 2883236
  - mStartSample: 2894448
    mEndSample: 2894448
  - mStartSample: 2900054
    mEndSample: 2900054
  - mStartSample: 2905660
    mEndSample: 2905660
  - mStartSample: 2916871
    mEndSample: 2916871
  - mStartSample: 2928083
    mEndSample: 2928083
  - mStartSample: 2939295
    mEndSample: 2939295
  - mStartSample: 2944901
    mEndSample: 2944901
  - mStartSample: 2950507
    mEndSample: 2950507
  - mStartSample: 2972930
    mEndSample: 2972930
  - mStartSample: 2984142
    mEndSample: 2984142
  - mStartSample: 2989748
    mEndSample: 2989748
  - mStartSample: 2995354
    mEndSample: 2995354
  - mStartSample: 3006565
    mEndSample: 3006565
  - mStartSample: 3017777
    mEndSample: 3017777
  - mStartSample: 3028989
    mEndSample: 3028989
  - mStartSample: 3034595
    mEndSample: 3034595
  - mStartSample: 3040201
    mEndSample: 3040201
  - mStartSample: 3062625
    mEndSample: 3062625
  - mStartSample: 3073837
    mEndSample: 3073837
  - mStartSample: 3079443
    mEndSample: 3079443
  - mStartSample: 3085049
    mEndSample: 3085049
  - mStartSample: 3096260
    mEndSample: 3096260
  - mStartSample: 3107472
    mEndSample: 3107472
  - mStartSample: 3113079
    mEndSample: 3113079
  - mStartSample: 3118684
    mEndSample: 3118684
  - mStartSample: 3124290
    mEndSample: 3124290
  - mStartSample: 3129896
    mEndSample: 3129896
  - mStartSample: 3152320
    mEndSample: 3152320
  - mStartSample: 3163532
    mEndSample: 3163532
  - mStartSample: 3169138
    mEndSample: 3169138
  - mStartSample: 3174744
    mEndSample: 3174744
  - mStartSample: 3185955
    mEndSample: 3185955
  - mStartSample: 3197167
    mEndSample: 3197167
  - mStartSample: 3202774
    mEndSample: 3202774
  - mStartSample: 3208379
    mEndSample: 3208379
  - mStartSample: 3213985
    mEndSample: 3213985
  - mStartSample: 3219591
    mEndSample: 3219591
  - mStartSample: 3242015
    mEndSample: 3242015
  - mStartSample: 3253227
    mEndSample: 3253227
  - mStartSample: 3258833
    mEndSample: 3258833
  - mStartSample: 3264439
    mEndSample: 3264439
  - mStartSample: 3275650
    mEndSample: 3275650
  - mStartSample: 3286862
    mEndSample: 3286862
  - mStartSample: 3298074
    mEndSample: 3298074
  - mStartSample: 3309286
    mEndSample: 3309286
  - mStartSample: 3320499
    mEndSample: 3320499
  - mStartSample: 3331710
    mEndSample: 3331710
  - mStartSample: 3342922
    mEndSample: 3342922
  - mStartSample: 3348528
    mEndSample: 3348528
  - mStartSample: 3354134
    mEndSample: 3354134
  - mStartSample: 3365345
    mEndSample: 3365345
  - mStartSample: 3376557
    mEndSample: 3376557
  - mStartSample: 3387769
    mEndSample: 3387769
  - mStartSample: 3398981
    mEndSample: 3398981
  - mStartSample: 3421405
    mEndSample: 3421405
  - mStartSample: 3432617
    mEndSample: 3432617
  - mStartSample: 3438223
    mEndSample: 3438223
  - mStartSample: 3443829
    mEndSample: 3443829
  - mStartSample: 3455040
    mEndSample: 3455040
  - mStartSample: 3466252
    mEndSample: 3466252
  - mStartSample: 3477464
    mEndSample: 3477464
  - mStartSample: 3488676
    mEndSample: 3488676
  - mStartSample: 3499889
    mEndSample: 3499889
  - mStartSample: 3511100
    mEndSample: 3511100
  - mStartSample: 3522312
    mEndSample: 3522312
  - mStartSample: 3527918
    mEndSample: 3527918
  - mStartSample: 3533524
    mEndSample: 3533524
  - mStartSample: 3544735
    mEndSample: 3544735
  - mStartSample: 3555947
    mEndSample: 3555947
  - mStartSample: 3567159
    mEndSample: 3567159
  - mStartSample: 3578371
    mEndSample: 3578371
  - mStartSample: 3600795
    mEndSample: 3600795
  - mStartSample: 3612006
    mEndSample: 3612006
  - mStartSample: 3617612
    mEndSample: 3617612
  - mStartSample: 3623218
    mEndSample: 3623218
  - mStartSample: 3634430
    mEndSample: 3634430
  - mStartSample: 3640036
    mEndSample: 3640036
  - mStartSample: 3645642
    mEndSample: 3645642
  - mStartSample: 3656854
    mEndSample: 3656854
  - mStartSample: 3668066
    mEndSample: 3668066
  - mStartSample: 3690489
    mEndSample: 3690489
  - mStartSample: 3696095
    mEndSample: 3696095
  - mStartSample: 3701701
    mEndSample: 3701701
  - mStartSample: 3707307
    mEndSample: 3707307
  - mStartSample: 3712913
    mEndSample: 3712913
  - mStartSample: 3724125
    mEndSample: 3724125
  - mStartSample: 3735337
    mEndSample: 3735337
  - mStartSample: 3746549
    mEndSample: 3746549
  - mStartSample: 3757761
    mEndSample: 3757761
  - mStartSample: 3780185
    mEndSample: 3780185
  - mStartSample: 3791396
    mEndSample: 3791396
  - mStartSample: 3797002
    mEndSample: 3797002
  - mStartSample: 3802608
    mEndSample: 3802608
  - mStartSample: 3813820
    mEndSample: 3813820
  - mStartSample: 3819426
    mEndSample: 3819426
  - mStartSample: 3825032
    mEndSample: 3825032
  - mStartSample: 3836244
    mEndSample: 3836244
  - mStartSample: 3847456
    mEndSample: 3847456
  - mStartSample: 3869879
    mEndSample: 3869879
  - mStartSample: 3875485
    mEndSample: 3875485
  - mStartSample: 3881091
    mEndSample: 3881091
  - mStartSample: 3886697
    mEndSample: 3886697
  - mStartSample: 3892303
    mEndSample: 3892303
  - mStartSample: 3903515
    mEndSample: 3903515
  - mStartSample: 3914727
    mEndSample: 3914727
  - mStartSample: 3925939
    mEndSample: 3925939
  - mStartSample: 3937151
    mEndSample: 3937151
  _SerializedPayloadTypes:
  - SonicBloom.Koreo.TextPayload
  _AssetPayloads: []
  _AssetPayloadIdxs: 
  _ColorPayloads: []
  _ColorPayloadIdxs: 
  _CurvePayloads: []
  _CurvePayloadIdxs: 
  _FloatPayloads: []
  _FloatPayloadIdxs: 
  _GradientPayloads: []
  _GradientPayloadIdxs: 
  _IntPayloads: []
  _IntPayloadIdxs: 
  _SpectrumPayloads: []
  _SpectrumPayloadIdxs: 
  _TextPayloads:
  - mTextVal: 1
  - mTextVal: 7
  - mTextVal: 1
  - mTextVal: 7
  - mTextVal: 1
  - mTextVal: 7
  - mTextVal: 1
  - mTextVal: 7
  - mTextVal: 1
  - mTextVal: 7
  - mTextVal: 1
  - mTextVal: 7
  - mTextVal: 1
  - mTextVal: 7
  - mTextVal: 1
  - mTextVal: 7
  - mTextVal: 1
  - mTextVal: 7
  - mTextVal: 1
  - mTextVal: 7
  - mTextVal: 1
  - mTextVal: 7
  - mTextVal: 1
  - mTextVal: 7
  - mTextVal: 1
  - mTextVal: 7
  - mTextVal: 1
  - mTextVal: 7
  - mTextVal: 1
  - mTextVal: 7
  - mTextVal: 1
  - mTextVal: 7
  - mTextVal: 1
  - mTextVal: 7
  - mTextVal: 1
  - mTextVal: 7
  - mTextVal: 1
  - mTextVal: 7
  - mTextVal: 1
  - mTextVal: 7
  - mTextVal: 1
  - mTextVal: 7
  - mTextVal: 1
  - mTextVal: 7
  - mTextVal: 1
  - mTextVal: 7
  - mTextVal: 1
  - mTextVal: 7
  - mTextVal: 1
  - mTextVal: 7
  - mTextVal: 1
  - mTextVal: 7
  - mTextVal: 1
  - mTextVal: 7
  - mTextVal: 1
  - mTextVal: 7
  - mTextVal: 1
  - mTextVal: 7
  - mTextVal: 1
  - mTextVal: 7
  - mTextVal: 1
  - mTextVal: 7
  - mTextVal: 1
  - mTextVal: 7
  - mTextVal: 1
  - mTextVal: 7
  - mTextVal: 1
  - mTextVal: 7
  - mTextVal: 1
  - mTextVal: 7
  - mTextVal: 1
  - mTextVal: 7
  - mTextVal: 1
  - mTextVal: 7
  - mTextVal: 1
  - mTextVal: 7
  - mTextVal: 1
  - mTextVal: 7
  - mTextVal: 1
  - mTextVal: 7
  - mTextVal: 1
  - mTextVal: 7
  - mTextVal: 1
  - mTextVal: 7
  - mTextVal: 1
  - mTextVal: 7
  - mTextVal: 1
  - mTextVal: 7
  - mTextVal: 1
  - mTextVal: 7
  - mTextVal: 1
  - mTextVal: 7
  _TextPayloadIdxs: 00000000080000000900000011000000120000001a0000001b000000230000002400000028000000290000002d0000002e000000320000003400000038000000390000003d0000003f00000043000000480000004c0000004d00000055000000560000005e0000005f000000680000006900000072000000730000007a0000007b00000082000000830000008a0000008b00000092000000930000009b0000009c000000a4000000a5000000ad000000ae000000b6000000d3000000db000000dc000000e4000000e5000000ed000000ee000000f6000000f7000000fb000000fc000000000100000101000005010000070100000b0100000c0100001001000012010000160100001b0100001f01000020010000280100002901000031010000320100003b0100003c01000045010000460100004d0100004f01000056010000570100005e0100006001000067010000680100007001000071010000790100007a01000082010000830100008b010000
