%YAML 1.1
%TAG !u! tag:unity3d.com,2011:
--- !u!114 &11400000
MonoBehaviour:
  m_ObjectHideFlags: 0
  m_PrefabParentObject: {fileID: 0}
  m_PrefabInternal: {fileID: 0}
  m_GameObject: {fileID: 0}
  m_Enabled: 1
  m_EditorHideFlags: 0
  m_Script: {fileID: -2076007791, guid: aa81bbec85a3f423193272a7c6154986, type: 3}
  m_Name: P21
  m_EditorClassIdentifier: 
  mSourceClip: {fileID: 8300000, guid: 1b3e8927ea4bd8c449788b1db736e52f, type: 3}
  mAudioFilePath: 
  mSampleRate: 44100
  mIgnoreLatencyOffset: 0
  mTempoSections:
  - sectionName: New Section
    startSample: 0
    samplesPerBeat: 15206.896551724138
    beatsPerMeasure: 4
    bStartNewMeasure: 1
  - sectionName: New Section
    startSample: 31858
    samplesPerBeat: 15206.896551724138
    beatsPerMeasure: 4
    bStartNewMeasure: 1
  mTracks:
  - {fileID: 11400000, guid: 30a668dc0ac4c2a4d9459ac28b4efc26, type: 2}
  - {fileID: 11400000, guid: e93c4a8bc36f37641b465aab83b34e9e, type: 2}
