%YAML 1.1
%TAG !u! tag:unity3d.com,2011:
--- !u!114 &11400000
MonoBehaviour:
  m_ObjectHideFlags: 0
  m_PrefabParentObject: {fileID: 0}
  m_PrefabInternal: {fileID: 0}
  m_GameObject: {fileID: 0}
  m_Enabled: 1
  m_EditorHideFlags: 0
  m_Script: {fileID: -1223223985, guid: aa81bbec85a3f423193272a7c6154986, type: 3}
  m_Name: P02track
  m_EditorClassIdentifier: 
  mEventID: P02track
  mEventList:
  - mStartSample: 60400
    mEndSample: 60400
  - mStartSample: 79300
    mEndSample: 79300
  - mStartSample: 98200
    mEndSample: 98200
  - mStartSample: 117100
    mEndSample: 117100
  - mStartSample: 136000
    mEndSample: 136000
  - mStartSample: 154900
    mEndSample: 154900
  - mStartSample: 173800
    mEndSample: 173800
  - mStartSample: 211600
    mEndSample: 211600
  - mStartSample: 230500
    mEndSample: 230500
  - mStartSample: 249400
    mEndSample: 249400
  - mStartSample: 268300
    mEndSample: 268300
  - mStartSample: 287200
    mEndSample: 287200
  - mStartSample: 306100
    mEndSample: 306100
  - mStartSample: 325000
    mEndSample: 325000
  - mStartSample: 362800
    mEndSample: 362800
  - mStartSample: 381700
    mEndSample: 381700
  - mStartSample: 400600
    mEndSample: 400600
  - mStartSample: 419500
    mEndSample: 419500
  - mStartSample: 438400
    mEndSample: 438400
  - mStartSample: 457300
    mEndSample: 457300
  - mStartSample: 476200
    mEndSample: 476200
  - mStartSample: 514000
    mEndSample: 514000
  - mStartSample: 532900
    mEndSample: 532900
  - mStartSample: 551800
    mEndSample: 551800
  - mStartSample: 570700
    mEndSample: 570700
  - mStartSample: 589600
    mEndSample: 589600
  - mStartSample: 608500
    mEndSample: 608500
  - mStartSample: 627400
    mEndSample: 627400
  - mStartSample: 665200
    mEndSample: 665200
  - mStartSample: 684100
    mEndSample: 684100
  - mStartSample: 703000
    mEndSample: 703000
  - mStartSample: 721900
    mEndSample: 721900
  - mStartSample: 740800
    mEndSample: 740800
  - mStartSample: 759700
    mEndSample: 759700
  - mStartSample: 778600
    mEndSample: 778600
  - mStartSample: 816400
    mEndSample: 816400
  - mStartSample: 835300
    mEndSample: 835300
  - mStartSample: 854200
    mEndSample: 854200
  - mStartSample: 873100
    mEndSample: 873100
  - mStartSample: 892000
    mEndSample: 892000
  - mStartSample: 910900
    mEndSample: 910900
  - mStartSample: 929800
    mEndSample: 929800
  - mStartSample: 948700
    mEndSample: 948700
  - mStartSample: 1024300
    mEndSample: 1024300
  - mStartSample: 1043200
    mEndSample: 1043200
  - mStartSample: 1062100
    mEndSample: 1062100
  - mStartSample: 1081000
    mEndSample: 1081000
  - mStartSample: 1099900
    mEndSample: 1099900
  - mStartSample: 1175500
    mEndSample: 1175500
  - mStartSample: 1194400
    mEndSample: 1194400
  - mStartSample: 1213300
    mEndSample: 1213300
  - mStartSample: 1232200
    mEndSample: 1232200
  - mStartSample: 1251100
    mEndSample: 1251100
  - mStartSample: 1307800
    mEndSample: 1307800
  - mStartSample: 1326700
    mEndSample: 1326700
  - mStartSample: 1345600
    mEndSample: 1345600
  - mStartSample: 1364500
    mEndSample: 1364500
  - mStartSample: 1383400
    mEndSample: 1383400
  - mStartSample: 1459000
    mEndSample: 1459000
  - mStartSample: 1477900
    mEndSample: 1477900
  - mStartSample: 1496800
    mEndSample: 1496800
  - mStartSample: 1515700
    mEndSample: 1515700
  - mStartSample: 1534600
    mEndSample: 1534600
  - mStartSample: 1629100
    mEndSample: 1629100
  - mStartSample: 1648000
    mEndSample: 1648000
  - mStartSample: 1666900
    mEndSample: 1666900
  - mStartSample: 1685800
    mEndSample: 1685800
  - mStartSample: 1780300
    mEndSample: 1780300
  - mStartSample: 1799200
    mEndSample: 1799200
  - mStartSample: 1818100
    mEndSample: 1818100
  - mStartSample: 1837000
    mEndSample: 1837000
  - mStartSample: 1855900
    mEndSample: 1855900
  - mStartSample: 1969300
    mEndSample: 1969300
  - mStartSample: 1988200
    mEndSample: 1988200
  - mStartSample: 2007100
    mEndSample: 2007100
  - mStartSample: 2101600
    mEndSample: 2101600
  - mStartSample: 2120500
    mEndSample: 2120500
  - mStartSample: 2139400
    mEndSample: 2139400
  - mStartSample: 2158300
    mEndSample: 2158300
  - mStartSample: 2233900
    mEndSample: 2233900
  - mStartSample: 2252800
    mEndSample: 2252800
  - mStartSample: 2271700
    mEndSample: 2271700
  - mStartSample: 2290600
    mEndSample: 2290600
  - mStartSample: 2309500
    mEndSample: 2309500
  - mStartSample: 2385100
    mEndSample: 2385100
  - mStartSample: 2404000
    mEndSample: 2404000
  - mStartSample: 2422900
    mEndSample: 2422900
  - mStartSample: 2441800
    mEndSample: 2441800
  - mStartSample: 2460700
    mEndSample: 2460700
  - mStartSample: 2536300
    mEndSample: 2536300
  - mStartSample: 2555200
    mEndSample: 2555200
  - mStartSample: 2574100
    mEndSample: 2574100
  - mStartSample: 2593000
    mEndSample: 2593000
  - mStartSample: 2611900
    mEndSample: 2611900
  - mStartSample: 2687500
    mEndSample: 2687500
  - mStartSample: 2706400
    mEndSample: 2706400
  - mStartSample: 2725300
    mEndSample: 2725300
  - mStartSample: 2744200
    mEndSample: 2744200
  - mStartSample: 2763100
    mEndSample: 2763100
  - mStartSample: 2838700
    mEndSample: 2838700
  - mStartSample: 2857600
    mEndSample: 2857600
  - mStartSample: 2876500
    mEndSample: 2876500
  - mStartSample: 2895400
    mEndSample: 2895400
  - mStartSample: 2914300
    mEndSample: 2914300
  - mStartSample: 2989900
    mEndSample: 2989900
  - mStartSample: 3008800
    mEndSample: 3008800
  - mStartSample: 3027700
    mEndSample: 3027700
  - mStartSample: 3046600
    mEndSample: 3046600
  - mStartSample: 3065500
    mEndSample: 3065500
  - mStartSample: 3141100
    mEndSample: 3141100
  - mStartSample: 3160000
    mEndSample: 3160000
  - mStartSample: 3178900
    mEndSample: 3178900
  - mStartSample: 3197800
    mEndSample: 3197800
  - mStartSample: 3216700
    mEndSample: 3216700
  - mStartSample: 3292300
    mEndSample: 3292300
  - mStartSample: 3311200
    mEndSample: 3311200
  - mStartSample: 3330100
    mEndSample: 3330100
  - mStartSample: 3349000
    mEndSample: 3349000
  - mStartSample: 3367900
    mEndSample: 3367900
  - mStartSample: 3386800
    mEndSample: 3386800
  - mStartSample: 3405700
    mEndSample: 3405700
  - mStartSample: 3481300
    mEndSample: 3481300
  - mStartSample: 3511833
    mEndSample: 3511833
  - mStartSample: 3519100
    mEndSample: 3519100
  - mStartSample: 3556900
    mEndSample: 3556900
  - mStartSample: 3594700
    mEndSample: 3594700
  - mStartSample: 3632500
    mEndSample: 3632500
  - mStartSample: 3670300
    mEndSample: 3670300
  - mStartSample: 3745900
    mEndSample: 3745900
  - mStartSample: 3764800
    mEndSample: 3764800
  - mStartSample: 3783700
    mEndSample: 3783700
  - mStartSample: 3802600
    mEndSample: 3802600
  - mStartSample: 3821500
    mEndSample: 3821500
  - mStartSample: 3897100
    mEndSample: 3897100
  - mStartSample: 3916000
    mEndSample: 3916000
  - mStartSample: 3934900
    mEndSample: 3934900
  - mStartSample: 3953800
    mEndSample: 3953800
  - mStartSample: 3972700
    mEndSample: 3972700
  - mStartSample: 4010500
    mEndSample: 4010500
  - mStartSample: 4048300
    mEndSample: 4048300
  - mStartSample: 4086100
    mEndSample: 4086100
  - mStartSample: 4123900
    mEndSample: 4123900
  - mStartSample: 4199500
    mEndSample: 4199500
  - mStartSample: 4218400
    mEndSample: 4218400
  - mStartSample: 4237300
    mEndSample: 4237300
  - mStartSample: 4256200
    mEndSample: 4256200
  - mStartSample: 4275100
    mEndSample: 4275100
  - mStartSample: 4350700
    mEndSample: 4350700
  - mStartSample: 4369600
    mEndSample: 4369600
  - mStartSample: 4388500
    mEndSample: 4388500
  - mStartSample: 4407400
    mEndSample: 4407400
  - mStartSample: 4426300
    mEndSample: 4426300
  - mStartSample: 4501900
    mEndSample: 4501900
  - mStartSample: 4520800
    mEndSample: 4520800
  - mStartSample: 4539700
    mEndSample: 4539700
  - mStartSample: 4558600
    mEndSample: 4558600
  - mStartSample: 4577500
    mEndSample: 4577500
  - mStartSample: 4596400
    mEndSample: 4596400
  - mStartSample: 4615300
    mEndSample: 4615300
  - mStartSample: 4690900
    mEndSample: 4690900
  - mStartSample: 4720840
    mEndSample: 4720840
  - mStartSample: 4728700
    mEndSample: 4728700
  - mStartSample: 4879900
    mEndSample: 4879900
  - mStartSample: 4889350
    mEndSample: 4889350
  - mStartSample: 4898800
    mEndSample: 4898800
  - mStartSample: 4955500
    mEndSample: 4955500
  - mStartSample: 4974400
    mEndSample: 4974400
  - mStartSample: 4993300
    mEndSample: 4993300
  - mStartSample: 5012200
    mEndSample: 5012200
  - mStartSample: 5031100
    mEndSample: 5031100
  - mStartSample: 5040550
    mEndSample: 5040550
  - mStartSample: 5050000
    mEndSample: 5050000
  - mStartSample: 5106700
    mEndSample: 5106700
  - mStartSample: 5125600
    mEndSample: 5125600
  - mStartSample: 5144500
    mEndSample: 5144500
  - mStartSample: 5163400
    mEndSample: 5163400
  - mStartSample: 5182300
    mEndSample: 5182300
  - mStartSample: 5191750
    mEndSample: 5191750
  - mStartSample: 5201200
    mEndSample: 5201200
  - mStartSample: 5257900
    mEndSample: 5257900
  - mStartSample: 5276800
    mEndSample: 5276800
  - mStartSample: 5295700
    mEndSample: 5295700
  - mStartSample: 5314600
    mEndSample: 5314600
  - mStartSample: 5333500
    mEndSample: 5333500
  - mStartSample: 5342950
    mEndSample: 5342950
  - mStartSample: 5352400
    mEndSample: 5352400
  - mStartSample: 5409100
    mEndSample: 5409100
  - mStartSample: 5428000
    mEndSample: 5428000
  - mStartSample: 5446900
    mEndSample: 5446900
  - mStartSample: 5465800
    mEndSample: 5465800
  - mStartSample: 5484700
    mEndSample: 5484700
  - mStartSample: 5598100
    mEndSample: 5598100
  - mStartSample: 5617000
    mEndSample: 5617000
  - mStartSample: 5635900
    mEndSample: 5635900
  - mStartSample: 5749300
    mEndSample: 5749300
  - mStartSample: 5768200
    mEndSample: 5768200
  - mStartSample: 5787100
    mEndSample: 5787100
  - mStartSample: 5862700
    mEndSample: 5862700
  - mStartSample: 5881600
    mEndSample: 5881600
  - mStartSample: 5900500
    mEndSample: 5900500
  - mStartSample: 5919400
    mEndSample: 5919400
  - mStartSample: 5938300
    mEndSample: 5938300
  - mStartSample: 6015384
    mEndSample: 6015384
  - mStartSample: 6036444
    mEndSample: 6036444
  - mStartSample: 6060420
    mEndSample: 6060420
  - mStartSample: 6089500
    mEndSample: 6089500
  - mStartSample: 6141096
    mEndSample: 6141096
  _SerializedPayloadTypes:
  - SonicBloom.Koreo.TextPayload
  _AssetPayloads: []
  _AssetPayloadIdxs: 
  _ColorPayloads: []
  _ColorPayloadIdxs: 
  _CurvePayloads: []
  _CurvePayloadIdxs: 
  _FloatPayloads: []
  _FloatPayloadIdxs: 
  _GradientPayloads: []
  _GradientPayloadIdxs: 
  _IntPayloads: []
  _IntPayloadIdxs: 
  _SpectrumPayloads: []
  _SpectrumPayloadIdxs: 
  _TextPayloads:
  - mTextVal: 1
  - mTextVal: 7
  - mTextVal: 1
  - mTextVal: 7
  - mTextVal: 1
  - mTextVal: 7
  - mTextVal: 1
  - mTextVal: 7
  - mTextVal: 1
  - mTextVal: 7
  - mTextVal: 1
  - mTextVal: 7
  _TextPayloadIdxs: 0000000006000000070000000d0000000e00000014000000150000001b0000001c000000220000002300000029000000
