%YAML 1.1
%TAG !u! tag:unity3d.com,2011:
--- !u!114 &11400000
MonoBehaviour:
  m_ObjectHideFlags: 0
  m_PrefabParentObject: {fileID: 0}
  m_PrefabInternal: {fileID: 0}
  m_GameObject: {fileID: 0}
  m_Enabled: 1
  m_EditorHideFlags: 0
  m_Script: {fileID: -1223223985, guid: aa81bbec85a3f423193272a7c6154986, type: 3}
  m_Name: P01track
  m_EditorClassIdentifier: 
  mEventID: Note
  mEventList:
  - mStartSample: 20048
    mEndSample: 20048
  - mStartSample: 38296
    mEndSample: 38296
  - mStartSample: 56544
    mEndSample: 56544
  - mStartSample: 74793
    mEndSample: 74793
  - mStartSample: 93041
    mEndSample: 93041
  - mStartSample: 111289
    mEndSample: 111289
  - mStartSample: 129537
    mEndSample: 129537
  - mStartSample: 166034
    mEndSample: 166034
  - mStartSample: 184282
    mEndSample: 184282
  - mStartSample: 202530
    mEndSample: 202530
  - mStartSample: 220779
    mEndSample: 220779
  - mStartSample: 239027
    mEndSample: 239027
  - mStartSample: 257275
    mEndSample: 257275
  - mStartSample: 275523
    mEndSample: 275523
  - mStartSample: 312020
    mEndSample: 312020
  - mStartSample: 330268
    mEndSample: 330268
  - mStartSample: 348516
    mEndSample: 348516
  - mStartSample: 366765
    mEndSample: 366765
  - mStartSample: 385013
    mEndSample: 385013
  - mStartSample: 403261
    mEndSample: 403261
  - mStartSample: 421509
    mEndSample: 421509
  - mStartSample: 458006
    mEndSample: 458006
  - mStartSample: 476254
    mEndSample: 476254
  - mStartSample: 494502
    mEndSample: 494502
  - mStartSample: 512751
    mEndSample: 512751
  - mStartSample: 530999
    mEndSample: 530999
  - mStartSample: 549247
    mEndSample: 549247
  - mStartSample: 567495
    mEndSample: 567495
  - mStartSample: 585744
    mEndSample: 585744
  - mStartSample: 613117
    mEndSample: 613117
  - mStartSample: 640489
    mEndSample: 640489
  - mStartSample: 695234
    mEndSample: 695234
  - mStartSample: 704358
    mEndSample: 704358
  - mStartSample: 713482
    mEndSample: 713482
  - mStartSample: 722606
    mEndSample: 722606
  - mStartSample: 731731
    mEndSample: 731731
  - mStartSample: 759103
    mEndSample: 759103
  - mStartSample: 786475
    mEndSample: 786475
  - mStartSample: 841220
    mEndSample: 841220
  - mStartSample: 850344
    mEndSample: 850344
  - mStartSample: 859468
    mEndSample: 859468
  - mStartSample: 868593
    mEndSample: 868593
  - mStartSample: 877717
    mEndSample: 877717
  - mStartSample: 905089
    mEndSample: 905089
  - mStartSample: 932462
    mEndSample: 932462
  - mStartSample: 987206
    mEndSample: 987206
  - mStartSample: 996331
    mEndSample: 996331
  - mStartSample: 1005455
    mEndSample: 1005455
  - mStartSample: 1014579
    mEndSample: 1014579
  - mStartSample: 1069324
    mEndSample: 1069324
  - mStartSample: 1078448
    mEndSample: 1078448
  - mStartSample: 1087572
    mEndSample: 1087572
  - mStartSample: 1096696
    mEndSample: 1096696
  - mStartSample: 1133193
    mEndSample: 1133193
  - mStartSample: 1169689
    mEndSample: 1169689
  - mStartSample: 1197062
    mEndSample: 1197062
  - mStartSample: 1224434
    mEndSample: 1224434
  - mStartSample: 1279179
    mEndSample: 1279179
  - mStartSample: 1288303
    mEndSample: 1288303
  - mStartSample: 1297427
    mEndSample: 1297427
  - mStartSample: 1306551
    mEndSample: 1306551
  - mStartSample: 1315675
    mEndSample: 1315675
  - mStartSample: 1343048
    mEndSample: 1343048
  - mStartSample: 1370420
    mEndSample: 1370420
  - mStartSample: 1425165
    mEndSample: 1425165
  - mStartSample: 1434289
    mEndSample: 1434289
  - mStartSample: 1443413
    mEndSample: 1443413
  - mStartSample: 1452537
    mEndSample: 1452537
  - mStartSample: 1461662
    mEndSample: 1461662
  - mStartSample: 1489034
    mEndSample: 1489034
  - mStartSample: 1516406
    mEndSample: 1516406
  - mStartSample: 1571151
    mEndSample: 1571151
  - mStartSample: 1580275
    mEndSample: 1580275
  - mStartSample: 1589400
    mEndSample: 1589400
  - mStartSample: 1598524
    mEndSample: 1598524
  - mStartSample: 1653268
    mEndSample: 1653268
  - mStartSample: 1662393
    mEndSample: 1662393
  - mStartSample: 1671517
    mEndSample: 1671517
  - mStartSample: 1680641
    mEndSample: 1680641
  - mStartSample: 1753634
    mEndSample: 1753634
  - mStartSample: 1781006
    mEndSample: 1781006
  - mStartSample: 1808379
    mEndSample: 1808379
  - mStartSample: 1863124
    mEndSample: 1863124
  - mStartSample: 1872248
    mEndSample: 1872248
  - mStartSample: 1881372
    mEndSample: 1881372
  - mStartSample: 1890496
    mEndSample: 1890496
  - mStartSample: 1899620
    mEndSample: 1899620
  - mStartSample: 1926993
    mEndSample: 1926993
  - mStartSample: 1954365
    mEndSample: 1954365
  - mStartSample: 2009110
    mEndSample: 2009110
  - mStartSample: 2018234
    mEndSample: 2018234
  - mStartSample: 2027358
    mEndSample: 2027358
  - mStartSample: 2036482
    mEndSample: 2036482
  - mStartSample: 2045606
    mEndSample: 2045606
  - mStartSample: 2072979
    mEndSample: 2072979
  - mStartSample: 2100351
    mEndSample: 2100351
  - mStartSample: 2155096
    mEndSample: 2155096
  - mStartSample: 2164220
    mEndSample: 2164220
  - mStartSample: 2173344
    mEndSample: 2173344
  - mStartSample: 2182468
    mEndSample: 2182468
  - mStartSample: 2237213
    mEndSample: 2237213
  - mStartSample: 2246337
    mEndSample: 2246337
  - mStartSample: 2255462
    mEndSample: 2255462
  - mStartSample: 2301082
    mEndSample: 2301082
  - mStartSample: 2337579
    mEndSample: 2337579
  - mStartSample: 2364951
    mEndSample: 2364951
  - mStartSample: 2392324
    mEndSample: 2392324
  - mStartSample: 2447068
    mEndSample: 2447068
  - mStartSample: 2456193
    mEndSample: 2456193
  - mStartSample: 2465317
    mEndSample: 2465317
  - mStartSample: 2474441
    mEndSample: 2474441
  - mStartSample: 2483565
    mEndSample: 2483565
  - mStartSample: 2510937
    mEndSample: 2510937
  - mStartSample: 2538310
    mEndSample: 2538310
  - mStartSample: 2593055
    mEndSample: 2593055
  - mStartSample: 2602179
    mEndSample: 2602179
  - mStartSample: 2611303
    mEndSample: 2611303
  - mStartSample: 2620427
    mEndSample: 2620427
  - mStartSample: 2629551
    mEndSample: 2629551
  - mStartSample: 2656924
    mEndSample: 2656924
  - mStartSample: 2684296
    mEndSample: 2684296
  - mStartSample: 2739041
    mEndSample: 2739041
  - mStartSample: 2748165
    mEndSample: 2748165
  - mStartSample: 2757289
    mEndSample: 2757289
  - mStartSample: 2766413
    mEndSample: 2766413
  - mStartSample: 2821158
    mEndSample: 2821158
  - mStartSample: 2830282
    mEndSample: 2830282
  - mStartSample: 2839406
    mEndSample: 2839406
  - mStartSample: 2885027
    mEndSample: 2885027
  - mStartSample: 2939772
    mEndSample: 2939772
  - mStartSample: 2958020
    mEndSample: 2958020
  - mStartSample: 2976268
    mEndSample: 2976268
  - mStartSample: 2994517
    mEndSample: 2994517
  - mStartSample: 3012765
    mEndSample: 3012765
  - mStartSample: 3031013
    mEndSample: 3031013
  - mStartSample: 3049261
    mEndSample: 3049261
  - mStartSample: 3085758
    mEndSample: 3085758
  - mStartSample: 3104006
    mEndSample: 3104006
  - mStartSample: 3122254
    mEndSample: 3122254
  - mStartSample: 3140503
    mEndSample: 3140503
  - mStartSample: 3158751
    mEndSample: 3158751
  - mStartSample: 3176999
    mEndSample: 3176999
  - mStartSample: 3195247
    mEndSample: 3195247
  - mStartSample: 3231744
    mEndSample: 3231744
  - mStartSample: 3249992
    mEndSample: 3249992
  - mStartSample: 3268240
    mEndSample: 3268240
  - mStartSample: 3286489
    mEndSample: 3286489
  - mStartSample: 3304737
    mEndSample: 3304737
  - mStartSample: 3322985
    mEndSample: 3322985
  - mStartSample: 3341233
    mEndSample: 3341233
  - mStartSample: 3377731
    mEndSample: 3377731
  - mStartSample: 3395979
    mEndSample: 3395979
  - mStartSample: 3414227
    mEndSample: 3414227
  - mStartSample: 3432476
    mEndSample: 3432476
  - mStartSample: 3450724
    mEndSample: 3450724
  - mStartSample: 3468972
    mEndSample: 3468972
  - mStartSample: 3487220
    mEndSample: 3487220
  - mStartSample: 3523717
    mEndSample: 3523717
  - mStartSample: 3541965
    mEndSample: 3541965
  - mStartSample: 3560213
    mEndSample: 3560213
  - mStartSample: 3578462
    mEndSample: 3578462
  - mStartSample: 3596710
    mEndSample: 3596710
  - mStartSample: 3614958
    mEndSample: 3614958
  - mStartSample: 3633206
    mEndSample: 3633206
  - mStartSample: 3669703
    mEndSample: 3669703
  - mStartSample: 3687951
    mEndSample: 3687951
  - mStartSample: 3706199
    mEndSample: 3706199
  - mStartSample: 3724448
    mEndSample: 3724448
  - mStartSample: 3742696
    mEndSample: 3742696
  - mStartSample: 3760944
    mEndSample: 3760944
  - mStartSample: 3779192
    mEndSample: 3779192
  - mStartSample: 3815689
    mEndSample: 3815689
  - mStartSample: 3833937
    mEndSample: 3833937
  - mStartSample: 3852185
    mEndSample: 3852185
  - mStartSample: 3870434
    mEndSample: 3870434
  - mStartSample: 3888682
    mEndSample: 3888682
  - mStartSample: 3906930
    mEndSample: 3906930
  - mStartSample: 3925178
    mEndSample: 3925178
  - mStartSample: 3961675
    mEndSample: 3961675
  - mStartSample: 3979923
    mEndSample: 3979923
  - mStartSample: 3998171
    mEndSample: 3998171
  - mStartSample: 4016420
    mEndSample: 4016420
  - mStartSample: 4034668
    mEndSample: 4034668
  - mStartSample: 4052916
    mEndSample: 4052916
  - mStartSample: 4071164
    mEndSample: 4071164
  - mStartSample: 4089413
    mEndSample: 4089413
  - mStartSample: 4116786
    mEndSample: 4116786
  - mStartSample: 4144158
    mEndSample: 4144158
  - mStartSample: 4235400
    mEndSample: 4235400
  - mStartSample: 4262772
    mEndSample: 4262772
  - mStartSample: 4290144
    mEndSample: 4290144
  - mStartSample: 4381386
    mEndSample: 4381386
  - mStartSample: 4408758
    mEndSample: 4408758
  - mStartSample: 4436131
    mEndSample: 4436131
  - mStartSample: 4527372
    mEndSample: 4527372
  - mStartSample: 4600365
    mEndSample: 4600365
  - mStartSample: 4673358
    mEndSample: 4673358
  - mStartSample: 4700731
    mEndSample: 4700731
  - mStartSample: 4728103
    mEndSample: 4728103
  - mStartSample: 4819344
    mEndSample: 4819344
  - mStartSample: 4846717
    mEndSample: 4846717
  - mStartSample: 4874089
    mEndSample: 4874089
  - mStartSample: 4965331
    mEndSample: 4965331
  - mStartSample: 4992703
    mEndSample: 4992703
  - mStartSample: 5020983
    mEndSample: 5020983
  - mStartSample: 5089392
    mEndSample: 5089392
  - mStartSample: 5098016
    mEndSample: 5098016
  - mStartSample: 5108642
    mEndSample: 5108642
  - mStartSample: 5120109
    mEndSample: 5120109
  - mStartSample: 5166785
    mEndSample: 5166785
  - mStartSample: 5178095
    mEndSample: 5178095
  - mStartSample: 5187520
    mEndSample: 5187520
  - mStartSample: 5198076
    mEndSample: 5198076
  - mStartSample: 5248440
    mEndSample: 5248440
  _SerializedPayloadTypes:
  - SonicBloom.Koreo.TextPayload
  _AssetPayloads: []
  _AssetPayloadIdxs: 
  _ColorPayloads: []
  _ColorPayloadIdxs: 
  _CurvePayloads: []
  _CurvePayloadIdxs: 
  _FloatPayloads: []
  _FloatPayloadIdxs: 
  _GradientPayloads: []
  _GradientPayloadIdxs: 
  _IntPayloads: []
  _IntPayloadIdxs: 
  _SpectrumPayloads: []
  _SpectrumPayloadIdxs: 
  _TextPayloads:
  - mTextVal: 1
  - mTextVal: 7
  - mTextVal: 1
  - mTextVal: 7
  - mTextVal: 1
  - mTextVal: 7
  - mTextVal: 1
  - mTextVal: 7
  - mTextVal: 1
  - mTextVal: 7
  - mTextVal: 1
  - mTextVal: 7
  - mTextVal: 1
  - mTextVal: 7
  - mTextVal: 1
  - mTextVal: 7
  - mTextVal: 1
  - mTextVal: 7
  - mTextVal: 1
  - mTextVal: 7
  - mTextVal: 1
  - mTextVal: 7
  - mTextVal: 1
  - mTextVal: 7
  _TextPayloadIdxs: 0000000006000000070000000d0000000e00000014000000150000001b0000008100000087000000880000008e0000008f00000095000000960000009c0000009d000000a3000000a4000000aa000000ab000000b1000000b2000000b8000000
