%YAML 1.1
%TAG !u! tag:unity3d.com,2011:
--- !u!114 &11400000
MonoBehaviour:
  m_ObjectHideFlags: 0
  m_PrefabParentObject: {fileID: 0}
  m_PrefabInternal: {fileID: 0}
  m_GameObject: {fileID: 0}
  m_Enabled: 1
  m_EditorHideFlags: 0
  m_Script: {fileID: -2076007791, guid: aa81bbec85a3f423193272a7c6154986, type: 3}
  m_Name: P36
  m_EditorClassIdentifier: 
  mSourceClip: {fileID: 8300000, guid: 34fc19fc69e45e04486b4e7aedd6a358, type: 3}
  mAudioFilePath: 
  mSampleRate: 44100
  mIgnoreLatencyOffset: 0
  mTempoSections:
  - sectionName: New Section
    startSample: 0
    samplesPerBeat: 22050
    beatsPerMeasure: 4
    bStartNewMeasure: 1
  - sectionName: New Section
    startSample: 1150
    samplesPerBeat: 22810.344827586207
    beatsPerMeasure: 4
    bStartNewMeasure: 1
  mTracks:
  - {fileID: 11400000, guid: c112053586ff3774bac1bc7513a7a60c, type: 2}
  - {fileID: 11400000, guid: a9166eaf6d279094586428557584920e, type: 2}
