%YAML 1.1
%TAG !u! tag:unity3d.com,2011:
--- !u!114 &11400000
MonoBehaviour:
  m_ObjectHideFlags: 0
  m_PrefabParentObject: {fileID: 0}
  m_PrefabInternal: {fileID: 0}
  m_GameObject: {fileID: 0}
  m_Enabled: 1
  m_EditorHideFlags: 0
  m_Script: {fileID: -1223223985, guid: aa81bbec85a3f423193272a7c6154986, type: 3}
  m_Name: P81track
  m_EditorClassIdentifier: 
  mEventID: Note
  mEventList:
  - mStartSample: 90300
    mEndSample: 90300
  - mStartSample: 110971
    mEndSample: 110971
  - mStartSample: 121307
    mEndSample: 121307
  - mStartSample: 141979
    mEndSample: 141979
  - mStartSample: 152315
    mEndSample: 152315
  - mStartSample: 162651
    mEndSample: 162651
  - mStartSample: 172987
    mEndSample: 172987
  - mStartSample: 193659
    mEndSample: 193659
  - mStartSample: 203995
    mEndSample: 203995
  - mStartSample: 224667
    mEndSample: 224667
  - mStartSample: 235003
    mEndSample: 235003
  - mStartSample: 245339
    mEndSample: 245339
  - mStartSample: 255675
    mEndSample: 255675
  - mStartSample: 276346
    mEndSample: 276346
  - mStartSample: 286682
    mEndSample: 286682
  - mStartSample: 307354
    mEndSample: 307354
  - mStartSample: 338362
    mEndSample: 338362
  - mStartSample: 348698
    mEndSample: 348698
  - mStartSample: 359034
    mEndSample: 359034
  - mStartSample: 369370
    mEndSample: 369370
  - mStartSample: 379706
    mEndSample: 379706
  - mStartSample: 390042
    mEndSample: 390042
  - mStartSample: 400378
    mEndSample: 400378
  - mStartSample: 410714
    mEndSample: 410714
  - mStartSample: 421050
    mEndSample: 421050
  - mStartSample: 441721
    mEndSample: 441721
  - mStartSample: 452057
    mEndSample: 452057
  - mStartSample: 472729
    mEndSample: 472729
  - mStartSample: 483065
    mEndSample: 483065
  - mStartSample: 493401
    mEndSample: 493401
  - mStartSample: 503737
    mEndSample: 503737
  - mStartSample: 524409
    mEndSample: 524409
  - mStartSample: 534745
    mEndSample: 534745
  - mStartSample: 555417
    mEndSample: 555417
  - mStartSample: 565753
    mEndSample: 565753
  - mStartSample: 576089
    mEndSample: 576089
  - mStartSample: 586425
    mEndSample: 586425
  - mStartSample: 607096
    mEndSample: 607096
  - mStartSample: 617432
    mEndSample: 617432
  - mStartSample: 638104
    mEndSample: 638104
  - mStartSample: 669112
    mEndSample: 669112
  - mStartSample: 679448
    mEndSample: 679448
  - mStartSample: 689784
    mEndSample: 689784
  - mStartSample: 700120
    mEndSample: 700120
  - mStartSample: 710456
    mEndSample: 710456
  - mStartSample: 720792
    mEndSample: 720792
  - mStartSample: 731128
    mEndSample: 731128
  - mStartSample: 741464
    mEndSample: 741464
  - mStartSample: 751800
    mEndSample: 751800
  - mStartSample: 772471
    mEndSample: 772471
  - mStartSample: 782807
    mEndSample: 782807
  - mStartSample: 803479
    mEndSample: 803479
  - mStartSample: 813815
    mEndSample: 813815
  - mStartSample: 824151
    mEndSample: 824151
  - mStartSample: 834487
    mEndSample: 834487
  - mStartSample: 855159
    mEndSample: 855159
  - mStartSample: 865495
    mEndSample: 865495
  - mStartSample: 886167
    mEndSample: 886167
  - mStartSample: 896503
    mEndSample: 896503
  - mStartSample: 906839
    mEndSample: 906839
  - mStartSample: 917175
    mEndSample: 917175
  - mStartSample: 937846
    mEndSample: 937846
  - mStartSample: 948182
    mEndSample: 948182
  - mStartSample: 968854
    mEndSample: 968854
  - mStartSample: 999862
    mEndSample: 999862
  - mStartSample: 1010198
    mEndSample: 1010198
  - mStartSample: 1020534
    mEndSample: 1020534
  - mStartSample: 1030870
    mEndSample: 1030870
  - mStartSample: 1041206
    mEndSample: 1041206
  - mStartSample: 1051542
    mEndSample: 1051542
  - mStartSample: 1061878
    mEndSample: 1061878
  - mStartSample: 1072214
    mEndSample: 1072214
  - mStartSample: 1082550
    mEndSample: 1082550
  - mStartSample: 1103221
    mEndSample: 1103221
  - mStartSample: 1113557
    mEndSample: 1113557
  - mStartSample: 1134229
    mEndSample: 1134229
  - mStartSample: 1144565
    mEndSample: 1144565
  - mStartSample: 1154901
    mEndSample: 1154901
  - mStartSample: 1165237
    mEndSample: 1165237
  - mStartSample: 1185909
    mEndSample: 1185909
  - mStartSample: 1196245
    mEndSample: 1196245
  - mStartSample: 1216917
    mEndSample: 1216917
  - mStartSample: 1227253
    mEndSample: 1227253
  - mStartSample: 1237589
    mEndSample: 1237589
  - mStartSample: 1247925
    mEndSample: 1247925
  - mStartSample: 1268596
    mEndSample: 1268596
  - mStartSample: 1278932
    mEndSample: 1278932
  - mStartSample: 1299604
    mEndSample: 1299604
  - mStartSample: 1330612
    mEndSample: 1330612
  - mStartSample: 1340948
    mEndSample: 1340948
  - mStartSample: 1351284
    mEndSample: 1351284
  - mStartSample: 1361620
    mEndSample: 1361620
  - mStartSample: 1371956
    mEndSample: 1371956
  - mStartSample: 1382292
    mEndSample: 1382292
  - mStartSample: 1392628
    mEndSample: 1392628
  - mStartSample: 1402964
    mEndSample: 1402964
  - mStartSample: 1423635
    mEndSample: 1423635
  - mStartSample: 1433971
    mEndSample: 1433971
  - mStartSample: 1444307
    mEndSample: 1444307
  - mStartSample: 1454643
    mEndSample: 1454643
  - mStartSample: 1464979
    mEndSample: 1464979
  - mStartSample: 1475315
    mEndSample: 1475315
  - mStartSample: 1485651
    mEndSample: 1485651
  - mStartSample: 1495987
    mEndSample: 1495987
  - mStartSample: 1506323
    mEndSample: 1506323
  - mStartSample: 1516659
    mEndSample: 1516659
  - mStartSample: 1526995
    mEndSample: 1526995
  - mStartSample: 1537331
    mEndSample: 1537331
  - mStartSample: 1547667
    mEndSample: 1547667
  - mStartSample: 1558003
    mEndSample: 1558003
  - mStartSample: 1568339
    mEndSample: 1568339
  - mStartSample: 1578675
    mEndSample: 1578675
  - mStartSample: 1589010
    mEndSample: 1589010
  - mStartSample: 1599346
    mEndSample: 1599346
  - mStartSample: 1609682
    mEndSample: 1609682
  - mStartSample: 1620018
    mEndSample: 1620018
  - mStartSample: 1630354
    mEndSample: 1630354
  - mStartSample: 1640690
    mEndSample: 1640690
  - mStartSample: 1651026
    mEndSample: 1651026
  - mStartSample: 1661362
    mEndSample: 1661362
  - mStartSample: 1671698
    mEndSample: 1671698
  - mStartSample: 1682034
    mEndSample: 1682034
  - mStartSample: 1692370
    mEndSample: 1692370
  - mStartSample: 1702706
    mEndSample: 1702706
  - mStartSample: 1713042
    mEndSample: 1713042
  - mStartSample: 1723378
    mEndSample: 1723378
  - mStartSample: 1733714
    mEndSample: 1733714
  - mStartSample: 1744050
    mEndSample: 1744050
  - mStartSample: 1754385
    mEndSample: 1754385
  - mStartSample: 1764721
    mEndSample: 1764721
  - mStartSample: 1775057
    mEndSample: 1775057
  - mStartSample: 1785393
    mEndSample: 1785393
  - mStartSample: 1795729
    mEndSample: 1795729
  - mStartSample: 1806065
    mEndSample: 1806065
  - mStartSample: 1816401
    mEndSample: 1816401
  - mStartSample: 1826737
    mEndSample: 1826737
  - mStartSample: 1837073
    mEndSample: 1837073
  - mStartSample: 1847409
    mEndSample: 1847409
  - mStartSample: 1857745
    mEndSample: 1857745
  - mStartSample: 1868081
    mEndSample: 1868081
  - mStartSample: 1878417
    mEndSample: 1878417
  - mStartSample: 1888753
    mEndSample: 1888753
  - mStartSample: 1899089
    mEndSample: 1899089
  - mStartSample: 1909425
    mEndSample: 1909425
  - mStartSample: 1919760
    mEndSample: 1919760
  - mStartSample: 1930096
    mEndSample: 1930096
  - mStartSample: 1940432
    mEndSample: 1940432
  - mStartSample: 1950768
    mEndSample: 1950768
  - mStartSample: 1961104
    mEndSample: 1961104
  - mStartSample: 1971440
    mEndSample: 1971440
  - mStartSample: 1981776
    mEndSample: 1981776
  - mStartSample: 1992112
    mEndSample: 1992112
  - mStartSample: 2002448
    mEndSample: 2002448
  - mStartSample: 2012784
    mEndSample: 2012784
  - mStartSample: 2023120
    mEndSample: 2023120
  - mStartSample: 2033456
    mEndSample: 2033456
  - mStartSample: 2043792
    mEndSample: 2043792
  - mStartSample: 2054128
    mEndSample: 2054128
  - mStartSample: 2064464
    mEndSample: 2064464
  - mStartSample: 2074800
    mEndSample: 2074800
  - mStartSample: 2085135
    mEndSample: 2085135
  - mStartSample: 2095471
    mEndSample: 2095471
  - mStartSample: 2105807
    mEndSample: 2105807
  - mStartSample: 2116143
    mEndSample: 2116143
  - mStartSample: 2126479
    mEndSample: 2126479
  - mStartSample: 2136815
    mEndSample: 2136815
  - mStartSample: 2147151
    mEndSample: 2147151
  - mStartSample: 2157487
    mEndSample: 2157487
  - mStartSample: 2167823
    mEndSample: 2167823
  - mStartSample: 2178159
    mEndSample: 2178159
  - mStartSample: 2188495
    mEndSample: 2188495
  - mStartSample: 2198831
    mEndSample: 2198831
  - mStartSample: 2209167
    mEndSample: 2209167
  - mStartSample: 2219503
    mEndSample: 2219503
  - mStartSample: 2229839
    mEndSample: 2229839
  - mStartSample: 2240175
    mEndSample: 2240175
  - mStartSample: 2250510
    mEndSample: 2250510
  - mStartSample: 2260846
    mEndSample: 2260846
  - mStartSample: 2271182
    mEndSample: 2271182
  - mStartSample: 2281518
    mEndSample: 2281518
  - mStartSample: 2291854
    mEndSample: 2291854
  - mStartSample: 2302190
    mEndSample: 2302190
  - mStartSample: 2312526
    mEndSample: 2312526
  - mStartSample: 2322862
    mEndSample: 2322862
  - mStartSample: 2333198
    mEndSample: 2333198
  - mStartSample: 2343534
    mEndSample: 2343534
  - mStartSample: 2353870
    mEndSample: 2353870
  - mStartSample: 2364206
    mEndSample: 2364206
  - mStartSample: 2374542
    mEndSample: 2374542
  - mStartSample: 2384878
    mEndSample: 2384878
  - mStartSample: 2395214
    mEndSample: 2395214
  - mStartSample: 2405550
    mEndSample: 2405550
  - mStartSample: 2415885
    mEndSample: 2415885
  - mStartSample: 2426221
    mEndSample: 2426221
  - mStartSample: 2436557
    mEndSample: 2436557
  - mStartSample: 2446893
    mEndSample: 2446893
  - mStartSample: 2457229
    mEndSample: 2457229
  - mStartSample: 2467565
    mEndSample: 2467565
  - mStartSample: 2477901
    mEndSample: 2477901
  - mStartSample: 2488237
    mEndSample: 2488237
  - mStartSample: 2498573
    mEndSample: 2498573
  - mStartSample: 2508909
    mEndSample: 2508909
  - mStartSample: 2519245
    mEndSample: 2519245
  - mStartSample: 2529581
    mEndSample: 2529581
  - mStartSample: 2539917
    mEndSample: 2539917
  - mStartSample: 2550253
    mEndSample: 2550253
  - mStartSample: 2560589
    mEndSample: 2560589
  - mStartSample: 2570925
    mEndSample: 2570925
  - mStartSample: 2581260
    mEndSample: 2581260
  - mStartSample: 2591596
    mEndSample: 2591596
  - mStartSample: 2601932
    mEndSample: 2601932
  - mStartSample: 2612268
    mEndSample: 2612268
  - mStartSample: 2622604
    mEndSample: 2622604
  - mStartSample: 2632940
    mEndSample: 2632940
  - mStartSample: 2643276
    mEndSample: 2643276
  - mStartSample: 2653612
    mEndSample: 2653612
  - mStartSample: 2663948
    mEndSample: 2663948
  - mStartSample: 2674284
    mEndSample: 2674284
  - mStartSample: 2684620
    mEndSample: 2684620
  - mStartSample: 2694956
    mEndSample: 2694956
  - mStartSample: 2705292
    mEndSample: 2705292
  - mStartSample: 2715628
    mEndSample: 2715628
  - mStartSample: 2725964
    mEndSample: 2725964
  - mStartSample: 2736300
    mEndSample: 2736300
  - mStartSample: 2756971
    mEndSample: 2756971
  - mStartSample: 2787979
    mEndSample: 2787979
  - mStartSample: 2798315
    mEndSample: 2798315
  - mStartSample: 2808651
    mEndSample: 2808651
  - mStartSample: 2818987
    mEndSample: 2818987
  - mStartSample: 2839659
    mEndSample: 2839659
  - mStartSample: 2870667
    mEndSample: 2870667
  - mStartSample: 2881003
    mEndSample: 2881003
  - mStartSample: 2891339
    mEndSample: 2891339
  - mStartSample: 2901675
    mEndSample: 2901675
  - mStartSample: 2922346
    mEndSample: 2922346
  - mStartSample: 2953354
    mEndSample: 2953354
  - mStartSample: 2994698
    mEndSample: 2994698
  - mStartSample: 3005034
    mEndSample: 3005034
  - mStartSample: 3015370
    mEndSample: 3015370
  - mStartSample: 3025706
    mEndSample: 3025706
  - mStartSample: 3036042
    mEndSample: 3036042
  - mStartSample: 3046378
    mEndSample: 3046378
  - mStartSample: 3056714
    mEndSample: 3056714
  - mStartSample: 3067050
    mEndSample: 3067050
  - mStartSample: 3087721
    mEndSample: 3087721
  - mStartSample: 3118729
    mEndSample: 3118729
  - mStartSample: 3129065
    mEndSample: 3129065
  - mStartSample: 3139401
    mEndSample: 3139401
  - mStartSample: 3149737
    mEndSample: 3149737
  - mStartSample: 3170409
    mEndSample: 3170409
  - mStartSample: 3201417
    mEndSample: 3201417
  - mStartSample: 3211753
    mEndSample: 3211753
  - mStartSample: 3222089
    mEndSample: 3222089
  - mStartSample: 3232425
    mEndSample: 3232425
  - mStartSample: 3253096
    mEndSample: 3253096
  - mStartSample: 3284104
    mEndSample: 3284104
  - mStartSample: 3325448
    mEndSample: 3325448
  - mStartSample: 3335784
    mEndSample: 3335784
  - mStartSample: 3346120
    mEndSample: 3346120
  - mStartSample: 3356456
    mEndSample: 3356456
  - mStartSample: 3366792
    mEndSample: 3366792
  - mStartSample: 3377128
    mEndSample: 3377128
  - mStartSample: 3387464
    mEndSample: 3387464
  - mStartSample: 3397800
    mEndSample: 3397800
  - mStartSample: 3418471
    mEndSample: 3418471
  - mStartSample: 3428807
    mEndSample: 3428807
  - mStartSample: 3449479
    mEndSample: 3449479
  - mStartSample: 3459815
    mEndSample: 3459815
  - mStartSample: 3470151
    mEndSample: 3470151
  - mStartSample: 3480487
    mEndSample: 3480487
  - mStartSample: 3501159
    mEndSample: 3501159
  - mStartSample: 3511495
    mEndSample: 3511495
  - mStartSample: 3532167
    mEndSample: 3532167
  - mStartSample: 3542503
    mEndSample: 3542503
  - mStartSample: 3552839
    mEndSample: 3552839
  - mStartSample: 3563175
    mEndSample: 3563175
  - mStartSample: 3583846
    mEndSample: 3583846
  - mStartSample: 3594182
    mEndSample: 3594182
  - mStartSample: 3614854
    mEndSample: 3614854
  - mStartSample: 3656198
    mEndSample: 3656198
  - mStartSample: 3666534
    mEndSample: 3666534
  - mStartSample: 3676870
    mEndSample: 3676870
  - mStartSample: 3687206
    mEndSample: 3687206
  - mStartSample: 3697542
    mEndSample: 3697542
  - mStartSample: 3707878
    mEndSample: 3707878
  - mStartSample: 3718214
    mEndSample: 3718214
  - mStartSample: 3728550
    mEndSample: 3728550
  - mStartSample: 3749221
    mEndSample: 3749221
  - mStartSample: 3759557
    mEndSample: 3759557
  - mStartSample: 3780229
    mEndSample: 3780229
  - mStartSample: 3790565
    mEndSample: 3790565
  - mStartSample: 3800901
    mEndSample: 3800901
  - mStartSample: 3811237
    mEndSample: 3811237
  - mStartSample: 3831909
    mEndSample: 3831909
  - mStartSample: 3842245
    mEndSample: 3842245
  - mStartSample: 3862917
    mEndSample: 3862917
  - mStartSample: 3873253
    mEndSample: 3873253
  - mStartSample: 3883589
    mEndSample: 3883589
  - mStartSample: 3893925
    mEndSample: 3893925
  - mStartSample: 3914596
    mEndSample: 3914596
  - mStartSample: 3924932
    mEndSample: 3924932
  - mStartSample: 3945604
    mEndSample: 3945604
  - mStartSample: 3986948
    mEndSample: 3986948
  - mStartSample: 3997284
    mEndSample: 3997284
  - mStartSample: 4007620
    mEndSample: 4007620
  - mStartSample: 4017956
    mEndSample: 4017956
  - mStartSample: 4028292
    mEndSample: 4028292
  - mStartSample: 4038628
    mEndSample: 4038628
  - mStartSample: 4048964
    mEndSample: 4048964
  - mStartSample: 4059300
    mEndSample: 4059300
  - mStartSample: 4121315
    mEndSample: 4121315
  - mStartSample: 4131651
    mEndSample: 4131651
  - mStartSample: 4141987
    mEndSample: 4141987
  - mStartSample: 4204003
    mEndSample: 4204003
  - mStartSample: 4214339
    mEndSample: 4214339
  - mStartSample: 4224675
    mEndSample: 4224675
  - mStartSample: 4297026
    mEndSample: 4297026
  - mStartSample: 4307362
    mEndSample: 4307362
  - mStartSample: 4348706
    mEndSample: 4348706
  - mStartSample: 4369378
    mEndSample: 4369378
  - mStartSample: 4379714
    mEndSample: 4379714
  - mStartSample: 4390050
    mEndSample: 4390050
  - mStartSample: 4452065
    mEndSample: 4452065
  - mStartSample: 4462401
    mEndSample: 4462401
  - mStartSample: 4472737
    mEndSample: 4472737
  - mStartSample: 4534753
    mEndSample: 4534753
  - mStartSample: 4545089
    mEndSample: 4545089
  - mStartSample: 4555425
    mEndSample: 4555425
  - mStartSample: 4627776
    mEndSample: 4627776
  - mStartSample: 4638112
    mEndSample: 4638112
  - mStartSample: 4679456
    mEndSample: 4679456
  - mStartSample: 4720800
    mEndSample: 4720800
  - mStartSample: 4782815
    mEndSample: 4782815
  - mStartSample: 4793151
    mEndSample: 4793151
  - mStartSample: 4803487
    mEndSample: 4803487
  - mStartSample: 4865503
    mEndSample: 4865503
  - mStartSample: 4875839
    mEndSample: 4875839
  - mStartSample: 4886175
    mEndSample: 4886175
  - mStartSample: 4958526
    mEndSample: 4958526
  - mStartSample: 4968862
    mEndSample: 4968862
  - mStartSample: 5010206
    mEndSample: 5010206
  - mStartSample: 5030878
    mEndSample: 5030878
  - mStartSample: 5041214
    mEndSample: 5041214
  - mStartSample: 5051550
    mEndSample: 5051550
  - mStartSample: 5113565
    mEndSample: 5113565
  - mStartSample: 5123901
    mEndSample: 5123901
  - mStartSample: 5134237
    mEndSample: 5134237
  - mStartSample: 5196253
    mEndSample: 5196253
  - mStartSample: 5206589
    mEndSample: 5206589
  - mStartSample: 5216925
    mEndSample: 5216925
  - mStartSample: 5289276
    mEndSample: 5289276
  - mStartSample: 5299612
    mEndSample: 5299612
  - mStartSample: 5340956
    mEndSample: 5340956
  - mStartSample: 5382300
    mEndSample: 5382300
  - mStartSample: 5402971
    mEndSample: 5402971
  - mStartSample: 5413307
    mEndSample: 5413307
  - mStartSample: 5433979
    mEndSample: 5433979
  - mStartSample: 5444315
    mEndSample: 5444315
  - mStartSample: 5454651
    mEndSample: 5454651
  - mStartSample: 5464987
    mEndSample: 5464987
  - mStartSample: 5485659
    mEndSample: 5485659
  - mStartSample: 5495995
    mEndSample: 5495995
  - mStartSample: 5516667
    mEndSample: 5516667
  - mStartSample: 5527003
    mEndSample: 5527003
  - mStartSample: 5537339
    mEndSample: 5537339
  - mStartSample: 5547675
    mEndSample: 5547675
  - mStartSample: 5568346
    mEndSample: 5568346
  - mStartSample: 5578682
    mEndSample: 5578682
  - mStartSample: 5599354
    mEndSample: 5599354
  - mStartSample: 5640698
    mEndSample: 5640698
  - mStartSample: 5651034
    mEndSample: 5651034
  - mStartSample: 5661370
    mEndSample: 5661370
  - mStartSample: 5671706
    mEndSample: 5671706
  - mStartSample: 5682042
    mEndSample: 5682042
  - mStartSample: 5692378
    mEndSample: 5692378
  - mStartSample: 5702714
    mEndSample: 5702714
  - mStartSample: 5713050
    mEndSample: 5713050
  - mStartSample: 5733721
    mEndSample: 5733721
  - mStartSample: 5744057
    mEndSample: 5744057
  - mStartSample: 5764729
    mEndSample: 5764729
  - mStartSample: 5775065
    mEndSample: 5775065
  - mStartSample: 5785401
    mEndSample: 5785401
  - mStartSample: 5795737
    mEndSample: 5795737
  - mStartSample: 5816409
    mEndSample: 5816409
  - mStartSample: 5826745
    mEndSample: 5826745
  - mStartSample: 5847417
    mEndSample: 5847417
  - mStartSample: 5857753
    mEndSample: 5857753
  - mStartSample: 5868089
    mEndSample: 5868089
  - mStartSample: 5878425
    mEndSample: 5878425
  - mStartSample: 5899096
    mEndSample: 5899096
  - mStartSample: 5909432
    mEndSample: 5909432
  - mStartSample: 5930104
    mEndSample: 5930104
  - mStartSample: 5971448
    mEndSample: 5971448
  - mStartSample: 5981784
    mEndSample: 5981784
  - mStartSample: 5992120
    mEndSample: 5992120
  - mStartSample: 6002456
    mEndSample: 6002456
  - mStartSample: 6012792
    mEndSample: 6012792
  - mStartSample: 6023128
    mEndSample: 6023128
  - mStartSample: 6033464
    mEndSample: 6033464
  - mStartSample: 6043800
    mEndSample: 6043800
  - mStartSample: 6064471
    mEndSample: 6064471
  - mStartSample: 6074807
    mEndSample: 6074807
  - mStartSample: 6095479
    mEndSample: 6095479
  - mStartSample: 6105815
    mEndSample: 6105815
  - mStartSample: 6116151
    mEndSample: 6116151
  - mStartSample: 6126487
    mEndSample: 6126487
  - mStartSample: 6147159
    mEndSample: 6147159
  - mStartSample: 6157495
    mEndSample: 6157495
  - mStartSample: 6178167
    mEndSample: 6178167
  - mStartSample: 6188503
    mEndSample: 6188503
  - mStartSample: 6198839
    mEndSample: 6198839
  - mStartSample: 6209175
    mEndSample: 6209175
  - mStartSample: 6229846
    mEndSample: 6229846
  - mStartSample: 6240182
    mEndSample: 6240182
  - mStartSample: 6260854
    mEndSample: 6260854
  - mStartSample: 6302198
    mEndSample: 6302198
  - mStartSample: 6312534
    mEndSample: 6312534
  - mStartSample: 6322870
    mEndSample: 6322870
  - mStartSample: 6333206
    mEndSample: 6333206
  - mStartSample: 6343542
    mEndSample: 6343542
  - mStartSample: 6353878
    mEndSample: 6353878
  - mStartSample: 6364214
    mEndSample: 6364214
  - mStartSample: 6374550
    mEndSample: 6374550
  - mStartSample: 6395221
    mEndSample: 6395221
  - mStartSample: 6405557
    mEndSample: 6405557
  - mStartSample: 6426229
    mEndSample: 6426229
  - mStartSample: 6436565
    mEndSample: 6436565
  - mStartSample: 6446901
    mEndSample: 6446901
  - mStartSample: 6457237
    mEndSample: 6457237
  - mStartSample: 6477909
    mEndSample: 6477909
  - mStartSample: 6488245
    mEndSample: 6488245
  - mStartSample: 6508917
    mEndSample: 6508917
  - mStartSample: 6519253
    mEndSample: 6519253
  - mStartSample: 6529589
    mEndSample: 6529589
  - mStartSample: 6539925
    mEndSample: 6539925
  - mStartSample: 6560596
    mEndSample: 6560596
  - mStartSample: 6570932
    mEndSample: 6570932
  - mStartSample: 6591604
    mEndSample: 6591604
  - mStartSample: 6632948
    mEndSample: 6632948
  - mStartSample: 6643284
    mEndSample: 6643284
  - mStartSample: 6653620
    mEndSample: 6653620
  - mStartSample: 6663956
    mEndSample: 6663956
  - mStartSample: 6674292
    mEndSample: 6674292
  - mStartSample: 6684628
    mEndSample: 6684628
  - mStartSample: 6694964
    mEndSample: 6694964
  - mStartSample: 6705300
    mEndSample: 6705300
  - mStartSample: 6725971
    mEndSample: 6725971
  - mStartSample: 6736307
    mEndSample: 6736307
  - mStartSample: 6756979
    mEndSample: 6756979
  - mStartSample: 6787987
    mEndSample: 6787987
  - mStartSample: 6808659
    mEndSample: 6808659
  - mStartSample: 6818995
    mEndSample: 6818995
  - mStartSample: 6839667
    mEndSample: 6839667
  - mStartSample: 6870675
    mEndSample: 6870675
  - mStartSample: 6891346
    mEndSample: 6891346
  - mStartSample: 6901682
    mEndSample: 6901682
  - mStartSample: 6922354
    mEndSample: 6922354
  - mStartSample: 6953362
    mEndSample: 6953362
  - mStartSample: 6963698
    mEndSample: 6963698
  - mStartSample: 6974034
    mEndSample: 6974034
  - mStartSample: 6984370
    mEndSample: 6984370
  - mStartSample: 6994706
    mEndSample: 6994706
  - mStartSample: 7005042
    mEndSample: 7005042
  - mStartSample: 7015378
    mEndSample: 7015378
  - mStartSample: 7025714
    mEndSample: 7025714
  - mStartSample: 7036050
    mEndSample: 7036050
  - mStartSample: 7056721
    mEndSample: 7056721
  - mStartSample: 7067057
    mEndSample: 7067057
  - mStartSample: 7087729
    mEndSample: 7087729
  - mStartSample: 7118737
    mEndSample: 7118737
  - mStartSample: 7139409
    mEndSample: 7139409
  - mStartSample: 7149745
    mEndSample: 7149745
  - mStartSample: 7170417
    mEndSample: 7170417
  - mStartSample: 7201425
    mEndSample: 7201425
  - mStartSample: 7222096
    mEndSample: 7222096
  - mStartSample: 7232432
    mEndSample: 7232432
  - mStartSample: 7253104
    mEndSample: 7253104
  - mStartSample: 7284112
    mEndSample: 7284112
  - mStartSample: 7294448
    mEndSample: 7294448
  - mStartSample: 7304784
    mEndSample: 7304784
  - mStartSample: 7315120
    mEndSample: 7315120
  - mStartSample: 7325456
    mEndSample: 7325456
  - mStartSample: 7335792
    mEndSample: 7335792
  - mStartSample: 7346128
    mEndSample: 7346128
  - mStartSample: 7356464
    mEndSample: 7356464
  - mStartSample: 7366800
    mEndSample: 7366800
  _SerializedPayloadTypes:
  - SonicBloom.Koreo.TextPayload
  _AssetPayloads: []
  _AssetPayloadIdxs: 
  _ColorPayloads: []
  _ColorPayloadIdxs: 
  _CurvePayloads: []
  _CurvePayloadIdxs: 
  _FloatPayloads: []
  _FloatPayloadIdxs: 
  _GradientPayloads: []
  _GradientPayloadIdxs: 
  _IntPayloads: []
  _IntPayloadIdxs: 
  _SpectrumPayloads: []
  _SpectrumPayloadIdxs: 
  _TextPayloads:
  - mTextVal: 1
  - mTextVal: 7
  - mTextVal: 1
  - mTextVal: 7
  - mTextVal: 1
  - mTextVal: 7
  - mTextVal: 1
  - mTextVal: 7
  - mTextVal: 1
  - mTextVal: 7
  - mTextVal: 1
  - mTextVal: 7
  - mTextVal: 1
  - mTextVal: 7
  - mTextVal: 1
  - mTextVal: 7
  - mTextVal: 1
  - mTextVal: 7
  - mTextVal: 1
  - mTextVal: 7
  - mTextVal: 1
  - mTextVal: 7
  - mTextVal: 1
  - mTextVal: 7
  - mTextVal: 1
  - mTextVal: 7
  - mTextVal: 1
  - mTextVal: 7
  - mTextVal: 1
  - mTextVal: 7
  - mTextVal: 1
  - mTextVal: 7
  - mTextVal: 1
  - mTextVal: 7
  - mTextVal: 1
  - mTextVal: 7
  - mTextVal: 1
  - mTextVal: 7
  - mTextVal: 1
  - mTextVal: 7
  - mTextVal: 1
  - mTextVal: 7
  - mTextVal: 1
  - mTextVal: 7
  - mTextVal: 1
  - mTextVal: 7
  - mTextVal: 1
  - mTextVal: 7
  - mTextVal: 1
  - mTextVal: 7
  - mTextVal: 1
  - mTextVal: 7
  - mTextVal: 1
  - mTextVal: 7
  - mTextVal: 1
  - mTextVal: 7
  - mTextVal: 1
  - mTextVal: 7
  - mTextVal: 1
  - mTextVal: 7
  - mTextVal: 1
  - mTextVal: 7
  - mTextVal: 1
  - mTextVal: 7
  - mTextVal: 1
  - mTextVal: 7
  - mTextVal: 1
  - mTextVal: 7
  - mTextVal: 1
  - mTextVal: 7
  - mTextVal: 1
  - mTextVal: 7
  - mTextVal: 1
  - mTextVal: 7
  - mTextVal: 1
  - mTextVal: 7
  - mTextVal: 1
  - mTextVal: 7
  - mTextVal: 1
  - mTextVal: 7
  - mTextVal: 1
  - mTextVal: 7
  - mTextVal: 1
  - mTextVal: 7
  - mTextVal: 1
  - mTextVal: 7
  - mTextVal: 1
  - mTextVal: 7
  - mTextVal: 1
  - mTextVal: 7
  - mTextVal: 1
  - mTextVal: 7
  - mTextVal: 1
  - mTextVal: 7
  - mTextVal: 1
  - mTextVal: 7
  - mTextVal: 1
  - mTextVal: 7
  - mTextVal: 1
  - mTextVal: 7
  - mTextVal: 1
  - mTextVal: 7
  - mTextVal: 1
  - mTextVal: 7
  - mTextVal: 1
  - mTextVal: 7
  - mTextVal: 1
  - mTextVal: 7
  - mTextVal: 1
  - mTextVal: 7
  - mTextVal: 1
  - mTextVal: 7
  _TextPayloadIdxs: 0300000006000000090000000c000000100000001300000014000000170000001b0000001e0000002100000024000000280000002b0000002c0000002f0000003300000036000000390000003c000000400000004300000044000000470000004b0000004e0000005100000054000000580000005b0000005c0000005f0000006000000067000000680000006f0000007000000077000000780000007f0000008000000087000000880000008f0000009000000097000000980000009f000000a0000000a7000000a8000000af000000b0000000b7000000b8000000bf000000c0000000c7000000c8000000cf000000d0000000d7000000d8000000de000000e1000000e4000000e6000000e9000000ec000000f3000000f5000000f8000000fa000000fd00000000010000060100000a0100000d0100001001000013010000170100001d0100002101000024010000270100002a0100002e0100003401000064010000670100006a0100006d01000071010000770100007b0100007e0100008101000084010000880100008e0100009201000095010000980100009b0100009f010000a5010000a9010000ac010000af010000b2010000b6010000bc010000
