%YAML 1.1
%TAG !u! tag:unity3d.com,2011:
--- !u!114 &11400000
MonoBehaviour:
  m_ObjectHideFlags: 0
  m_PrefabParentObject: {fileID: 0}
  m_PrefabInternal: {fileID: 0}
  m_GameObject: {fileID: 0}
  m_Enabled: 1
  m_EditorHideFlags: 0
  m_Script: {fileID: -2076007791, guid: aa81bbec85a3f423193272a7c6154986, type: 3}
  m_Name: P04
  m_EditorClassIdentifier: 
  mSourceClip: {fileID: 8300000, guid: 61e45011744842b4a877fdf913202bd5, type: 3}
  mAudioFilePath: 
  mSampleRate: 44100
  mIgnoreLatencyOffset: 0
  mTempoSections:
  - sectionName: New Section
    startSample: 0
    samplesPerBeat: 22050
    beatsPerMeasure: 4
    bStartNewMeasure: 1
  - sectionName: New Section
    startSample: 41000
    samplesPerBeat: 22050
    beatsPerMeasure: 4
    bStartNewMeasure: 1
  mTracks:
  - {fileID: 11400000, guid: c545d8398785f7c4998480ae77dc90e3, type: 2}
  - {fileID: 11400000, guid: 4ed526167f1c5c5408bcf1494861c17d, type: 2}
