{
  "Version": 32,

  "AppsList-Android": [
    {
      "AppTitle": "Sabertooth Tiger Simulator",
      "AppDescription": "Here goes a little description",
      "IconUrl": "http://a4.mzstatic.com/us/r30/Purple2/v4/6b/48/79/6b487977-d8c1-214a-4885-a57c9f050e98/icon175x175.jpeg",
      "ScreenshotUrl": "https://orig00.deviantart.net/42f9/f/2014/121/e/5/porowebda_by_zillabean-d7grlnh.jpg",
      "Visible": true,
      "ShouldShowPopup": false,
      "Id": "com.area730.dinosimulator"
    },
    {
      "AppTitle": "Sabertooth Tiger Simulator",
      "AppDescription": "Here goes a little description",
      "IconUrl": "http://a4.mzstatic.com/us/r30/Purple2/v4/6b/48/79/6b487977-d8c1-214a-4885-a57c9f050e98/icon175x175.jpeg",
      "ScreenshotUrl": "https://cdn.pixabay.com/photo/2012/11/09/07/39/ball-65471_960_720.jpg",
      "Visible": true,
      "ShouldShowPopup": false,
      "Id": "com.area730.dinosimulator"
    },
    {
      "AppTitle": "Sabertooth Tiger Simulator",
      "AppDescription": "Here goes a little description",
      "IconUrl": "http://a4.mzstatic.com/us/r30/Purple2/v4/6b/48/79/6b487977-d8c1-214a-4885-a57c9f050e98/icon175x175.jpeg",
      "ScreenshotUrl": "https://wallpaperscraft.com/image/old_man_portrait_pipe_hat_75755_1920x1080.jpg",
      "Visible": true,
      "ShouldShowPopup": false,
      "Id": "com.area730.dinosimulator"
    },
    {
      "AppTitle": "Sabertooth Tiger Simulator",
      "AppDescription": "Here goes a little description",
      "IconUrl": "http://a4.mzstatic.com/us/r30/Purple2/v4/6b/48/79/6b487977-d8c1-214a-4885-a57c9f050e98/icon175x175.jpeg",
      "ScreenshotUrl": "https://i.pinimg.com/736x/66/89/d9/6689d9b55b2b5e47eb3d323a6ddb5fdc--female-portrait-poses-commercial-photography.jpg",
      "Visible": true,
      "ShouldShowPopup": false,
      "Id": "com.area730.dinosimulator"
    }
  ],

  "AppsList-iOS": [
    {
      "AppTitle": "Sabertooth Tiger Simulator",
      "AppDescription": "Here goes a little description",
      "IconUrl": "http://a4.mzstatic.com/us/r30/Purple2/v4/6b/48/79/6b487977-d8c1-214a-4885-a57c9f050e98/icon175x175.jpeg",
      "ScreenshotUrl": "https://orig00.deviantart.net/42f9/f/2014/121/e/5/porowebda_by_zillabean-d7grlnh.jpg",
      "Visible": true,
      "ShouldShowPopup": false,
      "Id": "980976040"
    },
    {
      "AppTitle": "Sabertooth Tiger Simulator",
      "AppDescription": "Here goes a little description",
      "IconUrl": "http://a4.mzstatic.com/us/r30/Purple2/v4/6b/48/79/6b487977-d8c1-214a-4885-a57c9f050e98/icon175x175.jpeg",
      "ScreenshotUrl": "https://cdn.pixabay.com/photo/2012/11/09/07/39/ball-65471_960_720.jpg",
      "Visible": true,
      "ShouldShowPopup": false,
      "Id": "980976040"
    }
  ]
}