%YAML 1.1
%TAG !u! tag:unity3d.com,2011:
--- !u!114 &11400000
MonoBehaviour:
  m_ObjectHideFlags: 0
  m_PrefabParentObject: {fileID: 0}
  m_PrefabInternal: {fileID: 0}
  m_GameObject: {fileID: 0}
  m_Enabled: 1
  m_EditorHideFlags: 0
  m_Script: {fileID: -1223223985, guid: aa81bbec85a3f423193272a7c6154986, type: 3}
  m_Name: P30track
  m_EditorClassIdentifier: 
  mEventID: Note
  mEventList:
  - mStartSample: 206570
    mEndSample: 206570
  - mStartSample: 233030
    mEndSample: 233030
  - mStartSample: 259490
    mEndSample: 259490
  - mStartSample: 285950
    mEndSample: 285950
  - mStartSample: 312410
    mEndSample: 312410
  - mStartSample: 338870
    mEndSample: 338870
  - mStartSample: 365330
    mEndSample: 365330
  - mStartSample: 391790
    mEndSample: 391790
  - mStartSample: 418250
    mEndSample: 418250
  - mStartSample: 444710
    mEndSample: 444710
  - mStartSample: 471170
    mEndSample: 471170
  - mStartSample: 497630
    mEndSample: 497630
  - mStartSample: 524090
    mEndSample: 524090
  - mStartSample: 550550
    mEndSample: 550550
  - mStartSample: 577010
    mEndSample: 577010
  - mStartSample: 603470
    mEndSample: 603470
  - mStartSample: 629930
    mEndSample: 629930
  - mStartSample: 656390
    mEndSample: 656390
  - mStartSample: 682850
    mEndSample: 682850
  - mStartSample: 709310
    mEndSample: 709310
  - mStartSample: 735770
    mEndSample: 735770
  - mStartSample: 762230
    mEndSample: 762230
  - mStartSample: 788690
    mEndSample: 788690
  - mStartSample: 815150
    mEndSample: 815150
  - mStartSample: 841610
    mEndSample: 841610
  - mStartSample: 868070
    mEndSample: 868070
  - mStartSample: 894530
    mEndSample: 894530
  - mStartSample: 920990
    mEndSample: 920990
  - mStartSample: 947450
    mEndSample: 947450
  - mStartSample: 973910
    mEndSample: 973910
  - mStartSample: 1000370
    mEndSample: 1000370
  - mStartSample: 1026830
    mEndSample: 1026830
  - mStartSample: 1053290
    mEndSample: 1053290
  - mStartSample: 1079750
    mEndSample: 1079750
  - mStartSample: 1106210
    mEndSample: 1106210
  - mStartSample: 1132670
    mEndSample: 1132670
  - mStartSample: 1159130
    mEndSample: 1159130
  - mStartSample: 1185590
    mEndSample: 1185590
  - mStartSample: 1212050
    mEndSample: 1212050
  - mStartSample: 1238510
    mEndSample: 1238510
  - mStartSample: 1264970
    mEndSample: 1264970
  - mStartSample: 1291430
    mEndSample: 1291430
  - mStartSample: 1317890
    mEndSample: 1317890
  - mStartSample: 1344350
    mEndSample: 1344350
  - mStartSample: 1370810
    mEndSample: 1370810
  - mStartSample: 1397270
    mEndSample: 1397270
  - mStartSample: 1476650
    mEndSample: 1476650
  - mStartSample: 1503110
    mEndSample: 1503110
  - mStartSample: 1529570
    mEndSample: 1529570
  - mStartSample: 1556030
    mEndSample: 1556030
  - mStartSample: 1582490
    mEndSample: 1582490
  - mStartSample: 1608950
    mEndSample: 1608950
  - mStartSample: 1635410
    mEndSample: 1635410
  - mStartSample: 1661870
    mEndSample: 1661870
  - mStartSample: 1688330
    mEndSample: 1688330
  - mStartSample: 1714790
    mEndSample: 1714790
  - mStartSample: 1741250
    mEndSample: 1741250
  - mStartSample: 1767710
    mEndSample: 1767710
  - mStartSample: 1794170
    mEndSample: 1794170
  - mStartSample: 1820630
    mEndSample: 1820630
  - mStartSample: 1847090
    mEndSample: 1847090
  - mStartSample: 1873550
    mEndSample: 1873550
  - mStartSample: 1900010
    mEndSample: 1900010
  - mStartSample: 1926470
    mEndSample: 1926470
  - mStartSample: 1952930
    mEndSample: 1952930
  - mStartSample: 1979390
    mEndSample: 1979390
  - mStartSample: 2005850
    mEndSample: 2005850
  - mStartSample: 2032310
    mEndSample: 2032310
  - mStartSample: 2058770
    mEndSample: 2058770
  - mStartSample: 2085230
    mEndSample: 2085230
  - mStartSample: 2111690
    mEndSample: 2111690
  - mStartSample: 2138150
    mEndSample: 2138150
  - mStartSample: 2164610
    mEndSample: 2164610
  - mStartSample: 2191070
    mEndSample: 2191070
  - mStartSample: 2217530
    mEndSample: 2217530
  - mStartSample: 2243990
    mEndSample: 2243990
  - mStartSample: 2270450
    mEndSample: 2270450
  - mStartSample: 2296910
    mEndSample: 2296910
  - mStartSample: 2323370
    mEndSample: 2323370
  - mStartSample: 2349830
    mEndSample: 2349830
  - mStartSample: 2376290
    mEndSample: 2376290
  - mStartSample: 2402750
    mEndSample: 2402750
  - mStartSample: 2429210
    mEndSample: 2429210
  - mStartSample: 2455670
    mEndSample: 2455670
  - mStartSample: 2482130
    mEndSample: 2482130
  - mStartSample: 2508590
    mEndSample: 2508590
  - mStartSample: 2535050
    mEndSample: 2535050
  - mStartSample: 2561510
    mEndSample: 2561510
  - mStartSample: 2587970
    mEndSample: 2587970
  - mStartSample: 2614430
    mEndSample: 2614430
  - mStartSample: 2640890
    mEndSample: 2640890
  - mStartSample: 2667350
    mEndSample: 2667350
  - mStartSample: 2746730
    mEndSample: 2746730
  - mStartSample: 2773190
    mEndSample: 2773190
  - mStartSample: 2799650
    mEndSample: 2799650
  - mStartSample: 2826110
    mEndSample: 2826110
  - mStartSample: 2852570
    mEndSample: 2852570
  - mStartSample: 2879030
    mEndSample: 2879030
  - mStartSample: 2905490
    mEndSample: 2905490
  - mStartSample: 2931950
    mEndSample: 2931950
  - mStartSample: 2958410
    mEndSample: 2958410
  - mStartSample: 2984870
    mEndSample: 2984870
  - mStartSample: 3011330
    mEndSample: 3011330
  - mStartSample: 3037790
    mEndSample: 3037790
  - mStartSample: 3064250
    mEndSample: 3064250
  - mStartSample: 3090710
    mEndSample: 3090710
  - mStartSample: 3117170
    mEndSample: 3117170
  - mStartSample: 3143630
    mEndSample: 3143630
  - mStartSample: 3170090
    mEndSample: 3170090
  - mStartSample: 3196550
    mEndSample: 3196550
  - mStartSample: 3223010
    mEndSample: 3223010
  - mStartSample: 3249470
    mEndSample: 3249470
  - mStartSample: 3275930
    mEndSample: 3275930
  - mStartSample: 3302390
    mEndSample: 3302390
  - mStartSample: 3328850
    mEndSample: 3328850
  - mStartSample: 3355310
    mEndSample: 3355310
  - mStartSample: 3381770
    mEndSample: 3381770
  - mStartSample: 3408230
    mEndSample: 3408230
  - mStartSample: 3434690
    mEndSample: 3434690
  - mStartSample: 3461150
    mEndSample: 3461150
  - mStartSample: 3487610
    mEndSample: 3487610
  - mStartSample: 3514070
    mEndSample: 3514070
  - mStartSample: 3540530
    mEndSample: 3540530
  - mStartSample: 3566990
    mEndSample: 3566990
  - mStartSample: 3593450
    mEndSample: 3593450
  - mStartSample: 3619910
    mEndSample: 3619910
  - mStartSample: 3646370
    mEndSample: 3646370
  - mStartSample: 3672830
    mEndSample: 3672830
  - mStartSample: 3699290
    mEndSample: 3699290
  - mStartSample: 3725750
    mEndSample: 3725750
  - mStartSample: 3752210
    mEndSample: 3752210
  - mStartSample: 3778670
    mEndSample: 3778670
  - mStartSample: 3805130
    mEndSample: 3805130
  - mStartSample: 3831590
    mEndSample: 3831590
  - mStartSample: 3858050
    mEndSample: 3858050
  - mStartSample: 3884510
    mEndSample: 3884510
  - mStartSample: 3910970
    mEndSample: 3910970
  - mStartSample: 3937430
    mEndSample: 3937430
  - mStartSample: 4016810
    mEndSample: 4016810
  - mStartSample: 4043270
    mEndSample: 4043270
  - mStartSample: 4069730
    mEndSample: 4069730
  - mStartSample: 4096190
    mEndSample: 4096190
  - mStartSample: 4122650
    mEndSample: 4122650
  - mStartSample: 4149110
    mEndSample: 4149110
  - mStartSample: 4175570
    mEndSample: 4175570
  - mStartSample: 4202030
    mEndSample: 4202030
  - mStartSample: 4228490
    mEndSample: 4228490
  - mStartSample: 4254950
    mEndSample: 4254950
  - mStartSample: 4281410
    mEndSample: 4281410
  - mStartSample: 4307870
    mEndSample: 4307870
  - mStartSample: 4334330
    mEndSample: 4334330
  - mStartSample: 4360790
    mEndSample: 4360790
  - mStartSample: 4387250
    mEndSample: 4387250
  - mStartSample: 4413710
    mEndSample: 4413710
  - mStartSample: 4440170
    mEndSample: 4440170
  - mStartSample: 4466630
    mEndSample: 4466630
  - mStartSample: 4493090
    mEndSample: 4493090
  - mStartSample: 4519550
    mEndSample: 4519550
  - mStartSample: 4546010
    mEndSample: 4546010
  - mStartSample: 4572470
    mEndSample: 4572470
  - mStartSample: 4598930
    mEndSample: 4598930
  - mStartSample: 4625390
    mEndSample: 4625390
  - mStartSample: 4651850
    mEndSample: 4651850
  - mStartSample: 4678310
    mEndSample: 4678310
  - mStartSample: 4704770
    mEndSample: 4704770
  - mStartSample: 4731230
    mEndSample: 4731230
  - mStartSample: 4757690
    mEndSample: 4757690
  - mStartSample: 4784150
    mEndSample: 4784150
  - mStartSample: 4810610
    mEndSample: 4810610
  - mStartSample: 4837070
    mEndSample: 4837070
  - mStartSample: 4863530
    mEndSample: 4863530
  - mStartSample: 4889990
    mEndSample: 4889990
  - mStartSample: 4916450
    mEndSample: 4916450
  - mStartSample: 4942910
    mEndSample: 4942910
  - mStartSample: 4969370
    mEndSample: 4969370
  - mStartSample: 4995830
    mEndSample: 4995830
  - mStartSample: 5022290
    mEndSample: 5022290
  - mStartSample: 5048750
    mEndSample: 5048750
  - mStartSample: 5075210
    mEndSample: 5075210
  - mStartSample: 5101670
    mEndSample: 5101670
  - mStartSample: 5128130
    mEndSample: 5128130
  - mStartSample: 5154590
    mEndSample: 5154590
  - mStartSample: 5181050
    mEndSample: 5181050
  - mStartSample: 5207510
    mEndSample: 5207510
  - mStartSample: 5286890
    mEndSample: 5286890
  - mStartSample: 5313350
    mEndSample: 5313350
  - mStartSample: 5339810
    mEndSample: 5339810
  - mStartSample: 5366270
    mEndSample: 5366270
  - mStartSample: 5392730
    mEndSample: 5392730
  - mStartSample: 5419190
    mEndSample: 5419190
  - mStartSample: 5445650
    mEndSample: 5445650
  - mStartSample: 5472110
    mEndSample: 5472110
  - mStartSample: 5498570
    mEndSample: 5498570
  - mStartSample: 5525030
    mEndSample: 5525030
  - mStartSample: 5551490
    mEndSample: 5551490
  - mStartSample: 5577950
    mEndSample: 5577950
  - mStartSample: 5604410
    mEndSample: 5604410
  - mStartSample: 5630870
    mEndSample: 5630870
  - mStartSample: 5657330
    mEndSample: 5657330
  - mStartSample: 5683790
    mEndSample: 5683790
  - mStartSample: 5710250
    mEndSample: 5710250
  - mStartSample: 5736710
    mEndSample: 5736710
  - mStartSample: 5763170
    mEndSample: 5763170
  - mStartSample: 5789630
    mEndSample: 5789630
  - mStartSample: 5816090
    mEndSample: 5816090
  - mStartSample: 5842550
    mEndSample: 5842550
  - mStartSample: 5869010
    mEndSample: 5869010
  - mStartSample: 5895470
    mEndSample: 5895470
  - mStartSample: 5921930
    mEndSample: 5921930
  - mStartSample: 5948390
    mEndSample: 5948390
  - mStartSample: 5974850
    mEndSample: 5974850
  - mStartSample: 6001310
    mEndSample: 6001310
  - mStartSample: 6027770
    mEndSample: 6027770
  - mStartSample: 6054230
    mEndSample: 6054230
  - mStartSample: 6080690
    mEndSample: 6080690
  - mStartSample: 6107150
    mEndSample: 6107150
  - mStartSample: 6133610
    mEndSample: 6133610
  - mStartSample: 6160070
    mEndSample: 6160070
  - mStartSample: 6186530
    mEndSample: 6186530
  - mStartSample: 6212990
    mEndSample: 6212990
  - mStartSample: 6239450
    mEndSample: 6239450
  - mStartSample: 6265910
    mEndSample: 6265910
  - mStartSample: 6292370
    mEndSample: 6292370
  - mStartSample: 6318830
    mEndSample: 6318830
  - mStartSample: 6345290
    mEndSample: 6345290
  - mStartSample: 6371750
    mEndSample: 6371750
  - mStartSample: 6398210
    mEndSample: 6398210
  - mStartSample: 6424670
    mEndSample: 6424670
  - mStartSample: 6451130
    mEndSample: 6451130
  - mStartSample: 6477590
    mEndSample: 6477590
  _SerializedPayloadTypes:
  - SonicBloom.Koreo.TextPayload
  _AssetPayloads: []
  _AssetPayloadIdxs: 
  _ColorPayloads: []
  _ColorPayloadIdxs: 
  _CurvePayloads: []
  _CurvePayloadIdxs: 
  _FloatPayloads: []
  _FloatPayloadIdxs: 
  _GradientPayloads: []
  _GradientPayloadIdxs: 
  _IntPayloads: []
  _IntPayloadIdxs: 
  _SpectrumPayloads: []
  _SpectrumPayloadIdxs: 
  _TextPayloads:
  - mTextVal: 1
  - mTextVal: 7
  - mTextVal: 1
  - mTextVal: 7
  - mTextVal: 1
  - mTextVal: 7
  - mTextVal: 1
  - mTextVal: 7
  - mTextVal: 1
  - mTextVal: 7
  - mTextVal: 1
  - mTextVal: 7
  - mTextVal: 1
  - mTextVal: 7
  - mTextVal: 1
  - mTextVal: 7
  - mTextVal: 1
  - mTextVal: 7
  - mTextVal: 1
  - mTextVal: 7
  - mTextVal: 1
  - mTextVal: 7
  - mTextVal: 1
  - mTextVal: 7
  - mTextVal: 1
  - mTextVal: 7
  - mTextVal: 1
  - mTextVal: 7
  - mTextVal: 1
  - mTextVal: 7
  - mTextVal: 1
  - mTextVal: 7
  - mTextVal: 1
  - mTextVal: 7
  - mTextVal: 1
  - mTextVal: 7
  - mTextVal: 1
  - mTextVal: 7
  - mTextVal: 1
  - mTextVal: 7
  - mTextVal: 1
  - mTextVal: 7
  - mTextVal: 1
  - mTextVal: 7
  - mTextVal: 1
  - mTextVal: 7
  - mTextVal: 1
  - mTextVal: 7
  - mTextVal: 1
  - mTextVal: 7
  - mTextVal: 1
  - mTextVal: 7
  - mTextVal: 1
  - mTextVal: 7
  - mTextVal: 1
  - mTextVal: 7
  - mTextVal: 1
  - mTextVal: 7
  - mTextVal: 1
  - mTextVal: 7
  - mTextVal: 1
  - mTextVal: 7
  _TextPayloadIdxs: 000000000b0000000c000000110000001200000017000000180000001d0000001e00000023000000240000002a0000002e000000390000003a0000003f0000004000000045000000460000004b0000004c0000005100000052000000580000005c000000610000006200000067000000680000006d0000006e0000007300000074000000790000007a0000007f00000080000000860000008a00000095000000960000009b0000009c000000a1000000a2000000a7000000a8000000ad000000ae000000b4000000b8000000c3000000c4000000c9000000ca000000cf000000d0000000d5000000d6000000db000000dc000000e2000000
