%YAML 1.1
%TAG !u! tag:unity3d.com,2011:
--- !u!114 &11400000
MonoBehaviour:
  m_ObjectHideFlags: 0
  m_PrefabParentObject: {fileID: 0}
  m_PrefabInternal: {fileID: 0}
  m_GameObject: {fileID: 0}
  m_Enabled: 1
  m_EditorHideFlags: 0
  m_Script: {fileID: -2076007791, guid: aa81bbec85a3f423193272a7c6154986, type: 3}
  m_Name: P46
  m_EditorClassIdentifier: 
  mSourceClip: {fileID: 8300000, guid: 8a0a6c718252abd42a8b9c5344e1a816, type: 3}
  mAudioFilePath: 
  mSampleRate: 44100
  mIgnoreLatencyOffset: 0
  mTempoSections:
  - sectionName: New Section
    startSample: 0
    samplesPerBeat: 18375
    beatsPerMeasure: 4
    bStartNewMeasure: 1
  - sectionName: New Section
    startSample: 2100
    samplesPerBeat: 18375
    beatsPerMeasure: 3
    bStartNewMeasure: 1
  mTracks:
  - {fileID: 11400000, guid: dd4c37221839ffa4b8400d320eaf5afe, type: 2}
  - {fileID: 11400000, guid: 349153d6246b1d0449ce3f09548cabc7, type: 2}
