%YAML 1.1
%TAG !u! tag:unity3d.com,2011:
--- !u!114 &11400000
MonoBehaviour:
  m_ObjectHideFlags: 0
  m_PrefabParentObject: {fileID: 0}
  m_PrefabInternal: {fileID: 0}
  m_GameObject: {fileID: 0}
  m_Enabled: 1
  m_EditorHideFlags: 0
  m_Script: {fileID: -2076007791, guid: aa81bbec85a3f423193272a7c6154986, type: 3}
  m_Name: P82
  m_EditorClassIdentifier: 
  mSourceClip: {fileID: 8300000, guid: 21860b9c97b91a240968ad9936103b14, type: 3}
  mAudioFilePath: 
  mSampleRate: 44100
  mIgnoreLatencyOffset: 0
  mTempoSections:
  - sectionName: New Section
    startSample: 0
    samplesPerBeat: 17878.378378378377
    beatsPerMeasure: 4
    bStartNewMeasure: 1
  - sectionName: New Section
    startSample: 54800
    samplesPerBeat: 17878.378378378377
    beatsPerMeasure: 3
    bStartNewMeasure: 1
  - sectionName: New Section
    startSample: 3061590
    samplesPerBeat: 17878.378378378377
    beatsPerMeasure: 3
    bStartNewMeasure: 1
  mTracks:
  - {fileID: 11400000, guid: acb59d37349636e4aa943e7b66ad7b68, type: 2}
  - {fileID: 11400000, guid: 71c0d76dcab80f64191b42ebb9dc61c4, type: 2}
