%YAML 1.1
%TAG !u! tag:unity3d.com,2011:
--- !u!114 &11400000
MonoBehaviour:
  m_ObjectHideFlags: 0
  m_PrefabParentObject: {fileID: 0}
  m_PrefabInternal: {fileID: 0}
  m_GameObject: {fileID: 0}
  m_Enabled: 1
  m_EditorHideFlags: 0
  m_Script: {fileID: -2076007791, guid: aa81bbec85a3f423193272a7c6154986, type: 3}
  m_Name: P17
  m_EditorClassIdentifier: 
  mSourceClip: {fileID: 8300000, guid: 00cdca1469eeffc4ca45e54a46948dca, type: 3}
  mAudioFilePath: 
  mSampleRate: 44100
  mIgnoreLatencyOffset: 0
  mTempoSections:
  - sectionName: New Section
    startSample: 0
    samplesPerBeat: 26460
    beatsPerMeasure: 4
    bStartNewMeasure: 1
  - sectionName: New Section
    startSample: 53636
    samplesPerBeat: 25890.41095890411
    beatsPerMeasure: 4
    bStartNewMeasure: 1
  - sectionName: New Section
    startSample: 898014
    samplesPerBeat: 26328.358208955222
    beatsPerMeasure: 4
    bStartNewMeasure: 1
  - sectionName: New Section
    startSample: 1108640
    samplesPerBeat: 25814.634146341465
    beatsPerMeasure: 4
    bStartNewMeasure: 1
  - sectionName: New Section
    startSample: 1627297
    samplesPerBeat: 25814.634146341465
    beatsPerMeasure: 4
    bStartNewMeasure: 1
  - sectionName: New Section
    startSample: 2041626
    samplesPerBeat: 25915.76885406464
    beatsPerMeasure: 4
    bStartNewMeasure: 1
  - sectionName: violin
    startSample: 2456278
    samplesPerBeat: 25915.76885406464
    beatsPerMeasure: 4
    bStartNewMeasure: 1
  - sectionName: New Section
    startSample: 3389640
    samplesPerBeat: 25992.141453831042
    beatsPerMeasure: 4
    bStartNewMeasure: 1
  - sectionName: New Section
    startSample: 4117419
    samplesPerBeat: 25941.176470588234
    beatsPerMeasure: 4
    bStartNewMeasure: 1
  - sectionName: New Section
    startSample: 5880431
    samplesPerBeat: 26460
    beatsPerMeasure: 4
    bStartNewMeasure: 1
  - sectionName: New Section
    startSample: 5986271
    samplesPerBeat: 25764.36222005842
    beatsPerMeasure: 4
    bStartNewMeasure: 1
  - sectionName: New Section
    startSample: 6193612
    samplesPerBeat: 25941.176470588234
    beatsPerMeasure: 4
    bStartNewMeasure: 1
  mTracks:
  - {fileID: 11400000, guid: f97d42addda7f4e41aa095001293a046, type: 2}
  - {fileID: 11400000, guid: f0bdf012f19de4c4d8a0a82657f9e484, type: 2}
