%YAML 1.1
%TAG !u! tag:unity3d.com,2011:
--- !u!114 &11400000
MonoBehaviour:
  m_ObjectHideFlags: 0
  m_PrefabParentObject: {fileID: 0}
  m_PrefabInternal: {fileID: 0}
  m_GameObject: {fileID: 0}
  m_Enabled: 1
  m_EditorHideFlags: 0
  m_Script: {fileID: -1223223985, guid: aa81bbec85a3f423193272a7c6154986, type: 3}
  m_Name: P17track
  m_EditorClassIdentifier: 
  mEventID: Note
  mEventList:
  - mStartSample: 26460
    mEndSample: 26460
  - mStartSample: 32760
    mEndSample: 32760
  - mStartSample: 39208
    mEndSample: 39208
  - mStartSample: 46280
    mEndSample: 46280
  - mStartSample: 53636
    mEndSample: 53636
  - mStartSample: 66581
    mEndSample: 66581
  - mStartSample: 79526
    mEndSample: 79526
  - mStartSample: 92471
    mEndSample: 92471
  - mStartSample: 105416
    mEndSample: 105416
  - mStartSample: 118362
    mEndSample: 118362
  - mStartSample: 131307
    mEndSample: 131307
  - mStartSample: 144252
    mEndSample: 144252
  - mStartSample: 157197
    mEndSample: 157197
  - mStartSample: 170142
    mEndSample: 170142
  - mStartSample: 183088
    mEndSample: 183088
  - mStartSample: 196033
    mEndSample: 196033
  - mStartSample: 208978
    mEndSample: 208978
  - mStartSample: 221923
    mEndSample: 221923
  - mStartSample: 234868
    mEndSample: 234868
  - mStartSample: 247814
    mEndSample: 247814
  - mStartSample: 260759
    mEndSample: 260759
  - mStartSample: 273704
    mEndSample: 273704
  - mStartSample: 286649
    mEndSample: 286649
  - mStartSample: 299594
    mEndSample: 299594
  - mStartSample: 312539
    mEndSample: 312539
  - mStartSample: 325485
    mEndSample: 325485
  - mStartSample: 338430
    mEndSample: 338430
  - mStartSample: 351375
    mEndSample: 351375
  - mStartSample: 364320
    mEndSample: 364320
  - mStartSample: 377265
    mEndSample: 377265
  - mStartSample: 390211
    mEndSample: 390211
  - mStartSample: 403156
    mEndSample: 403156
  - mStartSample: 416101
    mEndSample: 416101
  - mStartSample: 429046
    mEndSample: 429046
  - mStartSample: 441991
    mEndSample: 441991
  - mStartSample: 448464
    mEndSample: 448464
  - mStartSample: 454937
    mEndSample: 454937
  - mStartSample: 461409
    mEndSample: 461409
  - mStartSample: 467882
    mEndSample: 467882
  - mStartSample: 480827
    mEndSample: 480827
  - mStartSample: 493772
    mEndSample: 493772
  - mStartSample: 506717
    mEndSample: 506717
  - mStartSample: 519662
    mEndSample: 519662
  - mStartSample: 532608
    mEndSample: 532608
  - mStartSample: 545553
    mEndSample: 545553
  - mStartSample: 558498
    mEndSample: 558498
  - mStartSample: 571443
    mEndSample: 571443
  - mStartSample: 584388
    mEndSample: 584388
  - mStartSample: 597334
    mEndSample: 597334
  - mStartSample: 610279
    mEndSample: 610279
  - mStartSample: 623224
    mEndSample: 623224
  - mStartSample: 636169
    mEndSample: 636169
  - mStartSample: 649114
    mEndSample: 649114
  - mStartSample: 662060
    mEndSample: 662060
  - mStartSample: 675005
    mEndSample: 675005
  - mStartSample: 687950
    mEndSample: 687950
  - mStartSample: 702328
    mEndSample: 702328
  - mStartSample: 715273
    mEndSample: 715273
  - mStartSample: 729047
    mEndSample: 729047
  - mStartSample: 741993
    mEndSample: 741993
  - mStartSample: 754938
    mEndSample: 754938
  - mStartSample: 767883
    mEndSample: 767883
  - mStartSample: 780828
    mEndSample: 780828
  - mStartSample: 793773
    mEndSample: 793773
  - mStartSample: 806719
    mEndSample: 806719
  - mStartSample: 820308
    mEndSample: 820308
  - mStartSample: 837658
    mEndSample: 837658
  - mStartSample: 898014
    mEndSample: 898014
  - mStartSample: 911178
    mEndSample: 911178
  - mStartSample: 924342
    mEndSample: 924342
  - mStartSample: 937506
    mEndSample: 937506
  - mStartSample: 950670
    mEndSample: 950670
  - mStartSample: 963834
    mEndSample: 963834
  - mStartSample: 976999
    mEndSample: 976999
  - mStartSample: 990163
    mEndSample: 990163
  - mStartSample: 1003327
    mEndSample: 1003327
  - mStartSample: 1016491
    mEndSample: 1016491
  - mStartSample: 1029655
    mEndSample: 1029655
  - mStartSample: 1042819
    mEndSample: 1042819
  - mStartSample: 1055983
    mEndSample: 1055983
  - mStartSample: 1069148
    mEndSample: 1069148
  - mStartSample: 1082312
    mEndSample: 1082312
  - mStartSample: 1088894
    mEndSample: 1088894
  - mStartSample: 1095476
    mEndSample: 1095476
  - mStartSample: 1102058
    mEndSample: 1102058
  - mStartSample: 1108640
    mEndSample: 1108640
  - mStartSample: 1121547
    mEndSample: 1121547
  - mStartSample: 1134454
    mEndSample: 1134454
  - mStartSample: 1147361
    mEndSample: 1147361
  - mStartSample: 1160269
    mEndSample: 1160269
  - mStartSample: 1173176
    mEndSample: 1173176
  - mStartSample: 1186083
    mEndSample: 1186083
  - mStartSample: 1198991
    mEndSample: 1198991
  - mStartSample: 1211898
    mEndSample: 1211898
  - mStartSample: 1224805
    mEndSample: 1224805
  - mStartSample: 1237712
    mEndSample: 1237712
  - mStartSample: 1250619
    mEndSample: 1250619
  - mStartSample: 1263527
    mEndSample: 1263527
  - mStartSample: 1276435
    mEndSample: 1276435
  - mStartSample: 1289342
    mEndSample: 1289342
  - mStartSample: 1295796
    mEndSample: 1295796
  - mStartSample: 1302249
    mEndSample: 1302249
  - mStartSample: 1308703
    mEndSample: 1308703
  - mStartSample: 1315157
    mEndSample: 1315157
  - mStartSample: 1328064
    mEndSample: 1328064
  - mStartSample: 1340971
    mEndSample: 1340971
  - mStartSample: 1353878
    mEndSample: 1353878
  - mStartSample: 1366786
    mEndSample: 1366786
  - mStartSample: 1379693
    mEndSample: 1379693
  - mStartSample: 1392600
    mEndSample: 1392600
  - mStartSample: 1405508
    mEndSample: 1405508
  - mStartSample: 1418415
    mEndSample: 1418415
  - mStartSample: 1431322
    mEndSample: 1431322
  - mStartSample: 1444229
    mEndSample: 1444229
  - mStartSample: 1457136
    mEndSample: 1457136
  - mStartSample: 1470044
    mEndSample: 1470044
  - mStartSample: 1482951
    mEndSample: 1482951
  - mStartSample: 1495858
    mEndSample: 1495858
  - mStartSample: 1508766
    mEndSample: 1508766
  - mStartSample: 1521674
    mEndSample: 1521674
  - mStartSample: 1534581
    mEndSample: 1534581
  - mStartSample: 1547488
    mEndSample: 1547488
  - mStartSample: 1560395
    mEndSample: 1560395
  - mStartSample: 1573303
    mEndSample: 1573303
  - mStartSample: 1586210
    mEndSample: 1586210
  - mStartSample: 1599117
    mEndSample: 1599117
  - mStartSample: 1612025
    mEndSample: 1612025
  - mStartSample: 1627297
    mEndSample: 1627297
  - mStartSample: 1653111
    mEndSample: 1653111
  - mStartSample: 1678926
    mEndSample: 1678926
  - mStartSample: 1704741
    mEndSample: 1704741
  - mStartSample: 1711195
    mEndSample: 1711195
  - mStartSample: 1717648
    mEndSample: 1717648
  - mStartSample: 1724102
    mEndSample: 1724102
  - mStartSample: 1730555
    mEndSample: 1730555
  - mStartSample: 1743462
    mEndSample: 1743462
  - mStartSample: 1756369
    mEndSample: 1756369
  - mStartSample: 1769276
    mEndSample: 1769276
  - mStartSample: 1782184
    mEndSample: 1782184
  - mStartSample: 1795091
    mEndSample: 1795091
  - mStartSample: 1807998
    mEndSample: 1807998
  - mStartSample: 1820906
    mEndSample: 1820906
  - mStartSample: 1833814
    mEndSample: 1833814
  - mStartSample: 1846721
    mEndSample: 1846721
  - mStartSample: 1859628
    mEndSample: 1859628
  - mStartSample: 1872536
    mEndSample: 1872536
  - mStartSample: 1885443
    mEndSample: 1885443
  - mStartSample: 1898350
    mEndSample: 1898350
  - mStartSample: 1911257
    mEndSample: 1911257
  - mStartSample: 1917711
    mEndSample: 1917711
  - mStartSample: 1924165
    mEndSample: 1924165
  - mStartSample: 1930618
    mEndSample: 1930618
  - mStartSample: 1937072
    mEndSample: 1937072
  - mStartSample: 1949979
    mEndSample: 1949979
  - mStartSample: 1962886
    mEndSample: 1962886
  - mStartSample: 1975793
    mEndSample: 1975793
  - mStartSample: 1988701
    mEndSample: 1988701
  - mStartSample: 2001608
    mEndSample: 2001608
  - mStartSample: 2014515
    mEndSample: 2014515
  - mStartSample: 2027423
    mEndSample: 2027423
  - mStartSample: 2041626
    mEndSample: 2041626
  - mStartSample: 2054583
    mEndSample: 2054583
  - mStartSample: 2067440
    mEndSample: 2067440
  - mStartSample: 2080499
    mEndSample: 2080499
  - mStartSample: 2093457
    mEndSample: 2093457
  - mStartSample: 2106415
    mEndSample: 2106415
  - mStartSample: 2119373
    mEndSample: 2119373
  - mStartSample: 2125852
    mEndSample: 2125852
  - mStartSample: 2132331
    mEndSample: 2132331
  - mStartSample: 2138810
    mEndSample: 2138810
  - mStartSample: 2145289
    mEndSample: 2145289
  - mStartSample: 2158246
    mEndSample: 2158246
  - mStartSample: 2171103
    mEndSample: 2171103
  - mStartSample: 2184162
    mEndSample: 2184162
  - mStartSample: 2197120
    mEndSample: 2197120
  - mStartSample: 2210078
    mEndSample: 2210078
  - mStartSample: 2223036
    mEndSample: 2223036
  - mStartSample: 2235994
    mEndSample: 2235994
  - mStartSample: 2248952
    mEndSample: 2248952
  - mStartSample: 2261909
    mEndSample: 2261909
  - mStartSample: 2274766
    mEndSample: 2274766
  - mStartSample: 2287825
    mEndSample: 2287825
  - mStartSample: 2300783
    mEndSample: 2300783
  - mStartSample: 2313741
    mEndSample: 2313741
  - mStartSample: 2326699
    mEndSample: 2326699
  - mStartSample: 2339657
    mEndSample: 2339657
  - mStartSample: 2352615
    mEndSample: 2352615
  - mStartSample: 2365572
    mEndSample: 2365572
  - mStartSample: 2378429
    mEndSample: 2378429
  - mStartSample: 2391488
    mEndSample: 2391488
  - mStartSample: 2404446
    mEndSample: 2404446
  - mStartSample: 2417404
    mEndSample: 2417404
  - mStartSample: 2430362
    mEndSample: 2430362
  - mStartSample: 2443320
    mEndSample: 2443320
  - mStartSample: 2456278
    mEndSample: 2456278
  - mStartSample: 2469235
    mEndSample: 2469235
  - mStartSample: 2482092
    mEndSample: 2482092
  - mStartSample: 2495151
    mEndSample: 2495151
  - mStartSample: 2508109
    mEndSample: 2508109
  - mStartSample: 2521067
    mEndSample: 2521067
  - mStartSample: 2534025
    mEndSample: 2534025
  - mStartSample: 2553462
    mEndSample: 2553462
  - mStartSample: 2559941
    mEndSample: 2559941
  - mStartSample: 2572898
    mEndSample: 2572898
  - mStartSample: 2585855
    mEndSample: 2585855
  - mStartSample: 2598712
    mEndSample: 2598712
  - mStartSample: 2611771
    mEndSample: 2611771
  - mStartSample: 2624730
    mEndSample: 2624730
  - mStartSample: 2637688
    mEndSample: 2637688
  - mStartSample: 2644167
    mEndSample: 2644167
  - mStartSample: 2650646
    mEndSample: 2650646
  - mStartSample: 2657125
    mEndSample: 2657125
  - mStartSample: 2663604
    mEndSample: 2663604
  - mStartSample: 2676562
    mEndSample: 2676562
  - mStartSample: 2689519
    mEndSample: 2689519
  - mStartSample: 2702376
    mEndSample: 2702376
  - mStartSample: 2715435
    mEndSample: 2715435
  - mStartSample: 2728394
    mEndSample: 2728394
  - mStartSample: 2741351
    mEndSample: 2741351
  - mStartSample: 2747830
    mEndSample: 2747830
  - mStartSample: 2754309
    mEndSample: 2754309
  - mStartSample: 2760788
    mEndSample: 2760788
  - mStartSample: 2767267
    mEndSample: 2767267
  - mStartSample: 2780225
    mEndSample: 2780225
  - mStartSample: 2793182
    mEndSample: 2793182
  - mStartSample: 2806039
    mEndSample: 2806039
  - mStartSample: 2819098
    mEndSample: 2819098
  - mStartSample: 2832057
    mEndSample: 2832057
  - mStartSample: 2845014
    mEndSample: 2845014
  - mStartSample: 2851493
    mEndSample: 2851493
  - mStartSample: 2857972
    mEndSample: 2857972
  - mStartSample: 2864451
    mEndSample: 2864451
  - mStartSample: 2870930
    mEndSample: 2870930
  - mStartSample: 2883888
    mEndSample: 2883888
  - mStartSample: 2896845
    mEndSample: 2896845
  - mStartSample: 2909702
    mEndSample: 2909702
  - mStartSample: 2922761
    mEndSample: 2922761
  - mStartSample: 2935720
    mEndSample: 2935720
  - mStartSample: 2948677
    mEndSample: 2948677
  - mStartSample: 2955156
    mEndSample: 2955156
  - mStartSample: 2961635
    mEndSample: 2961635
  - mStartSample: 2968114
    mEndSample: 2968114
  - mStartSample: 2974593
    mEndSample: 2974593
  - mStartSample: 2987551
    mEndSample: 2987551
  - mStartSample: 3000508
    mEndSample: 3000508
  - mStartSample: 3013365
    mEndSample: 3013365
  - mStartSample: 3026424
    mEndSample: 3026424
  - mStartSample: 3039383
    mEndSample: 3039383
  - mStartSample: 3052340
    mEndSample: 3052340
  - mStartSample: 3058819
    mEndSample: 3058819
  - mStartSample: 3065298
    mEndSample: 3065298
  - mStartSample: 3071777
    mEndSample: 3071777
  - mStartSample: 3078256
    mEndSample: 3078256
  - mStartSample: 3091214
    mEndSample: 3091214
  - mStartSample: 3104171
    mEndSample: 3104171
  - mStartSample: 3117028
    mEndSample: 3117028
  - mStartSample: 3130087
    mEndSample: 3130087
  - mStartSample: 3143045
    mEndSample: 3143045
  - mStartSample: 3156003
    mEndSample: 3156003
  - mStartSample: 3168960
    mEndSample: 3168960
  - mStartSample: 3181817
    mEndSample: 3181817
  - mStartSample: 3194876
    mEndSample: 3194876
  - mStartSample: 3207835
    mEndSample: 3207835
  - mStartSample: 3220793
    mEndSample: 3220793
  - mStartSample: 3233751
    mEndSample: 3233751
  - mStartSample: 3246709
    mEndSample: 3246709
  - mStartSample: 3259667
    mEndSample: 3259667
  - mStartSample: 3272625
    mEndSample: 3272625
  - mStartSample: 3288168
    mEndSample: 3288168
  - mStartSample: 3314084
    mEndSample: 3314084
  - mStartSample: 3340000
    mEndSample: 3340000
  - mStartSample: 3389640
    mEndSample: 3389640
  - mStartSample: 3415632
    mEndSample: 3415632
  - mStartSample: 3441624
    mEndSample: 3441624
  - mStartSample: 3467616
    mEndSample: 3467616
  - mStartSample: 3493608
    mEndSample: 3493608
  - mStartSample: 3597577
    mEndSample: 3597577
  - mStartSample: 3623569
    mEndSample: 3623569
  - mStartSample: 3649561
    mEndSample: 3649561
  - mStartSample: 3675553
    mEndSample: 3675553
  - mStartSample: 3701545
    mEndSample: 3701545
  - mStartSample: 3831506
    mEndSample: 3831506
  - mStartSample: 3857498
    mEndSample: 3857498
  - mStartSample: 3883490
    mEndSample: 3883490
  - mStartSample: 3909482
    mEndSample: 3909482
  - mStartSample: 3935474
    mEndSample: 3935474
  - mStartSample: 4013451
    mEndSample: 4013451
  - mStartSample: 4039443
    mEndSample: 4039443
  - mStartSample: 4065435
    mEndSample: 4065435
  - mStartSample: 4091427
    mEndSample: 4091427
  - mStartSample: 4117419
    mEndSample: 4117419
  - mStartSample: 4221183
    mEndSample: 4221183
  - mStartSample: 4260095
    mEndSample: 4260095
  - mStartSample: 4273066
    mEndSample: 4273066
  - mStartSample: 4292521
    mEndSample: 4292521
  - mStartSample: 4311977
    mEndSample: 4311977
  - mStartSample: 4324948
    mEndSample: 4324948
  - mStartSample: 4363860
    mEndSample: 4363860
  - mStartSample: 4376830
    mEndSample: 4376830
  - mStartSample: 4428713
    mEndSample: 4428713
  - mStartSample: 4467624
    mEndSample: 4467624
  - mStartSample: 4480595
    mEndSample: 4480595
  - mStartSample: 4500051
    mEndSample: 4500051
  - mStartSample: 4519507
    mEndSample: 4519507
  - mStartSample: 4532477
    mEndSample: 4532477
  - mStartSample: 4558419
    mEndSample: 4558419
  - mStartSample: 4584360
    mEndSample: 4584360
  - mStartSample: 4590845
    mEndSample: 4590845
  - mStartSample: 4597330
    mEndSample: 4597330
  - mStartSample: 4603816
    mEndSample: 4603816
  - mStartSample: 4610301
    mEndSample: 4610301
  - mStartSample: 4616786
    mEndSample: 4616786
  - mStartSample: 4623271
    mEndSample: 4623271
  - mStartSample: 4629757
    mEndSample: 4629757
  - mStartSample: 4636242
    mEndSample: 4636242
  - mStartSample: 4675154
    mEndSample: 4675154
  - mStartSample: 4688124
    mEndSample: 4688124
  - mStartSample: 4707580
    mEndSample: 4707580
  - mStartSample: 4727036
    mEndSample: 4727036
  - mStartSample: 4740007
    mEndSample: 4740007
  - mStartSample: 4778919
    mEndSample: 4778919
  - mStartSample: 4791889
    mEndSample: 4791889
  - mStartSample: 4843771
    mEndSample: 4843771
  - mStartSample: 4882683
    mEndSample: 4882683
  - mStartSample: 4895654
    mEndSample: 4895654
  - mStartSample: 4908624
    mEndSample: 4908624
  - mStartSample: 4921595
    mEndSample: 4921595
  - mStartSample: 4934566
    mEndSample: 4934566
  - mStartSample: 4947536
    mEndSample: 4947536
  - mStartSample: 4973477
    mEndSample: 4973477
  - mStartSample: 4979963
    mEndSample: 4979963
  - mStartSample: 4986448
    mEndSample: 4986448
  - mStartSample: 4992933
    mEndSample: 4992933
  - mStartSample: 4999419
    mEndSample: 4999419
  - mStartSample: 5064271
    mEndSample: 5064271
  - mStartSample: 5077242
    mEndSample: 5077242
  - mStartSample: 5090213
    mEndSample: 5090213
  - mStartSample: 5103183
    mEndSample: 5103183
  - mStartSample: 5122639
    mEndSample: 5122639
  - mStartSample: 5142095
    mEndSample: 5142095
  - mStartSample: 5168036
    mEndSample: 5168036
  - mStartSample: 5181007
    mEndSample: 5181007
  - mStartSample: 5193977
    mEndSample: 5193977
  - mStartSample: 5206948
    mEndSample: 5206948
  - mStartSample: 5226404
    mEndSample: 5226404
  - mStartSample: 5245860
    mEndSample: 5245860
  - mStartSample: 5271801
    mEndSample: 5271801
  - mStartSample: 5284771
    mEndSample: 5284771
  - mStartSample: 5297742
    mEndSample: 5297742
  - mStartSample: 5310713
    mEndSample: 5310713
  - mStartSample: 5330169
    mEndSample: 5330169
  - mStartSample: 5349624
    mEndSample: 5349624
  - mStartSample: 5362595
    mEndSample: 5362595
  - mStartSample: 5382051
    mEndSample: 5382051
  - mStartSample: 5401507
    mEndSample: 5401507
  - mStartSample: 5414477
    mEndSample: 5414477
  - mStartSample: 5433933
    mEndSample: 5433933
  - mStartSample: 5453389
    mEndSample: 5453389
  - mStartSample: 5479330
    mEndSample: 5479330
  - mStartSample: 5492301
    mEndSample: 5492301
  - mStartSample: 5505271
    mEndSample: 5505271
  - mStartSample: 5518242
    mEndSample: 5518242
  - mStartSample: 5537698
    mEndSample: 5537698
  - mStartSample: 5557154
    mEndSample: 5557154
  - mStartSample: 5583095
    mEndSample: 5583095
  - mStartSample: 5596066
    mEndSample: 5596066
  - mStartSample: 5609036
    mEndSample: 5609036
  - mStartSample: 5622007
    mEndSample: 5622007
  - mStartSample: 5641463
    mEndSample: 5641463
  - mStartSample: 5660919
    mEndSample: 5660919
  - mStartSample: 5673889
    mEndSample: 5673889
  - mStartSample: 5725771
    mEndSample: 5725771
  - mStartSample: 5751713
    mEndSample: 5751713
  - mStartSample: 5758198
    mEndSample: 5758198
  - mStartSample: 5764683
    mEndSample: 5764683
  - mStartSample: 5771169
    mEndSample: 5771169
  - mStartSample: 5777654
    mEndSample: 5777654
  - mStartSample: 5803595
    mEndSample: 5803595
  - mStartSample: 5829536
    mEndSample: 5829536
  - mStartSample: 5855477
    mEndSample: 5855477
  - mStartSample: 5880431
    mEndSample: 5880431
  - mStartSample: 5893661
    mEndSample: 5893661
  - mStartSample: 5906891
    mEndSample: 5906891
  - mStartSample: 5920121
    mEndSample: 5920121
  - mStartSample: 5933351
    mEndSample: 5933351
  - mStartSample: 5946581
    mEndSample: 5946581
  - mStartSample: 5959811
    mEndSample: 5959811
  - mStartSample: 5973041
    mEndSample: 5973041
  - mStartSample: 5986271
    mEndSample: 5986271
  - mStartSample: 5999153
    mEndSample: 5999153
  - mStartSample: 6012035
    mEndSample: 6012035
  - mStartSample: 6024917
    mEndSample: 6024917
  - mStartSample: 6037799
    mEndSample: 6037799
  - mStartSample: 6050681
    mEndSample: 6050681
  - mStartSample: 6063564
    mEndSample: 6063564
  - mStartSample: 6076446
    mEndSample: 6076446
  - mStartSample: 6089328
    mEndSample: 6089328
  - mStartSample: 6102210
    mEndSample: 6102210
  - mStartSample: 6115092
    mEndSample: 6115092
  - mStartSample: 6127974
    mEndSample: 6127974
  - mStartSample: 6140856
    mEndSample: 6140856
  - mStartSample: 6153738
    mEndSample: 6153738
  - mStartSample: 6166621
    mEndSample: 6166621
  - mStartSample: 6179503
    mEndSample: 6179503
  - mStartSample: 6193612
    mEndSample: 6193612
  - mStartSample: 6206582
    mEndSample: 6206582
  - mStartSample: 6219553
    mEndSample: 6219553
  - mStartSample: 6232523
    mEndSample: 6232523
  - mStartSample: 6245494
    mEndSample: 6245494
  - mStartSample: 6258464
    mEndSample: 6258464
  - mStartSample: 6271435
    mEndSample: 6271435
  - mStartSample: 6284406
    mEndSample: 6284406
  - mStartSample: 6297376
    mEndSample: 6297376
  - mStartSample: 6310346
    mEndSample: 6310346
  - mStartSample: 6323317
    mEndSample: 6323317
  - mStartSample: 6336287
    mEndSample: 6336287
  - mStartSample: 6349258
    mEndSample: 6349258
  - mStartSample: 6362228
    mEndSample: 6362228
  - mStartSample: 6375199
    mEndSample: 6375199
  - mStartSample: 6388170
    mEndSample: 6388170
  - mStartSample: 6401141
    mEndSample: 6401141
  - mStartSample: 6414111
    mEndSample: 6414111
  - mStartSample: 6427082
    mEndSample: 6427082
  - mStartSample: 6440052
    mEndSample: 6440052
  - mStartSample: 6453023
    mEndSample: 6453023
  - mStartSample: 6465993
    mEndSample: 6465993
  - mStartSample: 6478964
    mEndSample: 6478964
  - mStartSample: 6491935
    mEndSample: 6491935
  - mStartSample: 6504906
    mEndSample: 6504906
  - mStartSample: 6517876
    mEndSample: 6517876
  - mStartSample: 6530847
    mEndSample: 6530847
  - mStartSample: 6543817
    mEndSample: 6543817
  - mStartSample: 6556788
    mEndSample: 6556788
  - mStartSample: 6569758
    mEndSample: 6569758
  - mStartSample: 6582729
    mEndSample: 6582729
  - mStartSample: 6595700
    mEndSample: 6595700
  - mStartSample: 6611058
    mEndSample: 6611058
  - mStartSample: 6628126
    mEndSample: 6628126
  - mStartSample: 6642405
    mEndSample: 6642405
  - mStartSample: 6657957
    mEndSample: 6657957
  - mStartSample: 6683229
    mEndSample: 6683229
  _SerializedPayloadTypes:
  - SonicBloom.Koreo.TextPayload
  - SonicBloom.Koreo.IntPayload
  _AssetPayloads: []
  _AssetPayloadIdxs: 
  _ColorPayloads: []
  _ColorPayloadIdxs: 
  _CurvePayloads: []
  _CurvePayloadIdxs: 
  _FloatPayloads: []
  _FloatPayloadIdxs: 
  _GradientPayloads: []
  _GradientPayloadIdxs: 
  _IntPayloads:
  - mIntVal: 1
  _IntPayloadIdxs: 74010000
  _SpectrumPayloads: []
  _SpectrumPayloadIdxs: 
  _TextPayloads:
  - mTextVal: 1
  - mTextVal: 7
  - mTextVal: 1
  - mTextVal: 7
  - mTextVal: 1
  - mTextVal: 7
  - mTextVal: 1
  - mTextVal: 7
  - mTextVal: 1
  - mTextVal: 7
  - mTextVal: 1
  - mTextVal: 7
  - mTextVal: 1
  - mTextVal: 7
  - mTextVal: 1
  - mTextVal: 7
  - mTextVal: 1
  - mTextVal: 7
  - mTextVal: 1
  - mTextVal: 7
  - mTextVal: 1
  - mTextVal: 7
  - mTextVal: 1
  - mTextVal: 7
  - mTextVal: 1
  - mTextVal: 7
  - mTextVal: 1
  - mTextVal: 7
  - mTextVal: 1
  - mTextVal: 7
  - mTextVal: 1
  - mTextVal: 7
  - mTextVal: 1
  - mTextVal: 7
  - mTextVal: 1
  - mTextVal: 7
  - mTextVal: 1
  - mTextVal: 7
  - mTextVal: 1
  - mTextVal: 7
  - mTextVal: 1
  - mTextVal: 7
  - mTextVal: 1
  - mTextVal: 7
  - mTextVal: 1
  - mTextVal: 7
  - mTextVal: 1
  - mTextVal: 7
  - mTextVal: 1
  - mTextVal: 7
  - mTextVal: 1
  - mTextVal: 7
  - mTextVal: 1
  - mTextVal: 7
  - mTextVal: 1
  - mTextVal: 7
  - mTextVal: 1
  - mTextVal: 7
  - mTextVal: 1
  - mTextVal: 7
  - mTextVal: 1
  - mTextVal: 7
  - mTextVal: 1
  - mTextVal: 7
  - mTextVal: 1
  - mTextVal: 7
  - mTextVal: 1
  - mTextVal: 7
  - mTextVal: 1
  - mTextVal: 7
  - mTextVal: 1
  - mTextVal: 7
  - mTextVal: 1
  - mTextVal: 7
  - mTextVal: 1
  - mTextVal: 7
  - mTextVal: 1
  - mTextVal: 7
  - mTextVal: 7
  - mTextVal: 1
  - mTextVal: 7
  - mTextVal: 1
  - mTextVal: 7
  - mTextVal: 1
  - mTextVal: 7
  - mTextVal: 1
  - mTextVal: 7
  - mTextVal: 1
  - mTextVal: 7
  - mTextVal: 1
  - mTextVal: 7
  - mTextVal: 1
  - mTextVal: 7
  _TextPayloadIdxs: 000000000300000004000000130000001400000021000000220000002500000026000000350000003600000042000000430000004a0000004b000000500000005100000054000000550000005c0000005d000000620000006300000066000000670000006e0000006f00000076000000770000007e0000008200000085000000860000008d0000008e000000930000009400000097000000980000009f000000a0000000a5000000a6000000a9000000aa000000b1000000b2000000b9000000ba000000c1000000c2000000c7000000cb000000cf000000d0000000d4000000d5000000d9000000da000000de000000df000000e3000000e4000000e8000000e9000000ed000000ee000000f2000000f3000000f7000000f8000000fc000000fd00000007010000320100003a010000490100004d010000780100007c01000083010000840100008b0100008c01000093010000940100009b0100009c010000a3010000a4010000ab010000ac010000b3010000
