%YAML 1.1
%TAG !u! tag:unity3d.com,2011:
--- !u!114 &11400000
MonoBehaviour:
  m_ObjectHideFlags: 0
  m_PrefabParentObject: {fileID: 0}
  m_PrefabInternal: {fileID: 0}
  m_GameObject: {fileID: 0}
  m_Enabled: 1
  m_EditorHideFlags: 0
  m_Script: {fileID: -2076007791, guid: aa81bbec85a3f423193272a7c6154986, type: 3}
  m_Name: P58
  m_EditorClassIdentifier: 
  mSourceClip: {fileID: 8300000, guid: bdeb4141ac8cdf140b74390e84dca979, type: 3}
  mAudioFilePath: 
  mSampleRate: 44100
  mIgnoreLatencyOffset: 0
  mTempoSections:
  - sectionName: New Section
    startSample: 0
    samplesPerBeat: 22050
    beatsPerMeasure: 4
    bStartNewMeasure: 1
  - sectionName: New Section
    startSample: 5000
    samplesPerBeat: 22050
    beatsPerMeasure: 4
    bStartNewMeasure: 1
  - sectionName: New Section
    startSample: 20235
    samplesPerBeat: 13363.636363636364
    beatsPerMeasure: 3
    bStartNewMeasure: 1
  - sectionName: New Section
    startSample: 54910
    samplesPerBeat: 13363.636363636364
    beatsPerMeasure: 3
    bStartNewMeasure: 1
  - sectionName: New Section
    startSample: 301248
    samplesPerBeat: 13500
    beatsPerMeasure: 3
    bStartNewMeasure: 1
  - sectionName: New Section
    startSample: 953780
    samplesPerBeat: 13500
    beatsPerMeasure: 3
    bStartNewMeasure: 1
  - sectionName: New Section
    startSample: 1142780
    samplesPerBeat: 13296.4824120603
    beatsPerMeasure: 3
    bStartNewMeasure: 1
  - sectionName: New Section
    startSample: 1156076
    samplesPerBeat: 13296.4824120603
    beatsPerMeasure: 3
    bStartNewMeasure: 1
  - sectionName: New Section
    startSample: 1436515
    samplesPerBeat: 13500
    beatsPerMeasure: 3
    bStartNewMeasure: 1
  - sectionName: New Section
    startSample: 1598515
    samplesPerBeat: 13263.157894736842
    beatsPerMeasure: 3
    bStartNewMeasure: 1
  - sectionName: New Section
    startSample: 1717883
    samplesPerBeat: 13263.157894736842
    beatsPerMeasure: 3
    bStartNewMeasure: 1
  - sectionName: New Section
    startSample: 1837251
    samplesPerBeat: 13534.526854219948
    beatsPerMeasure: 3
    bStartNewMeasure: 1
  - sectionName: New Section
    startSample: 1999665
    samplesPerBeat: 13296.4824120603
    beatsPerMeasure: 3
    bStartNewMeasure: 1
  - sectionName: New Section
    startSample: 2254338
    samplesPerBeat: 13296.4824120603
    beatsPerMeasure: 3
    bStartNewMeasure: 1
  - sectionName: New Section
    startSample: 2527750
    samplesPerBeat: 13500
    beatsPerMeasure: 3
    bStartNewMeasure: 1
  - sectionName: New Section
    startSample: 2907358
    samplesPerBeat: 13500
    beatsPerMeasure: 3
    bStartNewMeasure: 1
  - sectionName: New Section
    startSample: 2933720
    samplesPerBeat: 13296.4824120603
    beatsPerMeasure: 3
    bStartNewMeasure: 1
  - sectionName: New Section
    startSample: 3067646
    samplesPerBeat: 13296.4824120603
    beatsPerMeasure: 3
    bStartNewMeasure: 1
  - sectionName: New Section
    startSample: 3260782
    samplesPerBeat: 13431.472081218275
    beatsPerMeasure: 3
    bStartNewMeasure: 1
  - sectionName: New Section
    startSample: 3422964
    samplesPerBeat: 13500
    beatsPerMeasure: 3
    bStartNewMeasure: 1
  - sectionName: New Section
    startSample: 3709706
    samplesPerBeat: 13296.4824120603
    beatsPerMeasure: 3
    bStartNewMeasure: 1
  - sectionName: New Section
    startSample: 3749595
    samplesPerBeat: 13099.009900990099
    beatsPerMeasure: 3
    bStartNewMeasure: 1
  - sectionName: New Section
    startSample: 3867486
    samplesPerBeat: 13926.315789473685
    beatsPerMeasure: 3
    bStartNewMeasure: 1
  - sectionName: New Section
    startSample: 3867486
    samplesPerBeat: 13926.315789473685
    beatsPerMeasure: 3
    bStartNewMeasure: 1
  - sectionName: New Section
    startSample: 3909264
    samplesPerBeat: 13230
    beatsPerMeasure: 3
    bStartNewMeasure: 1
  - sectionName: New Section
    startSample: 4029295
    samplesPerBeat: 13500
    beatsPerMeasure: 3
    bStartNewMeasure: 1
  - sectionName: New Section
    startSample: 4110295
    samplesPerBeat: 13431.472081218275
    beatsPerMeasure: 3
    bStartNewMeasure: 1
  - sectionName: New Section
    startSample: 4352960
    samplesPerBeat: 13431.472081218275
    beatsPerMeasure: 3
    bStartNewMeasure: 1
  - sectionName: New Section
    startSample: 4676931
    samplesPerBeat: 13431.472081218275
    beatsPerMeasure: 3
    bStartNewMeasure: 1
  - sectionName: New Section
    startSample: 4840716
    samplesPerBeat: 13363.636363636364
    beatsPerMeasure: 3
    bStartNewMeasure: 1
  - sectionName: New Section
    startSample: 5403559
    samplesPerBeat: 13363.636363636364
    beatsPerMeasure: 3
    bStartNewMeasure: 1
  - sectionName: New Section
    startSample: 5685426
    samplesPerBeat: 13569.23076923077
    beatsPerMeasure: 3
    bStartNewMeasure: 1
  - sectionName: New Section
    startSample: 5807549
    samplesPerBeat: 13926.315789473685
    beatsPerMeasure: 3
    bStartNewMeasure: 1
  - sectionName: New Section
    startSample: 6031945
    samplesPerBeat: 13926.315789473685
    beatsPerMeasure: 3
    bStartNewMeasure: 1
  - sectionName: New Section
    startSample: 6059797
    samplesPerBeat: 13230
    beatsPerMeasure: 3
    bStartNewMeasure: 1
  - sectionName: New Section
    startSample: 6388287
    samplesPerBeat: 13500
    beatsPerMeasure: 3
    bStartNewMeasure: 1
  - sectionName: New Section
    startSample: 6713696
    samplesPerBeat: 13363.636363636364
    beatsPerMeasure: 3
    bStartNewMeasure: 1
  - sectionName: New Section
    startSample: 6959290
    samplesPerBeat: 13639.175257731958
    beatsPerMeasure: 3
    bStartNewMeasure: 1
  - sectionName: New Section
    startSample: 7121409
    samplesPerBeat: 13639.175257731958
    beatsPerMeasure: 3
    bStartNewMeasure: 1
  - sectionName: New Section
    startSample: 7162326
    samplesPerBeat: 13296.4824120603
    beatsPerMeasure: 3
    bStartNewMeasure: 1
  - sectionName: New Section
    startSample: 7442908
    samplesPerBeat: 13639.175257731958
    beatsPerMeasure: 3
    bStartNewMeasure: 1
  - sectionName: New Section
    startSample: 7565660
    samplesPerBeat: 13296.4824120603
    beatsPerMeasure: 3
    bStartNewMeasure: 1
  - sectionName: New Section
    startSample: 7725217
    samplesPerBeat: 13397.46835443038
    beatsPerMeasure: 3
    bStartNewMeasure: 1
  - sectionName: New Section
    startSample: 7845794
    samplesPerBeat: 13709.844559585492
    beatsPerMeasure: 3
    bStartNewMeasure: 1
  - sectionName: New Section
    startSample: 7967775
    samplesPerBeat: 13397.46835443038
    beatsPerMeasure: 3
    bStartNewMeasure: 1
  - sectionName: New Section
    startSample: 8619684
    samplesPerBeat: 13397.46835443038
    beatsPerMeasure: 3
    bStartNewMeasure: 1
  - sectionName: New Section
    startSample: 8863398
    samplesPerBeat: 13709.844559585492
    beatsPerMeasure: 3
    bStartNewMeasure: 1
  - sectionName: New Section
    startSample: 8945657
    samplesPerBeat: 13329.974811083124
    beatsPerMeasure: 3
    bStartNewMeasure: 1
  - sectionName: New Section
    startSample: 9192261
    samplesPerBeat: 13569.23076923077
    beatsPerMeasure: 3
    bStartNewMeasure: 1
  - sectionName: New Section
    startSample: 9558630
    samplesPerBeat: 12907.317073170732
    beatsPerMeasure: 3
    bStartNewMeasure: 1
  - sectionName: New Section
    startSample: 9782880
    samplesPerBeat: 12071.16788321168
    beatsPerMeasure: 3
    bStartNewMeasure: 1
  - sectionName: New Section
    startSample: 9927734
    samplesPerBeat: 11918.918918918918
    beatsPerMeasure: 3
    bStartNewMeasure: 1
  mTracks:
  - {fileID: 11400000, guid: 9be905d8ea3def949b56df5de652d962, type: 2}
  - {fileID: 11400000, guid: c4cecc1fa1a1c0b40a90a64648a7977a, type: 2}
