%YAML 1.1
%TAG !u! tag:unity3d.com,2011:
--- !u!114 &11400000
MonoBehaviour:
  m_ObjectHideFlags: 0
  m_PrefabParentObject: {fileID: 0}
  m_PrefabInternal: {fileID: 0}
  m_GameObject: {fileID: 0}
  m_Enabled: 1
  m_EditorHideFlags: 0
  m_Script: {fileID: -2076007791, guid: aa81bbec85a3f423193272a7c6154986, type: 3}
  m_Name: P43
  m_EditorClassIdentifier: 
  mSourceClip: {fileID: 8300000, guid: 628277037a2456e4c9c78a9fac054a62, type: 3}
  mAudioFilePath: 
  mSampleRate: 44100
  mIgnoreLatencyOffset: 0
  mTempoSections:
  - sectionName: New Section
    startSample: 0
    samplesPerBeat: 22050
    beatsPerMeasure: 4
    bStartNewMeasure: 1
  - sectionName: New Section
    startSample: 249000
    samplesPerBeat: 22142.25941422594
    beatsPerMeasure: 3
    bStartNewMeasure: 1
  - sectionName: New Section
    startSample: 778572
    samplesPerBeat: 22142.25941422594
    beatsPerMeasure: 3
    bStartNewMeasure: 1
  - sectionName: New Section
    startSample: 1175391
    samplesPerBeat: 22142.25941422594
    beatsPerMeasure: 3
    bStartNewMeasure: 1
  - sectionName: New Section
    startSample: 1307339
    samplesPerBeat: 22142.25941422594
    beatsPerMeasure: 3
    bStartNewMeasure: 1
  - sectionName: New Section
    startSample: 1836760
    samplesPerBeat: 22142.25941422594
    beatsPerMeasure: 3
    bStartNewMeasure: 1
  - sectionName: New Section
    startSample: 2299944
    samplesPerBeat: 22050
    beatsPerMeasure: 3
    bStartNewMeasure: 1
  - sectionName: New Section
    startSample: 3424494
    samplesPerBeat: 22050
    beatsPerMeasure: 3
    bStartNewMeasure: 1
  mTracks:
  - {fileID: 11400000, guid: 90197fbed0bb5444eafc21c626981e6a, type: 2}
  - {fileID: 11400000, guid: 880d61c7136a2384c9bf8fede847f967, type: 2}
