%YAML 1.1
%TAG !u! tag:unity3d.com,2011:
--- !u!114 &11400000
MonoBehaviour:
  m_ObjectHideFlags: 0
  m_PrefabParentObject: {fileID: 0}
  m_PrefabInternal: {fileID: 0}
  m_GameObject: {fileID: 0}
  m_Enabled: 1
  m_EditorHideFlags: 0
  m_Script: {fileID: -1223223985, guid: aa81bbec85a3f423193272a7c6154986, type: 3}
  m_Name: P22track
  m_EditorClassIdentifier: 
  mEventID: Note
  mEventList:
  - mStartSample: 18963
    mEndSample: 18963
  - mStartSample: 38829
    mEndSample: 38829
  - mStartSample: 61404
    mEndSample: 61404
  - mStartSample: 83076
    mEndSample: 83076
  - mStartSample: 112875
    mEndSample: 112875
  - mStartSample: 122507
    mEndSample: 122507
  - mStartSample: 132741
    mEndSample: 132741
  - mStartSample: 143878
    mEndSample: 143878
  - mStartSample: 173075
    mEndSample: 173075
  - mStartSample: 183309
    mEndSample: 183309
  - mStartSample: 192339
    mEndSample: 192339
  - mStartSample: 203175
    mEndSample: 203175
  - mStartSample: 290164
    mEndSample: 290164
  - mStartSample: 310408
    mEndSample: 310408
  - mStartSample: 332098
    mEndSample: 332098
  - mStartSample: 361018
    mEndSample: 361018
  - mStartSample: 371622
    mEndSample: 371622
  - mStartSample: 380780
    mEndSample: 380780
  - mStartSample: 393312
    mEndSample: 393312
  - mStartSample: 412110
    mEndSample: 412110
  - mStartSample: 429462
    mEndSample: 429462
  - mStartSample: 452598
    mEndSample: 452598
  - mStartSample: 516074
    mEndSample: 516074
  - mStartSample: 535210
    mEndSample: 535210
  - mStartSample: 558532
    mEndSample: 558532
  - mStartSample: 580658
    mEndSample: 580658
  - mStartSample: 609960
    mEndSample: 609960
  - mStartSample: 621322
    mEndSample: 621322
  - mStartSample: 630890
    mEndSample: 630890
  - mStartSample: 642252
    mEndSample: 642252
  - mStartSample: 661986
    mEndSample: 661986
  - mStartSample: 684710
    mEndSample: 684710
  - mStartSample: 702949
    mEndSample: 702949
  - mStartSample: 793845
    mEndSample: 793845
  - mStartSample: 813280
    mEndSample: 813280
  - mStartSample: 834808
    mEndSample: 834808
  - mStartSample: 862974
    mEndSample: 862974
  - mStartSample: 875070
    mEndSample: 875070
  - mStartSample: 884520
    mEndSample: 884520
  - mStartSample: 895860
    mEndSample: 895860
  - mStartSample: 915138
    mEndSample: 915138
  - mStartSample: 935928
    mEndSample: 935928
  - mStartSample: 957096
    mEndSample: 957096
  - mStartSample: 1039500
    mEndSample: 1039500
  - mStartSample: 1061046
    mEndSample: 1061046
  - mStartSample: 1083726
    mEndSample: 1083726
  - mStartSample: 1109052
    mEndSample: 1109052
  - mStartSample: 1120770
    mEndSample: 1120770
  - mStartSample: 1132866
    mEndSample: 1132866
  - mStartSample: 1141182
    mEndSample: 1141182
  - mStartSample: 1164240
    mEndSample: 1164240
  - mStartSample: 1182384
    mEndSample: 1182384
  - mStartSample: 1191834
    mEndSample: 1191834
  - mStartSample: 1204686
    mEndSample: 1204686
  - mStartSample: 1234926
    mEndSample: 1234926
  - mStartSample: 1243998
    mEndSample: 1243998
  - mStartSample: 1253070
    mEndSample: 1253070
  - mStartSample: 1264410
    mEndSample: 1264410
  - mStartSample: 1295028
    mEndSample: 1295028
  - mStartSample: 1306368
    mEndSample: 1306368
  - mStartSample: 1314306
    mEndSample: 1314306
  - mStartSample: 1326780
    mEndSample: 1326780
  - mStartSample: 1439046
    mEndSample: 1439046
  - mStartSample: 1463616
    mEndSample: 1463616
  - mStartSample: 1495368
    mEndSample: 1495368
  - mStartSample: 1504818
    mEndSample: 1504818
  - mStartSample: 1515024
    mEndSample: 1515024
  - mStartSample: 1527498
    mEndSample: 1527498
  - mStartSample: 1555470
    mEndSample: 1555470
  - mStartSample: 1565298
    mEndSample: 1565298
  - mStartSample: 1576260
    mEndSample: 1576260
  - mStartSample: 1586844
    mEndSample: 1586844
  - mStartSample: 1678320
    mEndSample: 1678320
  - mStartSample: 1696842
    mEndSample: 1696842
  - mStartSample: 1720278
    mEndSample: 1720278
  - mStartSample: 1752030
    mEndSample: 1752030
  - mStartSample: 1762992
    mEndSample: 1762992
  - mStartSample: 1771308
    mEndSample: 1771308
  - mStartSample: 1782270
    mEndSample: 1782270
  - mStartSample: 1803816
    mEndSample: 1803816
  - mStartSample: 1824984
    mEndSample: 1824984
  - mStartSample: 1845396
    mEndSample: 1845396
  - mStartSample: 1930068
    mEndSample: 1930068
  - mStartSample: 1951614
    mEndSample: 1951614
  - mStartSample: 1976184
    mEndSample: 1976184
  - mStartSample: 2005290
    mEndSample: 2005290
  - mStartSample: 2015118
    mEndSample: 2015118
  - mStartSample: 2025702
    mEndSample: 2025702
  - mStartSample: 2037798
    mEndSample: 2037798
  - mStartSample: 2100546
    mEndSample: 2100546
  - mStartSample: 2190510
    mEndSample: 2190510
  - mStartSample: 2212056
    mEndSample: 2212056
  - mStartSample: 2233224
    mEndSample: 2233224
  - mStartSample: 2265732
    mEndSample: 2265732
  - mStartSample: 2297484
    mEndSample: 2297484
  - mStartSample: 2331504
    mEndSample: 2331504
  - mStartSample: 2360232
    mEndSample: 2360232
  - mStartSample: 2474010
    mEndSample: 2474010
  - mStartSample: 2485728
    mEndSample: 2485728
  - mStartSample: 2495556
    mEndSample: 2495556
  - mStartSample: 2527308
    mEndSample: 2527308
  - mStartSample: 2535246
    mEndSample: 2535246
  - mStartSample: 2545452
    mEndSample: 2545452
  - mStartSample: 2557170
    mEndSample: 2557170
  - mStartSample: 2574558
    mEndSample: 2574558
  - mStartSample: 2596104
    mEndSample: 2596104
  - mStartSample: 2618028
    mEndSample: 2618028
  - mStartSample: 2665278
    mEndSample: 2665278
  - mStartSample: 2676618
    mEndSample: 2676618
  - mStartSample: 2718954
    mEndSample: 2718954
  - mStartSample: 2737476
    mEndSample: 2737476
  - mStartSample: 2770362
    mEndSample: 2770362
  - mStartSample: 2779812
    mEndSample: 2779812
  - mStartSample: 2802114
    mEndSample: 2802114
  - mStartSample: 2845584
    mEndSample: 2845584
  - mStartSample: 2872422
    mEndSample: 2872422
  - mStartSample: 2890188
    mEndSample: 2890188
  - mStartSample: 2915136
    mEndSample: 2915136
  - mStartSample: 2938572
    mEndSample: 2938572
  - mStartSample: 2964555
    mEndSample: 2964555
  - mStartSample: 2976957
    mEndSample: 2976957
  - mStartSample: 2989836
    mEndSample: 2989836
  - mStartSample: 2999853
    mEndSample: 2999853
  - mStartSample: 3019887
    mEndSample: 3019887
  - mStartSample: 3039444
    mEndSample: 3039444
  - mStartSample: 3059001
    mEndSample: 3059001
  - mStartSample: 3106224
    mEndSample: 3106224
  - mStartSample: 3116718
    mEndSample: 3116718
  - mStartSample: 3137706
    mEndSample: 3137706
  - mStartSample: 3158217
    mEndSample: 3158217
  - mStartSample: 3178728
    mEndSample: 3178728
  - mStartSample: 3225474
    mEndSample: 3225474
  - mStartSample: 3235491
    mEndSample: 3235491
  - mStartSample: 3256002
    mEndSample: 3256002
  - mStartSample: 3276036
    mEndSample: 3276036
  - mStartSample: 3297978
    mEndSample: 3297978
  - mStartSample: 3328506
    mEndSample: 3328506
  - mStartSample: 3339477
    mEndSample: 3339477
  - mStartSample: 3348063
    mEndSample: 3348063
  - mStartSample: 3359988
    mEndSample: 3359988
  - mStartSample: 3402918
    mEndSample: 3402918
  - mStartSample: 3425814
    mEndSample: 3425814
  - mStartSample: 3447279
    mEndSample: 3447279
  - mStartSample: 3471129
    mEndSample: 3471129
  - mStartSample: 3494025
    mEndSample: 3494025
  - mStartSample: 3534093
    mEndSample: 3534093
  - mStartSample: 3546018
    mEndSample: 3546018
  - mStartSample: 3558897
    mEndSample: 3558897
  - mStartSample: 3577023
    mEndSample: 3577023
  - mStartSample: 3608982
    mEndSample: 3608982
  - mStartSample: 3619953
    mEndSample: 3619953
  - mStartSample: 3649527
    mEndSample: 3649527
  - mStartSample: 3661929
    mEndSample: 3661929
  - mStartSample: 3671469
    mEndSample: 3671469
  - mStartSample: 3681963
    mEndSample: 3681963
  - mStartSample: 3712968
    mEndSample: 3712968
  - mStartSample: 3721554
    mEndSample: 3721554
  - mStartSample: 3732048
    mEndSample: 3732048
  - mStartSample: 3740634
    mEndSample: 3740634
  - mStartSample: 3782133
    mEndSample: 3782133
  - mStartSample: 3794058
    mEndSample: 3794058
  - mStartSample: 3802644
    mEndSample: 3802644
  - mStartSample: 3842235
    mEndSample: 3842235
  - mStartSample: 3852729
    mEndSample: 3852729
  - mStartSample: 3863223
    mEndSample: 3863223
  - mStartSample: 3904245
    mEndSample: 3904245
  - mStartSample: 3913785
    mEndSample: 3913785
  - mStartSample: 3925233
    mEndSample: 3925233
  - mStartSample: 3947175
    mEndSample: 3947175
  - mStartSample: 3964824
    mEndSample: 3964824
  - mStartSample: 3987243
    mEndSample: 3987243
  - mStartSample: 4047822
    mEndSample: 4047822
  - mStartSample: 4095045
    mEndSample: 4095045
  - mStartSample: 4105539
    mEndSample: 4105539
  - mStartSample: 4118895
    mEndSample: 4118895
  - mStartSample: 4147992
    mEndSample: 4147992
  - mStartSample: 4158486
    mEndSample: 4158486
  - mStartSample: 4168980
    mEndSample: 4168980
  - mStartSample: 4179474
    mEndSample: 4179474
  - mStartSample: 4197600
    mEndSample: 4197600
  - mStartSample: 4217634
    mEndSample: 4217634
  - mStartSample: 4237191
    mEndSample: 4237191
  - mStartSample: 4286322
    mEndSample: 4286322
  - mStartSample: 4297770
    mEndSample: 4297770
  - mStartSample: 4316850
    mEndSample: 4316850
  - mStartSample: 4339269
    mEndSample: 4339269
  - mStartSample: 4359780
    mEndSample: 4359780
  - mStartSample: 4417020
    mEndSample: 4417020
  - mStartSample: 4438962
    mEndSample: 4438962
  - mStartSample: 4465197
    mEndSample: 4465197
  - mStartSample: 4485231
    mEndSample: 4485231
  - mStartSample: 4510035
    mEndSample: 4510035
  - mStartSample: 4536747
    mEndSample: 4536747
  - mStartSample: 4563936
    mEndSample: 4563936
  - mStartSample: 4624992
    mEndSample: 4624992
  - mStartSample: 4673646
    mEndSample: 4673646
  - mStartSample: 4740426
    mEndSample: 4740426
  - mStartSample: 4795758
    mEndSample: 4795758
  _SerializedPayloadTypes: []
  _AssetPayloads: []
  _AssetPayloadIdxs: 
  _ColorPayloads: []
  _ColorPayloadIdxs: 
  _CurvePayloads: []
  _CurvePayloadIdxs: 
  _FloatPayloads: []
  _FloatPayloadIdxs: 
  _GradientPayloads: []
  _GradientPayloadIdxs: 
  _IntPayloads: []
  _IntPayloadIdxs: 
  _SpectrumPayloads: []
  _SpectrumPayloadIdxs: 
  _TextPayloads: []
  _TextPayloadIdxs: 
