%YAML 1.1
%TAG !u! tag:unity3d.com,2011:
--- !u!114 &11400000
MonoBehaviour:
  m_ObjectHideFlags: 0
  m_PrefabParentObject: {fileID: 0}
  m_PrefabInternal: {fileID: 0}
  m_GameObject: {fileID: 0}
  m_Enabled: 1
  m_EditorHideFlags: 0
  m_Script: {fileID: -1223223985, guid: aa81bbec85a3f423193272a7c6154986, type: 3}
  m_Name: P07track
  m_EditorClassIdentifier: 
  mEventID: Note
  mEventList:
  - mStartSample: 92380
    mEndSample: 92380
  - mStartSample: 104407
    mEndSample: 104407
  - mStartSample: 110420
    mEndSample: 110420
  - mStartSample: 116434
    mEndSample: 116434
  - mStartSample: 128461
    mEndSample: 128461
  - mStartSample: 140489
    mEndSample: 140489
  - mStartSample: 152516
    mEndSample: 152516
  - mStartSample: 158530
    mEndSample: 158530
  - mStartSample: 164543
    mEndSample: 164543
  - mStartSample: 176570
    mEndSample: 176570
  - mStartSample: 188598
    mEndSample: 188598
  - mStartSample: 200625
    mEndSample: 200625
  - mStartSample: 206638
    mEndSample: 206638
  - mStartSample: 212652
    mEndSample: 212652
  - mStartSample: 224679
    mEndSample: 224679
  - mStartSample: 236707
    mEndSample: 236707
  - mStartSample: 248734
    mEndSample: 248734
  - mStartSample: 254748
    mEndSample: 254748
  - mStartSample: 260761
    mEndSample: 260761
  - mStartSample: 272788
    mEndSample: 272788
  - mStartSample: 284816
    mEndSample: 284816
  - mStartSample: 296843
    mEndSample: 296843
  - mStartSample: 302856
    mEndSample: 302856
  - mStartSample: 308870
    mEndSample: 308870
  - mStartSample: 320897
    mEndSample: 320897
  - mStartSample: 332925
    mEndSample: 332925
  - mStartSample: 344952
    mEndSample: 344952
  - mStartSample: 350966
    mEndSample: 350966
  - mStartSample: 356979
    mEndSample: 356979
  - mStartSample: 369006
    mEndSample: 369006
  - mStartSample: 381034
    mEndSample: 381034
  - mStartSample: 387048
    mEndSample: 387048
  - mStartSample: 393061
    mEndSample: 393061
  - mStartSample: 399074
    mEndSample: 399074
  - mStartSample: 405088
    mEndSample: 405088
  - mStartSample: 411102
    mEndSample: 411102
  - mStartSample: 417115
    mEndSample: 417115
  - mStartSample: 423130
    mEndSample: 423130
  - mStartSample: 429143
    mEndSample: 429143
  - mStartSample: 435157
    mEndSample: 435157
  - mStartSample: 441170
    mEndSample: 441170
  - mStartSample: 447184
    mEndSample: 447184
  - mStartSample: 453197
    mEndSample: 453197
  - mStartSample: 459211
    mEndSample: 459211
  - mStartSample: 465224
    mEndSample: 465224
  - mStartSample: 471239
    mEndSample: 471239
  - mStartSample: 477252
    mEndSample: 477252
  - mStartSample: 489279
    mEndSample: 489279
  - mStartSample: 495292
    mEndSample: 495292
  - mStartSample: 501306
    mEndSample: 501306
  - mStartSample: 513333
    mEndSample: 513333
  - mStartSample: 525361
    mEndSample: 525361
  - mStartSample: 537388
    mEndSample: 537388
  - mStartSample: 543402
    mEndSample: 543402
  - mStartSample: 549415
    mEndSample: 549415
  - mStartSample: 561442
    mEndSample: 561442
  - mStartSample: 573470
    mEndSample: 573470
  - mStartSample: 585497
    mEndSample: 585497
  - mStartSample: 591510
    mEndSample: 591510
  - mStartSample: 597524
    mEndSample: 597524
  - mStartSample: 609551
    mEndSample: 609551
  - mStartSample: 621579
    mEndSample: 621579
  - mStartSample: 633606
    mEndSample: 633606
  - mStartSample: 639620
    mEndSample: 639620
  - mStartSample: 645633
    mEndSample: 645633
  - mStartSample: 657660
    mEndSample: 657660
  - mStartSample: 669689
    mEndSample: 669689
  - mStartSample: 681716
    mEndSample: 681716
  - mStartSample: 687729
    mEndSample: 687729
  - mStartSample: 693743
    mEndSample: 693743
  - mStartSample: 705770
    mEndSample: 705770
  - mStartSample: 717798
    mEndSample: 717798
  - mStartSample: 729825
    mEndSample: 729825
  - mStartSample: 735839
    mEndSample: 735839
  - mStartSample: 741852
    mEndSample: 741852
  - mStartSample: 753879
    mEndSample: 753879
  - mStartSample: 765907
    mEndSample: 765907
  - mStartSample: 771920
    mEndSample: 771920
  - mStartSample: 777934
    mEndSample: 777934
  - mStartSample: 783947
    mEndSample: 783947
  - mStartSample: 789961
    mEndSample: 789961
  - mStartSample: 795975
    mEndSample: 795975
  - mStartSample: 801988
    mEndSample: 801988
  - mStartSample: 801989
    mEndSample: 801989
  - mStartSample: 808002
    mEndSample: 808002
  - mStartSample: 814016
    mEndSample: 814016
  - mStartSample: 820030
    mEndSample: 820030
  - mStartSample: 826043
    mEndSample: 826043
  - mStartSample: 832057
    mEndSample: 832057
  - mStartSample: 838070
    mEndSample: 838070
  - mStartSample: 850097
    mEndSample: 850097
  - mStartSample: 862125
    mEndSample: 862125
  - mStartSample: 874152
    mEndSample: 874152
  - mStartSample: 880166
    mEndSample: 880166
  - mStartSample: 886180
    mEndSample: 886180
  - mStartSample: 898207
    mEndSample: 898207
  - mStartSample: 910234
    mEndSample: 910234
  - mStartSample: 922261
    mEndSample: 922261
  - mStartSample: 934289
    mEndSample: 934289
  - mStartSample: 952330
    mEndSample: 952330
  - mStartSample: 958343
    mEndSample: 958343
  - mStartSample: 970370
    mEndSample: 970370
  - mStartSample: 976384
    mEndSample: 976384
  - mStartSample: 982398
    mEndSample: 982398
  - mStartSample: 994425
    mEndSample: 994425
  - mStartSample: 1006452
    mEndSample: 1006452
  - mStartSample: 1018480
    mEndSample: 1018480
  - mStartSample: 1030507
    mEndSample: 1030507
  - mStartSample: 1048548
    mEndSample: 1048548
  - mStartSample: 1054561
    mEndSample: 1054561
  - mStartSample: 1066589
    mEndSample: 1066589
  - mStartSample: 1072602
    mEndSample: 1072602
  - mStartSample: 1078616
    mEndSample: 1078616
  - mStartSample: 1090643
    mEndSample: 1090643
  - mStartSample: 1102670
    mEndSample: 1102670
  - mStartSample: 1114698
    mEndSample: 1114698
  - mStartSample: 1126725
    mEndSample: 1126725
  - mStartSample: 1138752
    mEndSample: 1138752
  - mStartSample: 1144766
    mEndSample: 1144766
  - mStartSample: 1150780
    mEndSample: 1150780
  - mStartSample: 1162806
    mEndSample: 1162806
  - mStartSample: 1174834
    mEndSample: 1174834
  - mStartSample: 1186861
    mEndSample: 1186861
  - mStartSample: 1192875
    mEndSample: 1192875
  - mStartSample: 1198888
    mEndSample: 1198888
  - mStartSample: 1222943
    mEndSample: 1222943
  - mStartSample: 1246997
    mEndSample: 1246997
  - mStartSample: 1259024
    mEndSample: 1259024
  - mStartSample: 1265038
    mEndSample: 1265038
  - mStartSample: 1271052
    mEndSample: 1271052
  - mStartSample: 1283079
    mEndSample: 1283079
  - mStartSample: 1295106
    mEndSample: 1295106
  - mStartSample: 1307133
    mEndSample: 1307133
  - mStartSample: 1319161
    mEndSample: 1319161
  - mStartSample: 1337202
    mEndSample: 1337202
  - mStartSample: 1343215
    mEndSample: 1343215
  - mStartSample: 1355242
    mEndSample: 1355242
  - mStartSample: 1361256
    mEndSample: 1361256
  - mStartSample: 1367270
    mEndSample: 1367270
  - mStartSample: 1379297
    mEndSample: 1379297
  - mStartSample: 1391324
    mEndSample: 1391324
  - mStartSample: 1403352
    mEndSample: 1403352
  - mStartSample: 1415379
    mEndSample: 1415379
  - mStartSample: 1433420
    mEndSample: 1433420
  - mStartSample: 1439433
    mEndSample: 1439433
  - mStartSample: 1451461
    mEndSample: 1451461
  - mStartSample: 1457474
    mEndSample: 1457474
  - mStartSample: 1463488
    mEndSample: 1463488
  - mStartSample: 1475515
    mEndSample: 1475515
  - mStartSample: 1487542
    mEndSample: 1487542
  - mStartSample: 1499570
    mEndSample: 1499570
  - mStartSample: 1511597
    mEndSample: 1511597
  - mStartSample: 1535652
    mEndSample: 1535652
  - mStartSample: 1547678
    mEndSample: 1547678
  - mStartSample: 1553693
    mEndSample: 1553693
  - mStartSample: 1559706
    mEndSample: 1559706
  - mStartSample: 1571733
    mEndSample: 1571733
  - mStartSample: 1583760
    mEndSample: 1583760
  - mStartSample: 1619843
    mEndSample: 1619843
  - mStartSample: 1625856
    mEndSample: 1625856
  - mStartSample: 1631870
    mEndSample: 1631870
  - mStartSample: 1643897
    mEndSample: 1643897
  - mStartSample: 1649910
    mEndSample: 1649910
  - mStartSample: 1655924
    mEndSample: 1655924
  - mStartSample: 1667951
    mEndSample: 1667951
  - mStartSample: 1673965
    mEndSample: 1673965
  - mStartSample: 1679979
    mEndSample: 1679979
  - mStartSample: 1692006
    mEndSample: 1692006
  - mStartSample: 1698020
    mEndSample: 1698020
  - mStartSample: 1704033
    mEndSample: 1704033
  - mStartSample: 1716060
    mEndSample: 1716060
  - mStartSample: 1722074
    mEndSample: 1722074
  - mStartSample: 1728088
    mEndSample: 1728088
  - mStartSample: 1740115
    mEndSample: 1740115
  - mStartSample: 1746129
    mEndSample: 1746129
  - mStartSample: 1752142
    mEndSample: 1752142
  - mStartSample: 1752143
    mEndSample: 1752143
  - mStartSample: 1758156
    mEndSample: 1758156
  - mStartSample: 1764170
    mEndSample: 1764170
  - mStartSample: 1770183
    mEndSample: 1770183
  - mStartSample: 1776197
    mEndSample: 1776197
  - mStartSample: 1788224
    mEndSample: 1788224
  - mStartSample: 1800251
    mEndSample: 1800251
  - mStartSample: 1812279
    mEndSample: 1812279
  - mStartSample: 1818292
    mEndSample: 1818292
  - mStartSample: 1824306
    mEndSample: 1824306
  - mStartSample: 1836333
    mEndSample: 1836333
  - mStartSample: 1842346
    mEndSample: 1842346
  - mStartSample: 1848360
    mEndSample: 1848360
  - mStartSample: 1860387
    mEndSample: 1860387
  - mStartSample: 1866401
    mEndSample: 1866401
  - mStartSample: 1872415
    mEndSample: 1872415
  - mStartSample: 1884442
    mEndSample: 1884442
  - mStartSample: 1890456
    mEndSample: 1890456
  - mStartSample: 1896469
    mEndSample: 1896469
  - mStartSample: 1908496
    mEndSample: 1908496
  - mStartSample: 1914510
    mEndSample: 1914510
  - mStartSample: 1920524
    mEndSample: 1920524
  - mStartSample: 1932551
    mEndSample: 1932551
  - mStartSample: 1938565
    mEndSample: 1938565
  - mStartSample: 1944578
    mEndSample: 1944578
  - mStartSample: 1950593
    mEndSample: 1950593
  - mStartSample: 1956606
    mEndSample: 1956606
  - mStartSample: 1962619
    mEndSample: 1962619
  - mStartSample: 1968633
    mEndSample: 1968633
  - mStartSample: 1980660
    mEndSample: 1980660
  - mStartSample: 1992687
    mEndSample: 1992687
  - mStartSample: 2004715
    mEndSample: 2004715
  - mStartSample: 2010728
    mEndSample: 2010728
  - mStartSample: 2016742
    mEndSample: 2016742
  - mStartSample: 2028769
    mEndSample: 2028769
  - mStartSample: 2034782
    mEndSample: 2034782
  - mStartSample: 2040796
    mEndSample: 2040796
  - mStartSample: 2052823
    mEndSample: 2052823
  - mStartSample: 2058837
    mEndSample: 2058837
  - mStartSample: 2064851
    mEndSample: 2064851
  - mStartSample: 2076878
    mEndSample: 2076878
  - mStartSample: 2082892
    mEndSample: 2082892
  - mStartSample: 2088905
    mEndSample: 2088905
  - mStartSample: 2100932
    mEndSample: 2100932
  - mStartSample: 2106946
    mEndSample: 2106946
  - mStartSample: 2112960
    mEndSample: 2112960
  - mStartSample: 2124987
    mEndSample: 2124987
  - mStartSample: 2131001
    mEndSample: 2131001
  - mStartSample: 2137014
    mEndSample: 2137014
  - mStartSample: 2143029
    mEndSample: 2143029
  - mStartSample: 2149042
    mEndSample: 2149042
  - mStartSample: 2155055
    mEndSample: 2155055
  - mStartSample: 2161069
    mEndSample: 2161069
  - mStartSample: 2173096
    mEndSample: 2173096
  - mStartSample: 2185123
    mEndSample: 2185123
  - mStartSample: 2197151
    mEndSample: 2197151
  - mStartSample: 2209178
    mEndSample: 2209178
  - mStartSample: 2221205
    mEndSample: 2221205
  - mStartSample: 2227218
    mEndSample: 2227218
  - mStartSample: 2233232
    mEndSample: 2233232
  - mStartSample: 2245259
    mEndSample: 2245259
  - mStartSample: 2251273
    mEndSample: 2251273
  - mStartSample: 2257287
    mEndSample: 2257287
  - mStartSample: 2269314
    mEndSample: 2269314
  - mStartSample: 2275328
    mEndSample: 2275328
  - mStartSample: 2281341
    mEndSample: 2281341
  - mStartSample: 2293368
    mEndSample: 2293368
  - mStartSample: 2299382
    mEndSample: 2299382
  - mStartSample: 2305396
    mEndSample: 2305396
  - mStartSample: 2311410
    mEndSample: 2311410
  - mStartSample: 2317423
    mEndSample: 2317423
  - mStartSample: 2323437
    mEndSample: 2323437
  - mStartSample: 2329450
    mEndSample: 2329450
  - mStartSample: 2335465
    mEndSample: 2335465
  - mStartSample: 2341478
    mEndSample: 2341478
  - mStartSample: 2347491
    mEndSample: 2347491
  - mStartSample: 2353505
    mEndSample: 2353505
  - mStartSample: 2365532
    mEndSample: 2365532
  - mStartSample: 2377559
    mEndSample: 2377559
  - mStartSample: 2401615
    mEndSample: 2401615
  - mStartSample: 2407628
    mEndSample: 2407628
  - mStartSample: 2413642
    mEndSample: 2413642
  - mStartSample: 2419655
    mEndSample: 2419655
  - mStartSample: 2425669
    mEndSample: 2425669
  - mStartSample: 2431683
    mEndSample: 2431683
  - mStartSample: 2437696
    mEndSample: 2437696
  - mStartSample: 2443710
    mEndSample: 2443710
  - mStartSample: 2449724
    mEndSample: 2449724
  - mStartSample: 2461751
    mEndSample: 2461751
  - mStartSample: 2473778
    mEndSample: 2473778
  - mStartSample: 2497833
    mEndSample: 2497833
  - mStartSample: 2503846
    mEndSample: 2503846
  - mStartSample: 2509860
    mEndSample: 2509860
  - mStartSample: 2515874
    mEndSample: 2515874
  - mStartSample: 2521887
    mEndSample: 2521887
  - mStartSample: 2527901
    mEndSample: 2527901
  - mStartSample: 2533915
    mEndSample: 2533915
  - mStartSample: 2539928
    mEndSample: 2539928
  - mStartSample: 2545942
    mEndSample: 2545942
  - mStartSample: 2594051
    mEndSample: 2594051
  - mStartSample: 2600065
    mEndSample: 2600065
  - mStartSample: 2606078
    mEndSample: 2606078
  - mStartSample: 2612092
    mEndSample: 2612092
  - mStartSample: 2618105
    mEndSample: 2618105
  - mStartSample: 2624119
    mEndSample: 2624119
  - mStartSample: 2630133
    mEndSample: 2630133
  - mStartSample: 2636146
    mEndSample: 2636146
  - mStartSample: 2642160
    mEndSample: 2642160
  - mStartSample: 2654187
    mEndSample: 2654187
  - mStartSample: 2666215
    mEndSample: 2666215
  - mStartSample: 2690269
    mEndSample: 2690269
  - mStartSample: 2696283
    mEndSample: 2696283
  - mStartSample: 2702296
    mEndSample: 2702296
  - mStartSample: 2708310
    mEndSample: 2708310
  - mStartSample: 2714324
    mEndSample: 2714324
  - mStartSample: 2720337
    mEndSample: 2720337
  - mStartSample: 2726351
    mEndSample: 2726351
  - mStartSample: 2732365
    mEndSample: 2732365
  - mStartSample: 2738378
    mEndSample: 2738378
  - mStartSample: 2786487
    mEndSample: 2786487
  - mStartSample: 2798514
    mEndSample: 2798514
  - mStartSample: 2804528
    mEndSample: 2804528
  - mStartSample: 2810542
    mEndSample: 2810542
  - mStartSample: 2822569
    mEndSample: 2822569
  - mStartSample: 2834596
    mEndSample: 2834596
  - mStartSample: 2846623
    mEndSample: 2846623
  - mStartSample: 2858651
    mEndSample: 2858651
  - mStartSample: 2876692
    mEndSample: 2876692
  - mStartSample: 2882705
    mEndSample: 2882705
  - mStartSample: 2894732
    mEndSample: 2894732
  - mStartSample: 2900746
    mEndSample: 2900746
  - mStartSample: 2906760
    mEndSample: 2906760
  - mStartSample: 2918787
    mEndSample: 2918787
  - mStartSample: 2930814
    mEndSample: 2930814
  - mStartSample: 2942842
    mEndSample: 2942842
  - mStartSample: 2954869
    mEndSample: 2954869
  - mStartSample: 2972910
    mEndSample: 2972910
  - mStartSample: 2978923
    mEndSample: 2978923
  - mStartSample: 2990951
    mEndSample: 2990951
  - mStartSample: 2996964
    mEndSample: 2996964
  - mStartSample: 3002978
    mEndSample: 3002978
  - mStartSample: 3015005
    mEndSample: 3015005
  - mStartSample: 3027032
    mEndSample: 3027032
  - mStartSample: 3039060
    mEndSample: 3039060
  - mStartSample: 3051087
    mEndSample: 3051087
  - mStartSample: 3063114
    mEndSample: 3063114
  - mStartSample: 3069128
    mEndSample: 3069128
  - mStartSample: 3075142
    mEndSample: 3075142
  - mStartSample: 3087168
    mEndSample: 3087168
  - mStartSample: 3099196
    mEndSample: 3099196
  - mStartSample: 3111223
    mEndSample: 3111223
  - mStartSample: 3117237
    mEndSample: 3117237
  - mStartSample: 3123250
    mEndSample: 3123250
  - mStartSample: 3135277
    mEndSample: 3135277
  - mStartSample: 3147305
    mEndSample: 3147305
  - mStartSample: 3159332
    mEndSample: 3159332
  - mStartSample: 3171359
    mEndSample: 3171359
  - mStartSample: 3183386
    mEndSample: 3183386
  - mStartSample: 3189400
    mEndSample: 3189400
  - mStartSample: 3195414
    mEndSample: 3195414
  - mStartSample: 3207441
    mEndSample: 3207441
  - mStartSample: 3219468
    mEndSample: 3219468
  - mStartSample: 3231495
    mEndSample: 3231495
  - mStartSample: 3243523
    mEndSample: 3243523
  - mStartSample: 3261564
    mEndSample: 3261564
  - mStartSample: 3267577
    mEndSample: 3267577
  - mStartSample: 3279604
    mEndSample: 3279604
  - mStartSample: 3285618
    mEndSample: 3285618
  - mStartSample: 3291632
    mEndSample: 3291632
  - mStartSample: 3303659
    mEndSample: 3303659
  - mStartSample: 3315686
    mEndSample: 3315686
  - mStartSample: 3327714
    mEndSample: 3327714
  - mStartSample: 3339741
    mEndSample: 3339741
  - mStartSample: 3357782
    mEndSample: 3357782
  - mStartSample: 3363795
    mEndSample: 3363795
  - mStartSample: 3375823
    mEndSample: 3375823
  - mStartSample: 3381836
    mEndSample: 3381836
  - mStartSample: 3387850
    mEndSample: 3387850
  - mStartSample: 3399877
    mEndSample: 3399877
  - mStartSample: 3411904
    mEndSample: 3411904
  - mStartSample: 3423932
    mEndSample: 3423932
  - mStartSample: 3435959
    mEndSample: 3435959
  - mStartSample: 3460014
    mEndSample: 3460014
  - mStartSample: 3472040
    mEndSample: 3472040
  - mStartSample: 3478055
    mEndSample: 3478055
  - mStartSample: 3484068
    mEndSample: 3484068
  - mStartSample: 3496095
    mEndSample: 3496095
  - mStartSample: 3508122
    mEndSample: 3508122
  - mStartSample: 3544205
    mEndSample: 3544205
  - mStartSample: 3550218
    mEndSample: 3550218
  - mStartSample: 3556232
    mEndSample: 3556232
  - mStartSample: 3568259
    mEndSample: 3568259
  - mStartSample: 3574272
    mEndSample: 3574272
  - mStartSample: 3580286
    mEndSample: 3580286
  - mStartSample: 3592313
    mEndSample: 3592313
  - mStartSample: 3598327
    mEndSample: 3598327
  - mStartSample: 3604341
    mEndSample: 3604341
  - mStartSample: 3616368
    mEndSample: 3616368
  - mStartSample: 3622382
    mEndSample: 3622382
  - mStartSample: 3628395
    mEndSample: 3628395
  - mStartSample: 3640422
    mEndSample: 3640422
  - mStartSample: 3646436
    mEndSample: 3646436
  - mStartSample: 3652450
    mEndSample: 3652450
  - mStartSample: 3664477
    mEndSample: 3664477
  - mStartSample: 3670491
    mEndSample: 3670491
  - mStartSample: 3676504
    mEndSample: 3676504
  - mStartSample: 3676505
    mEndSample: 3676505
  - mStartSample: 3682518
    mEndSample: 3682518
  - mStartSample: 3688532
    mEndSample: 3688532
  - mStartSample: 3694545
    mEndSample: 3694545
  - mStartSample: 3700559
    mEndSample: 3700559
  - mStartSample: 3712586
    mEndSample: 3712586
  - mStartSample: 3724613
    mEndSample: 3724613
  - mStartSample: 3736641
    mEndSample: 3736641
  - mStartSample: 3742654
    mEndSample: 3742654
  - mStartSample: 3748668
    mEndSample: 3748668
  - mStartSample: 3760695
    mEndSample: 3760695
  - mStartSample: 3766708
    mEndSample: 3766708
  - mStartSample: 3772722
    mEndSample: 3772722
  - mStartSample: 3784749
    mEndSample: 3784749
  - mStartSample: 3790763
    mEndSample: 3790763
  - mStartSample: 3796777
    mEndSample: 3796777
  - mStartSample: 3808804
    mEndSample: 3808804
  - mStartSample: 3814818
    mEndSample: 3814818
  - mStartSample: 3820831
    mEndSample: 3820831
  - mStartSample: 3832858
    mEndSample: 3832858
  - mStartSample: 3838872
    mEndSample: 3838872
  - mStartSample: 3844886
    mEndSample: 3844886
  - mStartSample: 3856913
    mEndSample: 3856913
  - mStartSample: 3862927
    mEndSample: 3862927
  - mStartSample: 3868940
    mEndSample: 3868940
  - mStartSample: 3874955
    mEndSample: 3874955
  - mStartSample: 3880968
    mEndSample: 3880968
  - mStartSample: 3886981
    mEndSample: 3886981
  - mStartSample: 3892995
    mEndSample: 3892995
  - mStartSample: 3905022
    mEndSample: 3905022
  - mStartSample: 3917049
    mEndSample: 3917049
  - mStartSample: 3929077
    mEndSample: 3929077
  - mStartSample: 3935090
    mEndSample: 3935090
  - mStartSample: 3941104
    mEndSample: 3941104
  - mStartSample: 3953131
    mEndSample: 3953131
  - mStartSample: 3959144
    mEndSample: 3959144
  - mStartSample: 3965158
    mEndSample: 3965158
  - mStartSample: 3977185
    mEndSample: 3977185
  - mStartSample: 3983199
    mEndSample: 3983199
  - mStartSample: 3989213
    mEndSample: 3989213
  - mStartSample: 4001240
    mEndSample: 4001240
  - mStartSample: 4007254
    mEndSample: 4007254
  - mStartSample: 4013267
    mEndSample: 4013267
  - mStartSample: 4025294
    mEndSample: 4025294
  - mStartSample: 4031308
    mEndSample: 4031308
  - mStartSample: 4037322
    mEndSample: 4037322
  - mStartSample: 4049349
    mEndSample: 4049349
  - mStartSample: 4055363
    mEndSample: 4055363
  - mStartSample: 4061376
    mEndSample: 4061376
  - mStartSample: 4067391
    mEndSample: 4067391
  - mStartSample: 4073404
    mEndSample: 4073404
  - mStartSample: 4079417
    mEndSample: 4079417
  - mStartSample: 4085431
    mEndSample: 4085431
  - mStartSample: 4097458
    mEndSample: 4097458
  - mStartSample: 4109485
    mEndSample: 4109485
  - mStartSample: 4121513
    mEndSample: 4121513
  - mStartSample: 4133540
    mEndSample: 4133540
  - mStartSample: 4145567
    mEndSample: 4145567
  - mStartSample: 4151580
    mEndSample: 4151580
  - mStartSample: 4157594
    mEndSample: 4157594
  - mStartSample: 4169621
    mEndSample: 4169621
  - mStartSample: 4175635
    mEndSample: 4175635
  - mStartSample: 4181649
    mEndSample: 4181649
  - mStartSample: 4193676
    mEndSample: 4193676
  - mStartSample: 4199690
    mEndSample: 4199690
  - mStartSample: 4205703
    mEndSample: 4205703
  - mStartSample: 4217730
    mEndSample: 4217730
  - mStartSample: 4223744
    mEndSample: 4223744
  - mStartSample: 4229758
    mEndSample: 4229758
  - mStartSample: 4235772
    mEndSample: 4235772
  - mStartSample: 4241785
    mEndSample: 4241785
  - mStartSample: 4247799
    mEndSample: 4247799
  - mStartSample: 4253812
    mEndSample: 4253812
  - mStartSample: 4259827
    mEndSample: 4259827
  - mStartSample: 4265840
    mEndSample: 4265840
  - mStartSample: 4271853
    mEndSample: 4271853
  - mStartSample: 4277867
    mEndSample: 4277867
  - mStartSample: 4289894
    mEndSample: 4289894
  - mStartSample: 4301921
    mEndSample: 4301921
  - mStartSample: 4313950
    mEndSample: 4313950
  - mStartSample: 4319964
    mEndSample: 4319964
  - mStartSample: 4325977
    mEndSample: 4325977
  - mStartSample: 4410167
    mEndSample: 4410167
  - mStartSample: 4416181
    mEndSample: 4416181
  - mStartSample: 4422195
    mEndSample: 4422195
  - mStartSample: 4458277
    mEndSample: 4458277
  - mStartSample: 4464290
    mEndSample: 4464290
  - mStartSample: 4470304
    mEndSample: 4470304
  - mStartSample: 4506386
    mEndSample: 4506386
  - mStartSample: 4512399
    mEndSample: 4512399
  - mStartSample: 4518413
    mEndSample: 4518413
  - mStartSample: 4554495
    mEndSample: 4554495
  - mStartSample: 4560508
    mEndSample: 4560508
  - mStartSample: 4566522
    mEndSample: 4566522
  - mStartSample: 4602604
    mEndSample: 4602604
  - mStartSample: 4608617
    mEndSample: 4608617
  - mStartSample: 4614631
    mEndSample: 4614631
  - mStartSample: 4650713
    mEndSample: 4650713
  - mStartSample: 4656727
    mEndSample: 4656727
  - mStartSample: 4662740
    mEndSample: 4662740
  - mStartSample: 4698822
    mEndSample: 4698822
  - mStartSample: 4704836
    mEndSample: 4704836
  - mStartSample: 4710849
    mEndSample: 4710849
  - mStartSample: 4746931
    mEndSample: 4746931
  - mStartSample: 4752945
    mEndSample: 4752945
  - mStartSample: 4758958
    mEndSample: 4758958
  - mStartSample: 4783013
    mEndSample: 4783013
  - mStartSample: 4807067
    mEndSample: 4807067
  - mStartSample: 4831122
    mEndSample: 4831122
  - mStartSample: 4855177
    mEndSample: 4855177
  - mStartSample: 4879231
    mEndSample: 4879231
  - mStartSample: 4903286
    mEndSample: 4903286
  - mStartSample: 4927340
    mEndSample: 4927340
  - mStartSample: 4951395
    mEndSample: 4951395
  - mStartSample: 4975449
    mEndSample: 4975449
  - mStartSample: 4999504
    mEndSample: 4999504
  - mStartSample: 5023558
    mEndSample: 5023558
  - mStartSample: 5047613
    mEndSample: 5047613
  - mStartSample: 5071667
    mEndSample: 5071667
  - mStartSample: 5089708
    mEndSample: 5089708
  - mStartSample: 5095722
    mEndSample: 5095722
  - mStartSample: 5119777
    mEndSample: 5119777
  - mStartSample: 5143831
    mEndSample: 5143831
  - mStartSample: 5167886
    mEndSample: 5167886
  - mStartSample: 5191940
    mEndSample: 5191940
  - mStartSample: 5215995
    mEndSample: 5215995
  - mStartSample: 5240049
    mEndSample: 5240049
  - mStartSample: 5264104
    mEndSample: 5264104
  - mStartSample: 5282145
    mEndSample: 5282145
  - mStartSample: 5288159
    mEndSample: 5288159
  - mStartSample: 5312213
    mEndSample: 5312213
  - mStartSample: 5336267
    mEndSample: 5336267
  - mStartSample: 5360322
    mEndSample: 5360322
  - mStartSample: 5378363
    mEndSample: 5378363
  - mStartSample: 5384377
    mEndSample: 5384377
  - mStartSample: 5408431
    mEndSample: 5408431
  - mStartSample: 5432486
    mEndSample: 5432486
  - mStartSample: 5456540
    mEndSample: 5456540
  - mStartSample: 5480595
    mEndSample: 5480595
  - mStartSample: 5492622
    mEndSample: 5492622
  - mStartSample: 5498636
    mEndSample: 5498636
  - mStartSample: 5504649
    mEndSample: 5504649
  - mStartSample: 5516677
    mEndSample: 5516677
  - mStartSample: 5528704
    mEndSample: 5528704
  - mStartSample: 5534717
    mEndSample: 5534717
  - mStartSample: 5540731
    mEndSample: 5540731
  - mStartSample: 5546745
    mEndSample: 5546745
  - mStartSample: 5552758
    mEndSample: 5552758
  - mStartSample: 5570799
    mEndSample: 5570799
  - mStartSample: 5576813
    mEndSample: 5576813
  - mStartSample: 5588840
    mEndSample: 5588840
  - mStartSample: 5594854
    mEndSample: 5594854
  - mStartSample: 5600867
    mEndSample: 5600867
  - mStartSample: 5612895
    mEndSample: 5612895
  - mStartSample: 5624922
    mEndSample: 5624922
  - mStartSample: 5636949
    mEndSample: 5636949
  - mStartSample: 5648977
    mEndSample: 5648977
  - mStartSample: 5667017
    mEndSample: 5667017
  - mStartSample: 5673031
    mEndSample: 5673031
  - mStartSample: 5685058
    mEndSample: 5685058
  - mStartSample: 5691072
    mEndSample: 5691072
  - mStartSample: 5697086
    mEndSample: 5697086
  - mStartSample: 5709113
    mEndSample: 5709113
  - mStartSample: 5721140
    mEndSample: 5721140
  - mStartSample: 5733167
    mEndSample: 5733167
  - mStartSample: 5745195
    mEndSample: 5745195
  - mStartSample: 5757222
    mEndSample: 5757222
  - mStartSample: 5763236
    mEndSample: 5763236
  - mStartSample: 5769249
    mEndSample: 5769249
  - mStartSample: 5781277
    mEndSample: 5781277
  - mStartSample: 5793304
    mEndSample: 5793304
  - mStartSample: 5805331
    mEndSample: 5805331
  - mStartSample: 5811345
    mEndSample: 5811345
  - mStartSample: 5817358
    mEndSample: 5817358
  - mStartSample: 5829386
    mEndSample: 5829386
  - mStartSample: 5841413
    mEndSample: 5841413
  - mStartSample: 5853440
    mEndSample: 5853440
  - mStartSample: 5865467
    mEndSample: 5865467
  - mStartSample: 5877494
    mEndSample: 5877494
  - mStartSample: 5883508
    mEndSample: 5883508
  - mStartSample: 5889521
    mEndSample: 5889521
  - mStartSample: 5901549
    mEndSample: 5901549
  - mStartSample: 5913576
    mEndSample: 5913576
  - mStartSample: 5919589
    mEndSample: 5919589
  - mStartSample: 5925603
    mEndSample: 5925603
  - mStartSample: 5931617
    mEndSample: 5931617
  - mStartSample: 5937630
    mEndSample: 5937630
  - mStartSample: 5955671
    mEndSample: 5955671
  - mStartSample: 5961685
    mEndSample: 5961685
  - mStartSample: 5973712
    mEndSample: 5973712
  - mStartSample: 5979726
    mEndSample: 5979726
  - mStartSample: 5985739
    mEndSample: 5985739
  - mStartSample: 5997767
    mEndSample: 5997767
  - mStartSample: 6009794
    mEndSample: 6009794
  - mStartSample: 6021821
    mEndSample: 6021821
  - mStartSample: 6033849
    mEndSample: 6033849
  - mStartSample: 6051889
    mEndSample: 6051889
  - mStartSample: 6057903
    mEndSample: 6057903
  - mStartSample: 6069930
    mEndSample: 6069930
  - mStartSample: 6075944
    mEndSample: 6075944
  - mStartSample: 6081958
    mEndSample: 6081958
  - mStartSample: 6093985
    mEndSample: 6093985
  - mStartSample: 6106012
    mEndSample: 6106012
  - mStartSample: 6118039
    mEndSample: 6118039
  - mStartSample: 6130067
    mEndSample: 6130067
  - mStartSample: 6154121
    mEndSample: 6154121
  - mStartSample: 6166149
    mEndSample: 6166149
  - mStartSample: 6172163
    mEndSample: 6172163
  - mStartSample: 6178176
    mEndSample: 6178176
  - mStartSample: 6190203
    mEndSample: 6190203
  - mStartSample: 6202230
    mEndSample: 6202230
  - mStartSample: 6238313
    mEndSample: 6238313
  - mStartSample: 6244327
    mEndSample: 6244327
  - mStartSample: 6250340
    mEndSample: 6250340
  - mStartSample: 6262367
    mEndSample: 6262367
  - mStartSample: 6268381
    mEndSample: 6268381
  - mStartSample: 6274395
    mEndSample: 6274395
  - mStartSample: 6286422
    mEndSample: 6286422
  - mStartSample: 6292436
    mEndSample: 6292436
  - mStartSample: 6298449
    mEndSample: 6298449
  - mStartSample: 6310477
    mEndSample: 6310477
  - mStartSample: 6316490
    mEndSample: 6316490
  - mStartSample: 6322504
    mEndSample: 6322504
  - mStartSample: 6334531
    mEndSample: 6334531
  - mStartSample: 6340545
    mEndSample: 6340545
  - mStartSample: 6346558
    mEndSample: 6346558
  - mStartSample: 6358586
    mEndSample: 6358586
  - mStartSample: 6364599
    mEndSample: 6364599
  - mStartSample: 6370613
    mEndSample: 6370613
  - mStartSample: 6376627
    mEndSample: 6376627
  - mStartSample: 6382640
    mEndSample: 6382640
  - mStartSample: 6388654
    mEndSample: 6388654
  - mStartSample: 6394667
    mEndSample: 6394667
  - mStartSample: 6406695
    mEndSample: 6406695
  - mStartSample: 6418722
    mEndSample: 6418722
  - mStartSample: 6430749
    mEndSample: 6430749
  - mStartSample: 6436763
    mEndSample: 6436763
  - mStartSample: 6442777
    mEndSample: 6442777
  - mStartSample: 6454804
    mEndSample: 6454804
  - mStartSample: 6460817
    mEndSample: 6460817
  - mStartSample: 6466831
    mEndSample: 6466831
  - mStartSample: 6478858
    mEndSample: 6478858
  - mStartSample: 6484872
    mEndSample: 6484872
  - mStartSample: 6490886
    mEndSample: 6490886
  - mStartSample: 6502913
    mEndSample: 6502913
  - mStartSample: 6508927
    mEndSample: 6508927
  - mStartSample: 6514940
    mEndSample: 6514940
  - mStartSample: 6526967
    mEndSample: 6526967
  - mStartSample: 6532981
    mEndSample: 6532981
  - mStartSample: 6538995
    mEndSample: 6538995
  - mStartSample: 6551022
    mEndSample: 6551022
  - mStartSample: 6557036
    mEndSample: 6557036
  - mStartSample: 6563049
    mEndSample: 6563049
  - mStartSample: 6569063
    mEndSample: 6569063
  - mStartSample: 6575077
    mEndSample: 6575077
  - mStartSample: 6581090
    mEndSample: 6581090
  - mStartSample: 6587104
    mEndSample: 6587104
  - mStartSample: 6599131
    mEndSample: 6599131
  - mStartSample: 6611158
    mEndSample: 6611158
  - mStartSample: 6623186
    mEndSample: 6623186
  - mStartSample: 6629200
    mEndSample: 6629200
  - mStartSample: 6635213
    mEndSample: 6635213
  - mStartSample: 6647240
    mEndSample: 6647240
  - mStartSample: 6653254
    mEndSample: 6653254
  - mStartSample: 6659268
    mEndSample: 6659268
  - mStartSample: 6671295
    mEndSample: 6671295
  - mStartSample: 6677309
    mEndSample: 6677309
  - mStartSample: 6683322
    mEndSample: 6683322
  - mStartSample: 6695350
    mEndSample: 6695350
  - mStartSample: 6701363
    mEndSample: 6701363
  - mStartSample: 6707377
    mEndSample: 6707377
  - mStartSample: 6719404
    mEndSample: 6719404
  - mStartSample: 6725418
    mEndSample: 6725418
  - mStartSample: 6731431
    mEndSample: 6731431
  - mStartSample: 6743459
    mEndSample: 6743459
  - mStartSample: 6749472
    mEndSample: 6749472
  - mStartSample: 6755486
    mEndSample: 6755486
  - mStartSample: 6761500
    mEndSample: 6761500
  - mStartSample: 6767513
    mEndSample: 6767513
  - mStartSample: 6773527
    mEndSample: 6773527
  - mStartSample: 6779540
    mEndSample: 6779540
  - mStartSample: 6791568
    mEndSample: 6791568
  - mStartSample: 6803595
    mEndSample: 6803595
  - mStartSample: 6815622
    mEndSample: 6815622
  - mStartSample: 6821636
    mEndSample: 6821636
  - mStartSample: 6827650
    mEndSample: 6827650
  - mStartSample: 6839677
    mEndSample: 6839677
  - mStartSample: 6845690
    mEndSample: 6845690
  - mStartSample: 6851704
    mEndSample: 6851704
  - mStartSample: 6863731
    mEndSample: 6863731
  - mStartSample: 6869745
    mEndSample: 6869745
  - mStartSample: 6875759
    mEndSample: 6875759
  - mStartSample: 6887786
    mEndSample: 6887786
  - mStartSample: 6893800
    mEndSample: 6893800
  - mStartSample: 6899813
    mEndSample: 6899813
  - mStartSample: 6911840
    mEndSample: 6911840
  - mStartSample: 6917854
    mEndSample: 6917854
  - mStartSample: 6923868
    mEndSample: 6923868
  - mStartSample: 6929881
    mEndSample: 6929881
  - mStartSample: 6935895
    mEndSample: 6935895
  - mStartSample: 6941909
    mEndSample: 6941909
  - mStartSample: 6947922
    mEndSample: 6947922
  - mStartSample: 6953936
    mEndSample: 6953936
  - mStartSample: 6959950
    mEndSample: 6959950
  - mStartSample: 6965963
    mEndSample: 6965963
  - mStartSample: 6971977
    mEndSample: 6971977
  - mStartSample: 6984004
    mEndSample: 6984004
  - mStartSample: 6996031
    mEndSample: 6996031
  _SerializedPayloadTypes:
  - SonicBloom.Koreo.TextPayload
  _AssetPayloads: []
  _AssetPayloadIdxs: 
  _ColorPayloads: []
  _ColorPayloadIdxs: 
  _CurvePayloads: []
  _CurvePayloadIdxs: 
  _FloatPayloads: []
  _FloatPayloadIdxs: 
  _GradientPayloads: []
  _GradientPayloadIdxs: 
  _IntPayloads: []
  _IntPayloadIdxs: 
  _SpectrumPayloads: []
  _SpectrumPayloadIdxs: 
  _TextPayloads:
  - mTextVal: 1
  - mTextVal: 7
  - mTextVal: 1
  - mTextVal: 7
  _TextPayloadIdxs: 000000002d0000002e0000005a000000
