%YAML 1.1
%TAG !u! tag:unity3d.com,2011:
--- !u!114 &11400000
MonoBehaviour:
  m_ObjectHideFlags: 0
  m_PrefabParentObject: {fileID: 0}
  m_PrefabInternal: {fileID: 0}
  m_GameObject: {fileID: 0}
  m_Enabled: 1
  m_EditorHideFlags: 0
  m_Script: {fileID: -1223223985, guid: aa81bbec85a3f423193272a7c6154986, type: 3}
  m_Name: P84track
  m_EditorClassIdentifier: 
  mEventID: Note
  mEventList:
  - mStartSample: 83538
    mEndSample: 83538
  - mStartSample: 103432
    mEndSample: 103432
  - mStartSample: 123327
    mEndSample: 123327
  - mStartSample: 143222
    mEndSample: 143222
  - mStartSample: 158143
    mEndSample: 158143
  - mStartSample: 163116
    mEndSample: 163116
  - mStartSample: 183010
    mEndSample: 183010
  - mStartSample: 202905
    mEndSample: 202905
  - mStartSample: 237721
    mEndSample: 237721
  - mStartSample: 242695
    mEndSample: 242695
  - mStartSample: 262589
    mEndSample: 262589
  - mStartSample: 282484
    mEndSample: 282484
  - mStartSample: 302379
    mEndSample: 302379
  - mStartSample: 317300
    mEndSample: 317300
  - mStartSample: 322274
    mEndSample: 322274
  - mStartSample: 342168
    mEndSample: 342168
  - mStartSample: 362063
    mEndSample: 362063
  - mStartSample: 401853
    mEndSample: 401853
  - mStartSample: 421747
    mEndSample: 421747
  - mStartSample: 441642
    mEndSample: 441642
  - mStartSample: 461537
    mEndSample: 461537
  - mStartSample: 476458
    mEndSample: 476458
  - mStartSample: 481431
    mEndSample: 481431
  - mStartSample: 501325
    mEndSample: 501325
  - mStartSample: 521220
    mEndSample: 521220
  - mStartSample: 541116
    mEndSample: 541116
  - mStartSample: 556036
    mEndSample: 556036
  - mStartSample: 561010
    mEndSample: 561010
  - mStartSample: 580904
    mEndSample: 580904
  - mStartSample: 595827
    mEndSample: 595827
  - mStartSample: 600799
    mEndSample: 600799
  - mStartSample: 615722
    mEndSample: 615722
  - mStartSample: 620694
    mEndSample: 620694
  - mStartSample: 620695
    mEndSample: 620695
  - mStartSample: 635615
    mEndSample: 635615
  - mStartSample: 635616
    mEndSample: 635616
  - mStartSample: 720169
    mEndSample: 720169
  - mStartSample: 740063
    mEndSample: 740063
  - mStartSample: 759958
    mEndSample: 759958
  - mStartSample: 779853
    mEndSample: 779853
  - mStartSample: 794774
    mEndSample: 794774
  - mStartSample: 799747
    mEndSample: 799747
  - mStartSample: 819641
    mEndSample: 819641
  - mStartSample: 839536
    mEndSample: 839536
  - mStartSample: 874352
    mEndSample: 874352
  - mStartSample: 879326
    mEndSample: 879326
  - mStartSample: 899220
    mEndSample: 899220
  - mStartSample: 919115
    mEndSample: 919115
  - mStartSample: 939010
    mEndSample: 939010
  - mStartSample: 953931
    mEndSample: 953931
  - mStartSample: 958905
    mEndSample: 958905
  - mStartSample: 978799
    mEndSample: 978799
  - mStartSample: 998694
    mEndSample: 998694
  - mStartSample: 1038484
    mEndSample: 1038484
  - mStartSample: 1058378
    mEndSample: 1058378
  - mStartSample: 1078273
    mEndSample: 1078273
  - mStartSample: 1098168
    mEndSample: 1098168
  - mStartSample: 1113089
    mEndSample: 1113089
  - mStartSample: 1118062
    mEndSample: 1118062
  - mStartSample: 1137956
    mEndSample: 1137956
  - mStartSample: 1157851
    mEndSample: 1157851
  - mStartSample: 1177747
    mEndSample: 1177747
  - mStartSample: 1192667
    mEndSample: 1192667
  - mStartSample: 1197641
    mEndSample: 1197641
  - mStartSample: 1217535
    mEndSample: 1217535
  - mStartSample: 1232458
    mEndSample: 1232458
  - mStartSample: 1237430
    mEndSample: 1237430
  - mStartSample: 1252353
    mEndSample: 1252353
  - mStartSample: 1257325
    mEndSample: 1257325
  - mStartSample: 1257326
    mEndSample: 1257326
  - mStartSample: 1272246
    mEndSample: 1272246
  - mStartSample: 1272247
    mEndSample: 1272247
  - mStartSample: 1356801
    mEndSample: 1356801
  - mStartSample: 1376695
    mEndSample: 1376695
  - mStartSample: 1391616
    mEndSample: 1391616
  - mStartSample: 1396590
    mEndSample: 1396590
  - mStartSample: 1416485
    mEndSample: 1416485
  - mStartSample: 1436380
    mEndSample: 1436380
  - mStartSample: 1456274
    mEndSample: 1456274
  - mStartSample: 1471195
    mEndSample: 1471195
  - mStartSample: 1476169
    mEndSample: 1476169
  - mStartSample: 1496064
    mEndSample: 1496064
  - mStartSample: 1515959
    mEndSample: 1515959
  - mStartSample: 1535853
    mEndSample: 1535853
  - mStartSample: 1555748
    mEndSample: 1555748
  - mStartSample: 1575643
    mEndSample: 1575643
  - mStartSample: 1585590
    mEndSample: 1585590
  - mStartSample: 1610459
    mEndSample: 1610459
  - mStartSample: 1615432
    mEndSample: 1615432
  - mStartSample: 1630353
    mEndSample: 1630353
  - mStartSample: 1635327
    mEndSample: 1635327
  - mStartSample: 1650248
    mEndSample: 1650248
  - mStartSample: 1655222
    mEndSample: 1655222
  - mStartSample: 1670143
    mEndSample: 1670143
  - mStartSample: 1690038
    mEndSample: 1690038
  - mStartSample: 1695011
    mEndSample: 1695011
  - mStartSample: 1709932
    mEndSample: 1709932
  - mStartSample: 1714906
    mEndSample: 1714906
  - mStartSample: 1729827
    mEndSample: 1729827
  - mStartSample: 1734801
    mEndSample: 1734801
  - mStartSample: 1749722
    mEndSample: 1749722
  - mStartSample: 1769616
    mEndSample: 1769616
  - mStartSample: 1774589
    mEndSample: 1774589
  - mStartSample: 1789510
    mEndSample: 1789510
  - mStartSample: 1794484
    mEndSample: 1794484
  - mStartSample: 1809405
    mEndSample: 1809405
  - mStartSample: 1814379
    mEndSample: 1814379
  - mStartSample: 1829300
    mEndSample: 1829300
  - mStartSample: 1849195
    mEndSample: 1849195
  - mStartSample: 1854168
    mEndSample: 1854168
  - mStartSample: 1869089
    mEndSample: 1869089
  - mStartSample: 1874063
    mEndSample: 1874063
  - mStartSample: 1888984
    mEndSample: 1888984
  - mStartSample: 1893958
    mEndSample: 1893958
  - mStartSample: 1908879
    mEndSample: 1908879
  - mStartSample: 1928774
    mEndSample: 1928774
  - mStartSample: 1933747
    mEndSample: 1933747
  - mStartSample: 1948668
    mEndSample: 1948668
  - mStartSample: 1953642
    mEndSample: 1953642
  - mStartSample: 1968563
    mEndSample: 1968563
  - mStartSample: 1973537
    mEndSample: 1973537
  - mStartSample: 1988458
    mEndSample: 1988458
  - mStartSample: 1993432
    mEndSample: 1993432
  - mStartSample: 2013327
    mEndSample: 2013327
  - mStartSample: 2033222
    mEndSample: 2033222
  - mStartSample: 2048143
    mEndSample: 2048143
  - mStartSample: 2068038
    mEndSample: 2068038
  - mStartSample: 2087932
    mEndSample: 2087932
  - mStartSample: 2102853
    mEndSample: 2102853
  - mStartSample: 2122748
    mEndSample: 2122748
  - mStartSample: 2147616
    mEndSample: 2147616
  - mStartSample: 2167511
    mEndSample: 2167511
  - mStartSample: 2187406
    mEndSample: 2187406
  - mStartSample: 2202327
    mEndSample: 2202327
  - mStartSample: 2227195
    mEndSample: 2227195
  - mStartSample: 2252064
    mEndSample: 2252064
  - mStartSample: 2271959
    mEndSample: 2271959
  - mStartSample: 2291853
    mEndSample: 2291853
  - mStartSample: 2311748
    mEndSample: 2311748
  - mStartSample: 2331642
    mEndSample: 2331642
  - mStartSample: 2351537
    mEndSample: 2351537
  - mStartSample: 2371432
    mEndSample: 2371432
  - mStartSample: 2386353
    mEndSample: 2386353
  - mStartSample: 2391326
    mEndSample: 2391326
  - mStartSample: 2411220
    mEndSample: 2411220
  - mStartSample: 2431115
    mEndSample: 2431115
  - mStartSample: 2451011
    mEndSample: 2451011
  - mStartSample: 2465931
    mEndSample: 2465931
  - mStartSample: 2470905
    mEndSample: 2470905
  - mStartSample: 2490799
    mEndSample: 2490799
  - mStartSample: 2510694
    mEndSample: 2510694
  - mStartSample: 2530589
    mEndSample: 2530589
  - mStartSample: 2545510
    mEndSample: 2545510
  - mStartSample: 2550484
    mEndSample: 2550484
  - mStartSample: 2570378
    mEndSample: 2570378
  - mStartSample: 2590273
    mEndSample: 2590273
  - mStartSample: 2610169
    mEndSample: 2610169
  - mStartSample: 2616801
    mEndSample: 2616801
  - mStartSample: 2623432
    mEndSample: 2623432
  - mStartSample: 2630063
    mEndSample: 2630063
  - mStartSample: 2649957
    mEndSample: 2649957
  - mStartSample: 2669852
    mEndSample: 2669852
  - mStartSample: 2689747
    mEndSample: 2689747
  - mStartSample: 2704668
    mEndSample: 2704668
  - mStartSample: 2709641
    mEndSample: 2709641
  - mStartSample: 2729535
    mEndSample: 2729535
  - mStartSample: 2749430
    mEndSample: 2749430
  - mStartSample: 2769326
    mEndSample: 2769326
  - mStartSample: 2784246
    mEndSample: 2784246
  - mStartSample: 2789220
    mEndSample: 2789220
  - mStartSample: 2809114
    mEndSample: 2809114
  - mStartSample: 2824037
    mEndSample: 2824037
  - mStartSample: 2829009
    mEndSample: 2829009
  - mStartSample: 2843932
    mEndSample: 2843932
  - mStartSample: 2848904
    mEndSample: 2848904
  - mStartSample: 2848905
    mEndSample: 2848905
  - mStartSample: 2863825
    mEndSample: 2863825
  - mStartSample: 2863826
    mEndSample: 2863826
  - mStartSample: 2888695
    mEndSample: 2888695
  - mStartSample: 2908590
    mEndSample: 2908590
  - mStartSample: 2928485
    mEndSample: 2928485
  - mStartSample: 2948380
    mEndSample: 2948380
  - mStartSample: 2968274
    mEndSample: 2968274
  - mStartSample: 2983195
    mEndSample: 2983195
  - mStartSample: 2988169
    mEndSample: 2988169
  - mStartSample: 3008064
    mEndSample: 3008064
  - mStartSample: 3027959
    mEndSample: 3027959
  - mStartSample: 3047853
    mEndSample: 3047853
  - mStartSample: 3062774
    mEndSample: 3062774
  - mStartSample: 3067748
    mEndSample: 3067748
  - mStartSample: 3087643
    mEndSample: 3087643
  - mStartSample: 3107538
    mEndSample: 3107538
  - mStartSample: 3127432
    mEndSample: 3127432
  - mStartSample: 3147327
    mEndSample: 3147327
  - mStartSample: 3167222
    mEndSample: 3167222
  - mStartSample: 3177169
    mEndSample: 3177169
  - mStartSample: 3202038
    mEndSample: 3202038
  - mStartSample: 3207011
    mEndSample: 3207011
  - mStartSample: 3221932
    mEndSample: 3221932
  - mStartSample: 3226906
    mEndSample: 3226906
  - mStartSample: 3241827
    mEndSample: 3241827
  - mStartSample: 3246801
    mEndSample: 3246801
  - mStartSample: 3261722
    mEndSample: 3261722
  - mStartSample: 3281617
    mEndSample: 3281617
  - mStartSample: 3286590
    mEndSample: 3286590
  - mStartSample: 3301511
    mEndSample: 3301511
  - mStartSample: 3306485
    mEndSample: 3306485
  - mStartSample: 3321406
    mEndSample: 3321406
  - mStartSample: 3326380
    mEndSample: 3326380
  - mStartSample: 3341301
    mEndSample: 3341301
  - mStartSample: 3361195
    mEndSample: 3361195
  - mStartSample: 3366168
    mEndSample: 3366168
  - mStartSample: 3381089
    mEndSample: 3381089
  - mStartSample: 3386063
    mEndSample: 3386063
  - mStartSample: 3400984
    mEndSample: 3400984
  - mStartSample: 3405958
    mEndSample: 3405958
  - mStartSample: 3420879
    mEndSample: 3420879
  - mStartSample: 3440774
    mEndSample: 3440774
  - mStartSample: 3445747
    mEndSample: 3445747
  - mStartSample: 3460668
    mEndSample: 3460668
  - mStartSample: 3465642
    mEndSample: 3465642
  - mStartSample: 3480563
    mEndSample: 3480563
  - mStartSample: 3485537
    mEndSample: 3485537
  - mStartSample: 3500458
    mEndSample: 3500458
  - mStartSample: 3520353
    mEndSample: 3520353
  - mStartSample: 3525326
    mEndSample: 3525326
  - mStartSample: 3540247
    mEndSample: 3540247
  - mStartSample: 3545221
    mEndSample: 3545221
  - mStartSample: 3560142
    mEndSample: 3560142
  - mStartSample: 3565116
    mEndSample: 3565116
  - mStartSample: 3580037
    mEndSample: 3580037
  - mStartSample: 3585011
    mEndSample: 3585011
  - mStartSample: 3604906
    mEndSample: 3604906
  - mStartSample: 3624801
    mEndSample: 3624801
  - mStartSample: 3639722
    mEndSample: 3639722
  - mStartSample: 3659617
    mEndSample: 3659617
  - mStartSample: 3679511
    mEndSample: 3679511
  - mStartSample: 3694432
    mEndSample: 3694432
  - mStartSample: 3714327
    mEndSample: 3714327
  - mStartSample: 3739195
    mEndSample: 3739195
  - mStartSample: 3759090
    mEndSample: 3759090
  - mStartSample: 3778985
    mEndSample: 3778985
  - mStartSample: 3793906
    mEndSample: 3793906
  - mStartSample: 3818774
    mEndSample: 3818774
  - mStartSample: 3843643
    mEndSample: 3843643
  - mStartSample: 3863538
    mEndSample: 3863538
  - mStartSample: 3883432
    mEndSample: 3883432
  - mStartSample: 3903327
    mEndSample: 3903327
  - mStartSample: 3923221
    mEndSample: 3923221
  - mStartSample: 3943116
    mEndSample: 3943116
  - mStartSample: 3963011
    mEndSample: 3963011
  - mStartSample: 3977932
    mEndSample: 3977932
  - mStartSample: 3982905
    mEndSample: 3982905
  - mStartSample: 4002799
    mEndSample: 4002799
  - mStartSample: 4022694
    mEndSample: 4022694
  - mStartSample: 4057510
    mEndSample: 4057510
  - mStartSample: 4062484
    mEndSample: 4062484
  - mStartSample: 4082378
    mEndSample: 4082378
  - mStartSample: 4102273
    mEndSample: 4102273
  - mStartSample: 4122168
    mEndSample: 4122168
  - mStartSample: 4137089
    mEndSample: 4137089
  - mStartSample: 4142063
    mEndSample: 4142063
  - mStartSample: 4161957
    mEndSample: 4161957
  - mStartSample: 4181852
    mEndSample: 4181852
  - mStartSample: 4221642
    mEndSample: 4221642
  - mStartSample: 4241536
    mEndSample: 4241536
  - mStartSample: 4261431
    mEndSample: 4261431
  - mStartSample: 4281326
    mEndSample: 4281326
  - mStartSample: 4296247
    mEndSample: 4296247
  - mStartSample: 4301220
    mEndSample: 4301220
  - mStartSample: 4321114
    mEndSample: 4321114
  - mStartSample: 4341009
    mEndSample: 4341009
  - mStartSample: 4360905
    mEndSample: 4360905
  - mStartSample: 4375825
    mEndSample: 4375825
  - mStartSample: 4380799
    mEndSample: 4380799
  - mStartSample: 4400693
    mEndSample: 4400693
  - mStartSample: 4415616
    mEndSample: 4415616
  - mStartSample: 4420588
    mEndSample: 4420588
  - mStartSample: 4435511
    mEndSample: 4435511
  - mStartSample: 4440483
    mEndSample: 4440483
  - mStartSample: 4440484
    mEndSample: 4440484
  - mStartSample: 4455404
    mEndSample: 4455404
  - mStartSample: 4455405
    mEndSample: 4455405
  - mStartSample: 4539959
    mEndSample: 4539959
  - mStartSample: 4559853
    mEndSample: 4559853
  - mStartSample: 4579748
    mEndSample: 4579748
  - mStartSample: 4599643
    mEndSample: 4599643
  - mStartSample: 4614564
    mEndSample: 4614564
  - mStartSample: 4619537
    mEndSample: 4619537
  - mStartSample: 4639431
    mEndSample: 4639431
  - mStartSample: 4659326
    mEndSample: 4659326
  - mStartSample: 4694142
    mEndSample: 4694142
  - mStartSample: 4699116
    mEndSample: 4699116
  - mStartSample: 4719010
    mEndSample: 4719010
  - mStartSample: 4738905
    mEndSample: 4738905
  - mStartSample: 4758800
    mEndSample: 4758800
  - mStartSample: 4773721
    mEndSample: 4773721
  - mStartSample: 4778695
    mEndSample: 4778695
  - mStartSample: 4798589
    mEndSample: 4798589
  - mStartSample: 4818484
    mEndSample: 4818484
  - mStartSample: 4858274
    mEndSample: 4858274
  - mStartSample: 4878168
    mEndSample: 4878168
  - mStartSample: 4898063
    mEndSample: 4898063
  - mStartSample: 4917958
    mEndSample: 4917958
  - mStartSample: 4932879
    mEndSample: 4932879
  - mStartSample: 4937852
    mEndSample: 4937852
  - mStartSample: 4957746
    mEndSample: 4957746
  - mStartSample: 4977641
    mEndSample: 4977641
  - mStartSample: 4997537
    mEndSample: 4997537
  - mStartSample: 5012457
    mEndSample: 5012457
  - mStartSample: 5017431
    mEndSample: 5017431
  - mStartSample: 5037325
    mEndSample: 5037325
  - mStartSample: 5052248
    mEndSample: 5052248
  - mStartSample: 5057220
    mEndSample: 5057220
  - mStartSample: 5072143
    mEndSample: 5072143
  - mStartSample: 5077115
    mEndSample: 5077115
  - mStartSample: 5077116
    mEndSample: 5077116
  - mStartSample: 5092036
    mEndSample: 5092036
  - mStartSample: 5092037
    mEndSample: 5092037
  - mStartSample: 5216380
    mEndSample: 5216380
  _SerializedPayloadTypes: []
  _AssetPayloads: []
  _AssetPayloadIdxs: 
  _ColorPayloads: []
  _ColorPayloadIdxs: 
  _CurvePayloads: []
  _CurvePayloadIdxs: 
  _FloatPayloads: []
  _FloatPayloadIdxs: 
  _GradientPayloads: []
  _GradientPayloadIdxs: 
  _IntPayloads: []
  _IntPayloadIdxs: 
  _SpectrumPayloads: []
  _SpectrumPayloadIdxs: 
  _TextPayloads: []
  _TextPayloadIdxs: 
