%YAML 1.1
%TAG !u! tag:unity3d.com,2011:
--- !u!114 &11400000
MonoBehaviour:
  m_ObjectHideFlags: 0
  m_PrefabParentObject: {fileID: 0}
  m_PrefabInternal: {fileID: 0}
  m_GameObject: {fileID: 0}
  m_Enabled: 1
  m_EditorHideFlags: 0
  m_Script: {fileID: -1223223985, guid: aa81bbec85a3f423193272a7c6154986, type: 3}
  m_Name: P63track
  m_EditorClassIdentifier: 
  mEventID: Note
  mEventList:
  - mStartSample: 3382
    mEndSample: 3382
  - mStartSample: 29370
    mEndSample: 29370
  - mStartSample: 55180
    mEndSample: 55180
  - mStartSample: 80812
    mEndSample: 80812
  - mStartSample: 106800
    mEndSample: 106800
  - mStartSample: 119770
    mEndSample: 119770
  - mStartSample: 126255
    mEndSample: 126255
  - mStartSample: 139226
    mEndSample: 139226
  - mStartSample: 145711
    mEndSample: 145711
  - mStartSample: 158682
    mEndSample: 158682
  - mStartSample: 171652
    mEndSample: 171652
  - mStartSample: 178138
    mEndSample: 178138
  - mStartSample: 191108
    mEndSample: 191108
  - mStartSample: 197594
    mEndSample: 197594
  - mStartSample: 210564
    mEndSample: 210564
  - mStartSample: 223534
    mEndSample: 223534
  - mStartSample: 230019
    mEndSample: 230019
  - mStartSample: 242990
    mEndSample: 242990
  - mStartSample: 249475
    mEndSample: 249475
  - mStartSample: 262446
    mEndSample: 262446
  - mStartSample: 275416
    mEndSample: 275416
  - mStartSample: 281902
    mEndSample: 281902
  - mStartSample: 294872
    mEndSample: 294872
  - mStartSample: 301358
    mEndSample: 301358
  - mStartSample: 314329
    mEndSample: 314329
  - mStartSample: 327299
    mEndSample: 327299
  - mStartSample: 333784
    mEndSample: 333784
  - mStartSample: 346755
    mEndSample: 346755
  - mStartSample: 353240
    mEndSample: 353240
  - mStartSample: 366211
    mEndSample: 366211
  - mStartSample: 379181
    mEndSample: 379181
  - mStartSample: 385667
    mEndSample: 385667
  - mStartSample: 398637
    mEndSample: 398637
  - mStartSample: 405123
    mEndSample: 405123
  - mStartSample: 418093
    mEndSample: 418093
  - mStartSample: 431063
    mEndSample: 431063
  - mStartSample: 437548
    mEndSample: 437548
  - mStartSample: 450519
    mEndSample: 450519
  - mStartSample: 457004
    mEndSample: 457004
  - mStartSample: 469975
    mEndSample: 469975
  - mStartSample: 482945
    mEndSample: 482945
  - mStartSample: 489431
    mEndSample: 489431
  - mStartSample: 502401
    mEndSample: 502401
  - mStartSample: 508887
    mEndSample: 508887
  - mStartSample: 521858
    mEndSample: 521858
  - mStartSample: 534828
    mEndSample: 534828
  - mStartSample: 541313
    mEndSample: 541313
  - mStartSample: 554284
    mEndSample: 554284
  - mStartSample: 560769
    mEndSample: 560769
  - mStartSample: 573740
    mEndSample: 573740
  - mStartSample: 586710
    mEndSample: 586710
  - mStartSample: 593196
    mEndSample: 593196
  - mStartSample: 606166
    mEndSample: 606166
  - mStartSample: 612652
    mEndSample: 612652
  - mStartSample: 625622
    mEndSample: 625622
  - mStartSample: 638592
    mEndSample: 638592
  - mStartSample: 645077
    mEndSample: 645077
  - mStartSample: 658048
    mEndSample: 658048
  - mStartSample: 664533
    mEndSample: 664533
  - mStartSample: 677504
    mEndSample: 677504
  - mStartSample: 690474
    mEndSample: 690474
  - mStartSample: 696960
    mEndSample: 696960
  - mStartSample: 709930
    mEndSample: 709930
  - mStartSample: 716416
    mEndSample: 716416
  - mStartSample: 729388
    mEndSample: 729388
  - mStartSample: 742358
    mEndSample: 742358
  - mStartSample: 748843
    mEndSample: 748843
  - mStartSample: 761814
    mEndSample: 761814
  - mStartSample: 768299
    mEndSample: 768299
  - mStartSample: 781270
    mEndSample: 781270
  - mStartSample: 794240
    mEndSample: 794240
  - mStartSample: 800726
    mEndSample: 800726
  - mStartSample: 813696
    mEndSample: 813696
  - mStartSample: 820182
    mEndSample: 820182
  - mStartSample: 833152
    mEndSample: 833152
  - mStartSample: 846122
    mEndSample: 846122
  - mStartSample: 852607
    mEndSample: 852607
  - mStartSample: 865578
    mEndSample: 865578
  - mStartSample: 872063
    mEndSample: 872063
  - mStartSample: 885034
    mEndSample: 885034
  - mStartSample: 898004
    mEndSample: 898004
  - mStartSample: 904490
    mEndSample: 904490
  - mStartSample: 917460
    mEndSample: 917460
  - mStartSample: 923946
    mEndSample: 923946
  - mStartSample: 936917
    mEndSample: 936917
  - mStartSample: 975829
    mEndSample: 975829
  - mStartSample: 1040682
    mEndSample: 1040682
  - mStartSample: 1060138
    mEndSample: 1060138
  - mStartSample: 1079594
    mEndSample: 1079594
  - mStartSample: 1131476
    mEndSample: 1131476
  - mStartSample: 1144447
    mEndSample: 1144447
  - mStartSample: 1183358
    mEndSample: 1183358
  - mStartSample: 1235241
    mEndSample: 1235241
  - mStartSample: 1248211
    mEndSample: 1248211
  - mStartSample: 1287122
    mEndSample: 1287122
  - mStartSample: 1339005
    mEndSample: 1339005
  - mStartSample: 1351975
    mEndSample: 1351975
  - mStartSample: 1390887
    mEndSample: 1390887
  - mStartSample: 1442769
    mEndSample: 1442769
  - mStartSample: 1455740
    mEndSample: 1455740
  - mStartSample: 1475196
    mEndSample: 1475196
  - mStartSample: 1546534
    mEndSample: 1546534
  - mStartSample: 1559505
    mEndSample: 1559505
  - mStartSample: 1598417
    mEndSample: 1598417
  - mStartSample: 1650299
    mEndSample: 1650299
  - mStartSample: 1663269
    mEndSample: 1663269
  - mStartSample: 1715152
    mEndSample: 1715152
  - mStartSample: 1818917
    mEndSample: 1818917
  - mStartSample: 1838372
    mEndSample: 1838372
  - mStartSample: 1857828
    mEndSample: 1857828
  - mStartSample: 1877284
    mEndSample: 1877284
  - mStartSample: 1896740
    mEndSample: 1896740
  - mStartSample: 1909711
    mEndSample: 1909711
  - mStartSample: 1916196
    mEndSample: 1916196
  - mStartSample: 1922681
    mEndSample: 1922681
  - mStartSample: 1942136
    mEndSample: 1942136
  - mStartSample: 1961592
    mEndSample: 1961592
  - mStartSample: 1981048
    mEndSample: 1981048
  - mStartSample: 2000504
    mEndSample: 2000504
  - mStartSample: 2013475
    mEndSample: 2013475
  - mStartSample: 2019960
    mEndSample: 2019960
  - mStartSample: 2026446
    mEndSample: 2026446
  - mStartSample: 2045901
    mEndSample: 2045901
  - mStartSample: 2065357
    mEndSample: 2065357
  - mStartSample: 2084813
    mEndSample: 2084813
  - mStartSample: 2104269
    mEndSample: 2104269
  - mStartSample: 2117240
    mEndSample: 2117240
  - mStartSample: 2123725
    mEndSample: 2123725
  - mStartSample: 2130211
    mEndSample: 2130211
  - mStartSample: 2149666
    mEndSample: 2149666
  - mStartSample: 2169122
    mEndSample: 2169122
  - mStartSample: 2188578
    mEndSample: 2188578
  - mStartSample: 2208034
    mEndSample: 2208034
  - mStartSample: 2221005
    mEndSample: 2221005
  - mStartSample: 2227490
    mEndSample: 2227490
  - mStartSample: 2233975
    mEndSample: 2233975
  - mStartSample: 2253430
    mEndSample: 2253430
  - mStartSample: 2272886
    mEndSample: 2272886
  - mStartSample: 2292342
    mEndSample: 2292342
  - mStartSample: 2311798
    mEndSample: 2311798
  - mStartSample: 2318284
    mEndSample: 2318284
  - mStartSample: 2324769
    mEndSample: 2324769
  - mStartSample: 2331254
    mEndSample: 2331254
  - mStartSample: 2337739
    mEndSample: 2337739
  - mStartSample: 2357194
    mEndSample: 2357194
  - mStartSample: 2376650
    mEndSample: 2376650
  - mStartSample: 2396106
    mEndSample: 2396106
  - mStartSample: 2415562
    mEndSample: 2415562
  - mStartSample: 2428533
    mEndSample: 2428533
  - mStartSample: 2435018
    mEndSample: 2435018
  - mStartSample: 2441504
    mEndSample: 2441504
  - mStartSample: 2460959
    mEndSample: 2460959
  - mStartSample: 2480415
    mEndSample: 2480415
  - mStartSample: 2499871
    mEndSample: 2499871
  - mStartSample: 2519327
    mEndSample: 2519327
  - mStartSample: 2532298
    mEndSample: 2532298
  - mStartSample: 2538783
    mEndSample: 2538783
  - mStartSample: 2545269
    mEndSample: 2545269
  - mStartSample: 2564724
    mEndSample: 2564724
  - mStartSample: 2584180
    mEndSample: 2584180
  - mStartSample: 2603636
    mEndSample: 2603636
  - mStartSample: 2623092
    mEndSample: 2623092
  - mStartSample: 2636063
    mEndSample: 2636063
  - mStartSample: 2642548
    mEndSample: 2642548
  - mStartSample: 2649034
    mEndSample: 2649034
  - mStartSample: 2668489
    mEndSample: 2668489
  - mStartSample: 2687945
    mEndSample: 2687945
  - mStartSample: 2707401
    mEndSample: 2707401
  - mStartSample: 2726857
    mEndSample: 2726857
  - mStartSample: 2733343
    mEndSample: 2733343
  - mStartSample: 2739828
    mEndSample: 2739828
  - mStartSample: 2746313
    mEndSample: 2746313
  - mStartSample: 2752798
    mEndSample: 2752798
  - mStartSample: 2772253
    mEndSample: 2772253
  - mStartSample: 2791709
    mEndSample: 2791709
  - mStartSample: 2811165
    mEndSample: 2811165
  - mStartSample: 2830621
    mEndSample: 2830621
  - mStartSample: 2837108
    mEndSample: 2837108
  - mStartSample: 2843592
    mEndSample: 2843592
  - mStartSample: 2850077
    mEndSample: 2850077
  - mStartSample: 2856563
    mEndSample: 2856563
  - mStartSample: 2876018
    mEndSample: 2876018
  - mStartSample: 2895474
    mEndSample: 2895474
  - mStartSample: 2914930
    mEndSample: 2914930
  - mStartSample: 2934386
    mEndSample: 2934386
  - mStartSample: 2940872
    mEndSample: 2940872
  - mStartSample: 2947357
    mEndSample: 2947357
  - mStartSample: 2953842
    mEndSample: 2953842
  - mStartSample: 2960328
    mEndSample: 2960328
  - mStartSample: 2979783
    mEndSample: 2979783
  - mStartSample: 2999239
    mEndSample: 2999239
  - mStartSample: 3018695
    mEndSample: 3018695
  - mStartSample: 3038151
    mEndSample: 3038151
  - mStartSample: 3044637
    mEndSample: 3044637
  - mStartSample: 3051122
    mEndSample: 3051122
  - mStartSample: 3057607
    mEndSample: 3057607
  - mStartSample: 3064093
    mEndSample: 3064093
  - mStartSample: 3083548
    mEndSample: 3083548
  - mStartSample: 3103004
    mEndSample: 3103004
  - mStartSample: 3122460
    mEndSample: 3122460
  - mStartSample: 3141916
    mEndSample: 3141916
  - mStartSample: 3148402
    mEndSample: 3148402
  - mStartSample: 3154887
    mEndSample: 3154887
  - mStartSample: 3161372
    mEndSample: 3161372
  - mStartSample: 3167857
    mEndSample: 3167857
  - mStartSample: 3187312
    mEndSample: 3187312
  - mStartSample: 3206768
    mEndSample: 3206768
  - mStartSample: 3226224
    mEndSample: 3226224
  - mStartSample: 3245680
    mEndSample: 3245680
  - mStartSample: 3252167
    mEndSample: 3252167
  - mStartSample: 3258651
    mEndSample: 3258651
  - mStartSample: 3265136
    mEndSample: 3265136
  - mStartSample: 3271622
    mEndSample: 3271622
  - mStartSample: 3291077
    mEndSample: 3291077
  - mStartSample: 3310533
    mEndSample: 3310533
  - mStartSample: 3329989
    mEndSample: 3329989
  - mStartSample: 3349445
    mEndSample: 3349445
  - mStartSample: 3355931
    mEndSample: 3355931
  - mStartSample: 3362416
    mEndSample: 3362416
  - mStartSample: 3368901
    mEndSample: 3368901
  - mStartSample: 3375387
    mEndSample: 3375387
  - mStartSample: 3394842
    mEndSample: 3394842
  - mStartSample: 3414298
    mEndSample: 3414298
  - mStartSample: 3433754
    mEndSample: 3433754
  - mStartSample: 3453210
    mEndSample: 3453210
  - mStartSample: 3459696
    mEndSample: 3459696
  - mStartSample: 3466181
    mEndSample: 3466181
  - mStartSample: 3472666
    mEndSample: 3472666
  - mStartSample: 3479152
    mEndSample: 3479152
  - mStartSample: 3498607
    mEndSample: 3498607
  - mStartSample: 3518063
    mEndSample: 3518063
  - mStartSample: 3537519
    mEndSample: 3537519
  - mStartSample: 3556975
    mEndSample: 3556975
  - mStartSample: 3563461
    mEndSample: 3563461
  - mStartSample: 3569946
    mEndSample: 3569946
  - mStartSample: 3576431
    mEndSample: 3576431
  - mStartSample: 3582916
    mEndSample: 3582916
  - mStartSample: 3602371
    mEndSample: 3602371
  - mStartSample: 3621827
    mEndSample: 3621827
  - mStartSample: 3641283
    mEndSample: 3641283
  - mStartSample: 3660739
    mEndSample: 3660739
  - mStartSample: 3667225
    mEndSample: 3667225
  - mStartSample: 3673710
    mEndSample: 3673710
  - mStartSample: 3680195
    mEndSample: 3680195
  - mStartSample: 3686681
    mEndSample: 3686681
  - mStartSample: 3706136
    mEndSample: 3706136
  - mStartSample: 3725592
    mEndSample: 3725592
  - mStartSample: 3745048
    mEndSample: 3745048
  - mStartSample: 3764504
    mEndSample: 3764504
  - mStartSample: 3770990
    mEndSample: 3770990
  - mStartSample: 3777475
    mEndSample: 3777475
  - mStartSample: 3783960
    mEndSample: 3783960
  - mStartSample: 3790446
    mEndSample: 3790446
  - mStartSample: 3809901
    mEndSample: 3809901
  - mStartSample: 3829357
    mEndSample: 3829357
  - mStartSample: 3848813
    mEndSample: 3848813
  - mStartSample: 3868269
    mEndSample: 3868269
  - mStartSample: 3874755
    mEndSample: 3874755
  - mStartSample: 3881240
    mEndSample: 3881240
  - mStartSample: 3887725
    mEndSample: 3887725
  - mStartSample: 3894211
    mEndSample: 3894211
  - mStartSample: 3913666
    mEndSample: 3913666
  - mStartSample: 3933122
    mEndSample: 3933122
  - mStartSample: 3952578
    mEndSample: 3952578
  - mStartSample: 3972034
    mEndSample: 3972034
  - mStartSample: 3978519
    mEndSample: 3978519
  - mStartSample: 3985005
    mEndSample: 3985005
  - mStartSample: 3991490
    mEndSample: 3991490
  - mStartSample: 3997975
    mEndSample: 3997975
  - mStartSample: 4017430
    mEndSample: 4017430
  - mStartSample: 4036886
    mEndSample: 4036886
  - mStartSample: 4056342
    mEndSample: 4056342
  - mStartSample: 4075798
    mEndSample: 4075798
  - mStartSample: 4082284
    mEndSample: 4082284
  - mStartSample: 4088769
    mEndSample: 4088769
  - mStartSample: 4095254
    mEndSample: 4095254
  - mStartSample: 4101740
    mEndSample: 4101740
  - mStartSample: 4121195
    mEndSample: 4121195
  - mStartSample: 4140651
    mEndSample: 4140651
  - mStartSample: 4160107
    mEndSample: 4160107
  - mStartSample: 4179563
    mEndSample: 4179563
  - mStartSample: 4186049
    mEndSample: 4186049
  - mStartSample: 4192534
    mEndSample: 4192534
  - mStartSample: 4199019
    mEndSample: 4199019
  - mStartSample: 4205505
    mEndSample: 4205505
  - mStartSample: 4224960
    mEndSample: 4224960
  - mStartSample: 4244416
    mEndSample: 4244416
  - mStartSample: 4263872
    mEndSample: 4263872
  - mStartSample: 4283328
    mEndSample: 4283328
  - mStartSample: 4309269
    mEndSample: 4309269
  - mStartSample: 4322239
    mEndSample: 4322239
  - mStartSample: 4328724
    mEndSample: 4328724
  - mStartSample: 4341695
    mEndSample: 4341695
  - mStartSample: 4348180
    mEndSample: 4348180
  - mStartSample: 4361151
    mEndSample: 4361151
  - mStartSample: 4374121
    mEndSample: 4374121
  - mStartSample: 4380607
    mEndSample: 4380607
  - mStartSample: 4393577
    mEndSample: 4393577
  - mStartSample: 4400063
    mEndSample: 4400063
  - mStartSample: 4413034
    mEndSample: 4413034
  - mStartSample: 4426004
    mEndSample: 4426004
  - mStartSample: 4432489
    mEndSample: 4432489
  - mStartSample: 4445460
    mEndSample: 4445460
  - mStartSample: 4451945
    mEndSample: 4451945
  - mStartSample: 4464916
    mEndSample: 4464916
  - mStartSample: 4477886
    mEndSample: 4477886
  - mStartSample: 4484372
    mEndSample: 4484372
  - mStartSample: 4497342
    mEndSample: 4497342
  - mStartSample: 4503828
    mEndSample: 4503828
  - mStartSample: 4516799
    mEndSample: 4516799
  - mStartSample: 4529769
    mEndSample: 4529769
  - mStartSample: 4536254
    mEndSample: 4536254
  - mStartSample: 4549225
    mEndSample: 4549225
  - mStartSample: 4555710
    mEndSample: 4555710
  - mStartSample: 4568681
    mEndSample: 4568681
  - mStartSample: 4581651
    mEndSample: 4581651
  - mStartSample: 4588137
    mEndSample: 4588137
  - mStartSample: 4601107
    mEndSample: 4601107
  - mStartSample: 4607593
    mEndSample: 4607593
  - mStartSample: 4620564
    mEndSample: 4620564
  - mStartSample: 4633534
    mEndSample: 4633534
  - mStartSample: 4640019
    mEndSample: 4640019
  - mStartSample: 4652990
    mEndSample: 4652990
  - mStartSample: 4659475
    mEndSample: 4659475
  - mStartSample: 4672446
    mEndSample: 4672446
  - mStartSample: 4685416
    mEndSample: 4685416
  - mStartSample: 4691902
    mEndSample: 4691902
  - mStartSample: 4704872
    mEndSample: 4704872
  - mStartSample: 4711358
    mEndSample: 4711358
  - mStartSample: 4724328
    mEndSample: 4724328
  - mStartSample: 4737298
    mEndSample: 4737298
  - mStartSample: 4743783
    mEndSample: 4743783
  - mStartSample: 4756754
    mEndSample: 4756754
  - mStartSample: 4763239
    mEndSample: 4763239
  - mStartSample: 4776210
    mEndSample: 4776210
  - mStartSample: 4789180
    mEndSample: 4789180
  - mStartSample: 4795666
    mEndSample: 4795666
  - mStartSample: 4808636
    mEndSample: 4808636
  - mStartSample: 4815122
    mEndSample: 4815122
  - mStartSample: 4828093
    mEndSample: 4828093
  - mStartSample: 4841063
    mEndSample: 4841063
  - mStartSample: 4847548
    mEndSample: 4847548
  - mStartSample: 4860519
    mEndSample: 4860519
  - mStartSample: 4867004
    mEndSample: 4867004
  - mStartSample: 4879975
    mEndSample: 4879975
  - mStartSample: 4892945
    mEndSample: 4892945
  - mStartSample: 4899431
    mEndSample: 4899431
  - mStartSample: 4912401
    mEndSample: 4912401
  - mStartSample: 4918887
    mEndSample: 4918887
  - mStartSample: 4931858
    mEndSample: 4931858
  - mStartSample: 4944828
    mEndSample: 4944828
  - mStartSample: 4951313
    mEndSample: 4951313
  - mStartSample: 4964284
    mEndSample: 4964284
  - mStartSample: 4970769
    mEndSample: 4970769
  - mStartSample: 4983740
    mEndSample: 4983740
  - mStartSample: 4996710
    mEndSample: 4996710
  - mStartSample: 5003196
    mEndSample: 5003196
  - mStartSample: 5016166
    mEndSample: 5016166
  - mStartSample: 5022652
    mEndSample: 5022652
  - mStartSample: 5035623
    mEndSample: 5035623
  - mStartSample: 5048593
    mEndSample: 5048593
  - mStartSample: 5055078
    mEndSample: 5055078
  - mStartSample: 5068049
    mEndSample: 5068049
  - mStartSample: 5074534
    mEndSample: 5074534
  - mStartSample: 5087505
    mEndSample: 5087505
  - mStartSample: 5100475
    mEndSample: 5100475
  - mStartSample: 5106961
    mEndSample: 5106961
  - mStartSample: 5119931
    mEndSample: 5119931
  - mStartSample: 5126417
    mEndSample: 5126417
  - mStartSample: 5139387
    mEndSample: 5139387
  - mStartSample: 5178299
    mEndSample: 5178299
  - mStartSample: 5243152
    mEndSample: 5243152
  - mStartSample: 5262608
    mEndSample: 5262608
  - mStartSample: 5282064
    mEndSample: 5282064
  - mStartSample: 5320975
    mEndSample: 5320975
  - mStartSample: 5346917
    mEndSample: 5346917
  - mStartSample: 5385828
    mEndSample: 5385828
  - mStartSample: 5450681
    mEndSample: 5450681
  - mStartSample: 5489593
    mEndSample: 5489593
  - mStartSample: 5554446
    mEndSample: 5554446
  - mStartSample: 5593358
    mEndSample: 5593358
  - mStartSample: 5658211
    mEndSample: 5658211
  - mStartSample: 5677667
    mEndSample: 5677667
  - mStartSample: 5697122
    mEndSample: 5697122
  - mStartSample: 5736034
    mEndSample: 5736034
  - mStartSample: 5761975
    mEndSample: 5761975
  - mStartSample: 5800887
    mEndSample: 5800887
  - mStartSample: 5865740
    mEndSample: 5865740
  - mStartSample: 5917622
    mEndSample: 5917622
  - mStartSample: 5937078
    mEndSample: 5937078
  - mStartSample: 5943564
    mEndSample: 5943564
  - mStartSample: 5956534
    mEndSample: 5956534
  - mStartSample: 5963019
    mEndSample: 5963019
  _SerializedPayloadTypes:
  - SonicBloom.Koreo.TextPayload
  _AssetPayloads: []
  _AssetPayloadIdxs: 
  _ColorPayloads: []
  _ColorPayloadIdxs: 
  _CurvePayloads: []
  _CurvePayloadIdxs: 
  _FloatPayloads: []
  _FloatPayloadIdxs: 
  _GradientPayloads: []
  _GradientPayloadIdxs: 
  _IntPayloads: []
  _IntPayloadIdxs: 
  _SpectrumPayloads: []
  _SpectrumPayloadIdxs: 
  _TextPayloads:
  - mTextVal: 1
  - mTextVal: 7
  - mTextVal: 1
  - mTextVal: 7
  - mTextVal: 1
  - mTextVal: 7
  - mTextVal: 1
  - mTextVal: 7
  - mTextVal: 1
  - mTextVal: 7
  - mTextVal: 1
  - mTextVal: 7
  - mTextVal: 1
  - mTextVal: 7
  - mTextVal: 1
  - mTextVal: 7
  - mTextVal: 1
  - mTextVal: 7
  - mTextVal: 1
  - mTextVal: 7
  - mTextVal: 1
  - mTextVal: 7
  - mTextVal: 1
  - mTextVal: 7
  - mTextVal: 1
  - mTextVal: 7
  - mTextVal: 1
  - mTextVal: 7
  - mTextVal: 1
  - mTextVal: 7
  - mTextVal: 1
  - mTextVal: 7
  - mTextVal: 1
  - mTextVal: 7
  - mTextVal: 1
  - mTextVal: 7
  - mTextVal: 1
  - mTextVal: 7
  - mTextVal: 1
  - mTextVal: 7
  - mTextVal: 1
  - mTextVal: 7
  - mTextVal: 1
  - mTextVal: 7
  - mTextVal: 1
  - mTextVal: 7
  - mTextVal: 1
  - mTextVal: 7
  - mTextVal: 1
  - mTextVal: 7
  - mTextVal: 1
  - mTextVal: 7
  - mTextVal: 1
  - mTextVal: 7
  - mTextVal: 1
  - mTextVal: 7
  - mTextVal: 1
  - mTextVal: 7
  - mTextVal: 1
  - mTextVal: 7
  - mTextVal: 1
  - mTextVal: 7
  - mTextVal: 1
  - mTextVal: 7
  - mTextVal: 1
  - mTextVal: 7
  - mTextVal: 1
  - mTextVal: 7
  - mTextVal: 1
  - mTextVal: 7
  - mTextVal: 1
  - mTextVal: 7
  - mTextVal: 1
  - mTextVal: 7
  - mTextVal: 1
  - mTextVal: 7
  - mTextVal: 1
  - mTextVal: 7
  - mTextVal: 1
  - mTextVal: 7
  _TextPayloadIdxs: 040000000d0000000e000000170000001800000021000000220000002b0000002c00000035000000360000003f00000040000000490000004a000000530000006b000000710000007200000078000000790000007f0000008000000086000000870000008e0000008f00000095000000960000009c0000009d000000a3000000a4000000ab000000ac000000b3000000b4000000bb000000bc000000c3000000c4000000cb000000cc000000d3000000d4000000db000000dc000000e3000000e4000000eb000000ec000000f3000000f4000000fb000000fc00000003010000040100000b0100000c01000013010000140100001b0100001c01000020010000210100002a0100002b01000034010000350100003e0100003f010000480100004901000052010000530100005c0100005d010000660100006701000070010000
