%YAML 1.1
%TAG !u! tag:unity3d.com,2011:
--- !u!114 &11400000
MonoBehaviour:
  m_ObjectHideFlags: 0
  m_PrefabParentObject: {fileID: 0}
  m_PrefabInternal: {fileID: 0}
  m_GameObject: {fileID: 0}
  m_Enabled: 1
  m_EditorHideFlags: 0
  m_Script: {fileID: -2076007791, guid: aa81bbec85a3f423193272a7c6154986, type: 3}
  m_Name: P39
  m_EditorClassIdentifier: 
  mSourceClip: {fileID: 8300000, guid: 220abb2d502afbb4c9c04b4d43c3ffc0, type: 3}
  mAudioFilePath: 
  mSampleRate: 44100
  mIgnoreLatencyOffset: 0
  mTempoSections:
  - sectionName: New Section
    startSample: 0
    samplesPerBeat: 22050
    beatsPerMeasure: 4
    bStartNewMeasure: 1
  - sectionName: New Section
    startSample: 1200
    samplesPerBeat: 24076.43312101911
    beatsPerMeasure: 2
    bStartNewMeasure: 1
  - sectionName: New Section
    startSample: 386422
    samplesPerBeat: 24076.43312101911
    beatsPerMeasure: 4
    bStartNewMeasure: 1
  - sectionName: New Section
    startSample: 1926540
    samplesPerBeat: 24076.43312101911
    beatsPerMeasure: 4
    bStartNewMeasure: 1
  - sectionName: New Section
    startSample: 3465900
    samplesPerBeat: 24076.43312101911
    beatsPerMeasure: 4
    bStartNewMeasure: 1
  mTracks:
  - {fileID: 11400000, guid: 16412536f1c797240af1e254abd69abc, type: 2}
  - {fileID: 11400000, guid: 6e730596b7a3fd0438c2225a3f9bd6a3, type: 2}
