%YAML 1.1
%TAG !u! tag:unity3d.com,2011:
--- !u!114 &11400000
MonoBehaviour:
  m_ObjectHideFlags: 0
  m_PrefabParentObject: {fileID: 0}
  m_PrefabInternal: {fileID: 0}
  m_GameObject: {fileID: 0}
  m_Enabled: 1
  m_EditorHideFlags: 0
  m_Script: {fileID: -2076007791, guid: aa81bbec85a3f423193272a7c6154986, type: 3}
  m_Name: P59
  m_EditorClassIdentifier: 
  mSourceClip: {fileID: 8300000, guid: 3db1c4fc88f0bb44fa3c9c7629152e88, type: 3}
  mAudioFilePath: 
  mSampleRate: 44100
  mIgnoreLatencyOffset: 0
  mTempoSections:
  - sectionName: New Section
    startSample: 0
    samplesPerBeat: 22050
    beatsPerMeasure: 4
    bStartNewMeasure: 1
  - sectionName: New Section
    startSample: 7300
    samplesPerBeat: 21000
    beatsPerMeasure: 4
    bStartNewMeasure: 1
  - sectionName: New Section
    startSample: 130901
    samplesPerBeat: 20511.627906976744
    beatsPerMeasure: 4
    bStartNewMeasure: 1
  - sectionName: New Section
    startSample: 259300
    samplesPerBeat: 20752.941176470587
    beatsPerMeasure: 4
    bStartNewMeasure: 1
  - sectionName: New Section
    startSample: 383817
    samplesPerBeat: 20511.627906976744
    beatsPerMeasure: 4
    bStartNewMeasure: 1
  - sectionName: New Section
    startSample: 629957
    samplesPerBeat: 20834.645669291338
    beatsPerMeasure: 3
    bStartNewMeasure: 1
  - sectionName: New Section
    startSample: 815815
    samplesPerBeat: 19894.736842105263
    beatsPerMeasure: 4
    bStartNewMeasure: 1
  - sectionName: New Section
    startSample: 845657
    samplesPerBeat: 20834.645669291338
    beatsPerMeasure: 4
    bStartNewMeasure: 1
  - sectionName: New Section
    startSample: 897743
    samplesPerBeat: 20834.645669291338
    beatsPerMeasure: 4
    bStartNewMeasure: 1
  - sectionName: New Section
    startSample: 1309201
    samplesPerBeat: 21512.195121951223
    beatsPerMeasure: 4
    bStartNewMeasure: 1
  - sectionName: New Section
    startSample: 1392612
    samplesPerBeat: 20834.645669291338
    beatsPerMeasure: 3
    bStartNewMeasure: 1
  - sectionName: New Section
    startSample: 1578720
    samplesPerBeat: 20511.627906976744
    beatsPerMeasure: 3
    bStartNewMeasure: 1
  - sectionName: New Section
    startSample: 1764588
    samplesPerBeat: 20671.875
    beatsPerMeasure: 3
    bStartNewMeasure: 1
  - sectionName: New Section
    startSample: 2332057
    samplesPerBeat: 20722.061242070642
    beatsPerMeasure: 3
    bStartNewMeasure: 1
  - sectionName: New Section
    startSample: 2955042
    samplesPerBeat: 20722.061242070642
    beatsPerMeasure: 4
    bStartNewMeasure: 1
  - sectionName: New Section
    startSample: 3025592
    samplesPerBeat: 20353.846153846156
    beatsPerMeasure: 4
    bStartNewMeasure: 1
  - sectionName: New Section
    startSample: 3192600
    samplesPerBeat: 21338.709677419352
    beatsPerMeasure: 4
    bStartNewMeasure: 1
  - sectionName: New Section
    startSample: 3275832
    samplesPerBeat: 20671.875
    beatsPerMeasure: 3
    bStartNewMeasure: 1
  - sectionName: New Section
    startSample: 3651624
    samplesPerBeat: 20353.846153846156
    beatsPerMeasure: 3
    bStartNewMeasure: 1
  mTracks:
  - {fileID: 11400000, guid: 5cfebe4e732a9bd4abff9c1dee956eda, type: 2}
  - {fileID: 11400000, guid: c50006a18325ca248949079b36ecc39c, type: 2}
