%YAML 1.1
%TAG !u! tag:unity3d.com,2011:
--- !u!114 &11400000
MonoBehaviour:
  m_ObjectHideFlags: 0
  m_PrefabParentObject: {fileID: 0}
  m_PrefabInternal: {fileID: 0}
  m_GameObject: {fileID: 0}
  m_Enabled: 1
  m_EditorHideFlags: 0
  m_Script: {fileID: -1223223985, guid: aa81bbec85a3f423193272a7c6154986, type: 3}
  m_Name: P14track
  m_EditorClassIdentifier: 
  mEventID: Note
  mEventList:
  - mStartSample: 1176
    mEndSample: 1176
  - mStartSample: 11760
    mEndSample: 11760
  - mStartSample: 22344
    mEndSample: 22344
  - mStartSample: 85904
    mEndSample: 85904
  - mStartSample: 96488
    mEndSample: 96488
  - mStartSample: 107072
    mEndSample: 107072
  - mStartSample: 170576
    mEndSample: 170576
  - mStartSample: 181160
    mEndSample: 181160
  - mStartSample: 191744
    mEndSample: 191744
  - mStartSample: 223496
    mEndSample: 223496
  - mStartSample: 255248
    mEndSample: 255248
  - mStartSample: 339920
    mEndSample: 339920
  - mStartSample: 350504
    mEndSample: 350504
  - mStartSample: 361088
    mEndSample: 361088
  - mStartSample: 424592
    mEndSample: 424592
  - mStartSample: 435176
    mEndSample: 435176
  - mStartSample: 445760
    mEndSample: 445760
  - mStartSample: 509264
    mEndSample: 509264
  - mStartSample: 519848
    mEndSample: 519848
  - mStartSample: 530432
    mEndSample: 530432
  - mStartSample: 562184
    mEndSample: 562184
  - mStartSample: 593936
    mEndSample: 593936
  - mStartSample: 678608
    mEndSample: 678608
  - mStartSample: 689192
    mEndSample: 689192
  - mStartSample: 699776
    mEndSample: 699776
  - mStartSample: 763280
    mEndSample: 763280
  - mStartSample: 773864
    mEndSample: 773864
  - mStartSample: 847952
    mEndSample: 847952
  - mStartSample: 858536
    mEndSample: 858536
  - mStartSample: 869120
    mEndSample: 869120
  - mStartSample: 900872
    mEndSample: 900872
  - mStartSample: 911456
    mEndSample: 911456
  - mStartSample: 932624
    mEndSample: 932624
  - mStartSample: 1017296
    mEndSample: 1017296
  - mStartSample: 1027880
    mEndSample: 1027880
  - mStartSample: 1101968
    mEndSample: 1101968
  - mStartSample: 1112552
    mEndSample: 1112552
  - mStartSample: 1186640
    mEndSample: 1186640
  - mStartSample: 1197224
    mEndSample: 1197224
  - mStartSample: 1207808
    mEndSample: 1207808
  - mStartSample: 1239560
    mEndSample: 1239560
  - mStartSample: 1250144
    mEndSample: 1250144
  - mStartSample: 1271312
    mEndSample: 1271312
  - mStartSample: 1345400
    mEndSample: 1345400
  - mStartSample: 1355984
    mEndSample: 1355984
  - mStartSample: 1366200
    mEndSample: 1366200
  - mStartSample: 1376102
    mEndSample: 1376102
  - mStartSample: 1427781
    mEndSample: 1427781
  - mStartSample: 1438117
    mEndSample: 1438117
  - mStartSample: 1448453
    mEndSample: 1448453
  - mStartSample: 1458789
    mEndSample: 1458789
  - mStartSample: 1500133
    mEndSample: 1500133
  - mStartSample: 1510469
    mEndSample: 1510469
  - mStartSample: 1520805
    mEndSample: 1520805
  - mStartSample: 1531141
    mEndSample: 1531141
  - mStartSample: 1541477
    mEndSample: 1541477
  - mStartSample: 1572484
    mEndSample: 1572484
  - mStartSample: 1593156
    mEndSample: 1593156
  - mStartSample: 1603492
    mEndSample: 1603492
  - mStartSample: 1644836
    mEndSample: 1644836
  - mStartSample: 1655172
    mEndSample: 1655172
  - mStartSample: 1665508
    mEndSample: 1665508
  - mStartSample: 1686180
    mEndSample: 1686180
  - mStartSample: 1696516
    mEndSample: 1696516
  - mStartSample: 1706852
    mEndSample: 1706852
  - mStartSample: 1727523
    mEndSample: 1727523
  - mStartSample: 1737859
    mEndSample: 1737859
  - mStartSample: 1748195
    mEndSample: 1748195
  - mStartSample: 1758531
    mEndSample: 1758531
  - mStartSample: 1768867
    mEndSample: 1768867
  - mStartSample: 1779203
    mEndSample: 1779203
  - mStartSample: 1789539
    mEndSample: 1789539
  - mStartSample: 1810211
    mEndSample: 1810211
  - mStartSample: 1820547
    mEndSample: 1820547
  - mStartSample: 1830883
    mEndSample: 1830883
  - mStartSample: 1851555
    mEndSample: 1851555
  - mStartSample: 1861891
    mEndSample: 1861891
  - mStartSample: 1872227
    mEndSample: 1872227
  - mStartSample: 1903234
    mEndSample: 1903234
  - mStartSample: 1934242
    mEndSample: 1934242
  - mStartSample: 1975586
    mEndSample: 1975586
  - mStartSample: 1985922
    mEndSample: 1985922
  - mStartSample: 1996258
    mEndSample: 1996258
  - mStartSample: 2006594
    mEndSample: 2006594
  - mStartSample: 2016930
    mEndSample: 2016930
  - mStartSample: 2027266
    mEndSample: 2027266
  - mStartSample: 2037602
    mEndSample: 2037602
  - mStartSample: 2058273
    mEndSample: 2058273
  - mStartSample: 2068609
    mEndSample: 2068609
  - mStartSample: 2078945
    mEndSample: 2078945
  - mStartSample: 2089281
    mEndSample: 2089281
  - mStartSample: 2099617
    mEndSample: 2099617
  - mStartSample: 2109953
    mEndSample: 2109953
  - mStartSample: 2120289
    mEndSample: 2120289
  - mStartSample: 2140961
    mEndSample: 2140961
  - mStartSample: 2151297
    mEndSample: 2151297
  - mStartSample: 2161633
    mEndSample: 2161633
  - mStartSample: 2182305
    mEndSample: 2182305
  - mStartSample: 2192641
    mEndSample: 2192641
  - mStartSample: 2202977
    mEndSample: 2202977
  - mStartSample: 2233984
    mEndSample: 2233984
  - mStartSample: 2264992
    mEndSample: 2264992
  - mStartSample: 2306336
    mEndSample: 2306336
  - mStartSample: 2316672
    mEndSample: 2316672
  - mStartSample: 2327008
    mEndSample: 2327008
  - mStartSample: 2347680
    mEndSample: 2347680
  - mStartSample: 2358016
    mEndSample: 2358016
  - mStartSample: 2368352
    mEndSample: 2368352
  - mStartSample: 2389023
    mEndSample: 2389023
  - mStartSample: 2399359
    mEndSample: 2399359
  - mStartSample: 2409695
    mEndSample: 2409695
  - mStartSample: 2420031
    mEndSample: 2420031
  - mStartSample: 2430367
    mEndSample: 2430367
  - mStartSample: 2440703
    mEndSample: 2440703
  - mStartSample: 2451039
    mEndSample: 2451039
  - mStartSample: 2482047
    mEndSample: 2482047
  - mStartSample: 2513055
    mEndSample: 2513055
  - mStartSample: 2523391
    mEndSample: 2523391
  - mStartSample: 2533727
    mEndSample: 2533727
  - mStartSample: 2564734
    mEndSample: 2564734
  - mStartSample: 2595742
    mEndSample: 2595742
  - mStartSample: 2647422
    mEndSample: 2647422
  - mStartSample: 2678430
    mEndSample: 2678430
  - mStartSample: 2688766
    mEndSample: 2688766
  - mStartSample: 2699102
    mEndSample: 2699102
  - mStartSample: 2730109
    mEndSample: 2730109
  - mStartSample: 2761117
    mEndSample: 2761117
  - mStartSample: 2771453
    mEndSample: 2771453
  - mStartSample: 2781789
    mEndSample: 2781789
  - mStartSample: 2812797
    mEndSample: 2812797
  - mStartSample: 2843805
    mEndSample: 2843805
  - mStartSample: 2854141
    mEndSample: 2854141
  - mStartSample: 2864477
    mEndSample: 2864477
  - mStartSample: 2895484
    mEndSample: 2895484
  - mStartSample: 2926492
    mEndSample: 2926492
  - mStartSample: 3032250
    mEndSample: 3032250
  - mStartSample: 3042585
    mEndSample: 3042585
  - mStartSample: 3052921
    mEndSample: 3052921
  - mStartSample: 3063257
    mEndSample: 3063257
  - mStartSample: 3073593
    mEndSample: 3073593
  - mStartSample: 3083929
    mEndSample: 3083929
  - mStartSample: 3094265
    mEndSample: 3094265
  - mStartSample: 3104601
    mEndSample: 3104601
  - mStartSample: 3114937
    mEndSample: 3114937
  - mStartSample: 3125273
    mEndSample: 3125273
  - mStartSample: 3135609
    mEndSample: 3135609
  - mStartSample: 3145945
    mEndSample: 3145945
  - mStartSample: 3156281
    mEndSample: 3156281
  - mStartSample: 3166617
    mEndSample: 3166617
  - mStartSample: 3176953
    mEndSample: 3176953
  - mStartSample: 3187289
    mEndSample: 3187289
  - mStartSample: 3197625
    mEndSample: 3197625
  - mStartSample: 3207960
    mEndSample: 3207960
  - mStartSample: 3218296
    mEndSample: 3218296
  - mStartSample: 3228632
    mEndSample: 3228632
  - mStartSample: 3238968
    mEndSample: 3238968
  - mStartSample: 3249304
    mEndSample: 3249304
  - mStartSample: 3259640
    mEndSample: 3259640
  - mStartSample: 3269976
    mEndSample: 3269976
  - mStartSample: 3280312
    mEndSample: 3280312
  - mStartSample: 3290648
    mEndSample: 3290648
  - mStartSample: 3300984
    mEndSample: 3300984
  - mStartSample: 3311320
    mEndSample: 3311320
  - mStartSample: 3321656
    mEndSample: 3321656
  - mStartSample: 3331992
    mEndSample: 3331992
  - mStartSample: 3342328
    mEndSample: 3342328
  - mStartSample: 3352664
    mEndSample: 3352664
  - mStartSample: 3363000
    mEndSample: 3363000
  - mStartSample: 3373335
    mEndSample: 3373335
  - mStartSample: 3383671
    mEndSample: 3383671
  - mStartSample: 3394007
    mEndSample: 3394007
  - mStartSample: 3404343
    mEndSample: 3404343
  - mStartSample: 3414679
    mEndSample: 3414679
  - mStartSample: 3425015
    mEndSample: 3425015
  - mStartSample: 3435351
    mEndSample: 3435351
  - mStartSample: 3445687
    mEndSample: 3445687
  - mStartSample: 3456023
    mEndSample: 3456023
  - mStartSample: 3466359
    mEndSample: 3466359
  - mStartSample: 3476695
    mEndSample: 3476695
  - mStartSample: 3487031
    mEndSample: 3487031
  - mStartSample: 3497367
    mEndSample: 3497367
  - mStartSample: 3507703
    mEndSample: 3507703
  - mStartSample: 3518039
    mEndSample: 3518039
  - mStartSample: 3528375
    mEndSample: 3528375
  - mStartSample: 3538710
    mEndSample: 3538710
  - mStartSample: 3549046
    mEndSample: 3549046
  - mStartSample: 3559382
    mEndSample: 3559382
  - mStartSample: 3569718
    mEndSample: 3569718
  - mStartSample: 3580054
    mEndSample: 3580054
  - mStartSample: 3590390
    mEndSample: 3590390
  - mStartSample: 3600726
    mEndSample: 3600726
  - mStartSample: 3611062
    mEndSample: 3611062
  - mStartSample: 3621398
    mEndSample: 3621398
  - mStartSample: 3631734
    mEndSample: 3631734
  - mStartSample: 3642070
    mEndSample: 3642070
  - mStartSample: 3652406
    mEndSample: 3652406
  - mStartSample: 3662742
    mEndSample: 3662742
  - mStartSample: 3673078
    mEndSample: 3673078
  - mStartSample: 3683414
    mEndSample: 3683414
  - mStartSample: 3693750
    mEndSample: 3693750
  - mStartSample: 3704085
    mEndSample: 3704085
  - mStartSample: 3714421
    mEndSample: 3714421
  - mStartSample: 3724757
    mEndSample: 3724757
  - mStartSample: 3735093
    mEndSample: 3735093
  - mStartSample: 3745429
    mEndSample: 3745429
  - mStartSample: 3755765
    mEndSample: 3755765
  - mStartSample: 3766101
    mEndSample: 3766101
  - mStartSample: 3776437
    mEndSample: 3776437
  - mStartSample: 3786773
    mEndSample: 3786773
  - mStartSample: 3797109
    mEndSample: 3797109
  - mStartSample: 3807445
    mEndSample: 3807445
  - mStartSample: 3817781
    mEndSample: 3817781
  - mStartSample: 3828117
    mEndSample: 3828117
  - mStartSample: 3838453
    mEndSample: 3838453
  - mStartSample: 3848789
    mEndSample: 3848789
  - mStartSample: 3859125
    mEndSample: 3859125
  - mStartSample: 3869460
    mEndSample: 3869460
  - mStartSample: 3879796
    mEndSample: 3879796
  - mStartSample: 3890132
    mEndSample: 3890132
  - mStartSample: 3900468
    mEndSample: 3900468
  - mStartSample: 3910804
    mEndSample: 3910804
  - mStartSample: 3921140
    mEndSample: 3921140
  - mStartSample: 3931476
    mEndSample: 3931476
  - mStartSample: 3941812
    mEndSample: 3941812
  - mStartSample: 3952148
    mEndSample: 3952148
  - mStartSample: 3962484
    mEndSample: 3962484
  - mStartSample: 3972820
    mEndSample: 3972820
  - mStartSample: 3983156
    mEndSample: 3983156
  - mStartSample: 3993492
    mEndSample: 3993492
  - mStartSample: 4003828
    mEndSample: 4003828
  - mStartSample: 4014164
    mEndSample: 4014164
  - mStartSample: 4024500
    mEndSample: 4024500
  - mStartSample: 4034835
    mEndSample: 4034835
  - mStartSample: 4045171
    mEndSample: 4045171
  - mStartSample: 4055507
    mEndSample: 4055507
  - mStartSample: 4065843
    mEndSample: 4065843
  - mStartSample: 4076179
    mEndSample: 4076179
  - mStartSample: 4086515
    mEndSample: 4086515
  - mStartSample: 4096851
    mEndSample: 4096851
  - mStartSample: 4107187
    mEndSample: 4107187
  - mStartSample: 4117523
    mEndSample: 4117523
  - mStartSample: 4127859
    mEndSample: 4127859
  - mStartSample: 4138195
    mEndSample: 4138195
  - mStartSample: 4148531
    mEndSample: 4148531
  - mStartSample: 4158867
    mEndSample: 4158867
  - mStartSample: 4169203
    mEndSample: 4169203
  - mStartSample: 4179539
    mEndSample: 4179539
  - mStartSample: 4189875
    mEndSample: 4189875
  - mStartSample: 4200210
    mEndSample: 4200210
  - mStartSample: 4210546
    mEndSample: 4210546
  - mStartSample: 4220882
    mEndSample: 4220882
  - mStartSample: 4231218
    mEndSample: 4231218
  - mStartSample: 4241554
    mEndSample: 4241554
  - mStartSample: 4251890
    mEndSample: 4251890
  - mStartSample: 4262226
    mEndSample: 4262226
  - mStartSample: 4272562
    mEndSample: 4272562
  - mStartSample: 4335570
    mEndSample: 4335570
  - mStartSample: 4346692
    mEndSample: 4346692
  - mStartSample: 4357412
    mEndSample: 4357412
  - mStartSample: 4367028
    mEndSample: 4367028
  - mStartSample: 4430532
    mEndSample: 4430532
  - mStartSample: 4441116
    mEndSample: 4441116
  - mStartSample: 4451700
    mEndSample: 4451700
  - mStartSample: 4515204
    mEndSample: 4515204
  - mStartSample: 4525788
    mEndSample: 4525788
  - mStartSample: 4536372
    mEndSample: 4536372
  - mStartSample: 4568124
    mEndSample: 4568124
  - mStartSample: 4599876
    mEndSample: 4599876
  - mStartSample: 4684548
    mEndSample: 4684548
  - mStartSample: 4695132
    mEndSample: 4695132
  - mStartSample: 4705716
    mEndSample: 4705716
  - mStartSample: 4769220
    mEndSample: 4769220
  - mStartSample: 4779804
    mEndSample: 4779804
  - mStartSample: 4790388
    mEndSample: 4790388
  - mStartSample: 4853892
    mEndSample: 4853892
  - mStartSample: 4864476
    mEndSample: 4864476
  - mStartSample: 4875060
    mEndSample: 4875060
  - mStartSample: 4906812
    mEndSample: 4906812
  - mStartSample: 4938564
    mEndSample: 4938564
  - mStartSample: 5002068
    mEndSample: 5002068
  - mStartSample: 5012652
    mEndSample: 5012652
  - mStartSample: 5023236
    mEndSample: 5023236
  - mStartSample: 5033820
    mEndSample: 5033820
  - mStartSample: 5044404
    mEndSample: 5044404
  - mStartSample: 5054988
    mEndSample: 5054988
  - mStartSample: 5065572
    mEndSample: 5065572
  - mStartSample: 5076156
    mEndSample: 5076156
  - mStartSample: 5086740
    mEndSample: 5086740
  - mStartSample: 5097324
    mEndSample: 5097324
  - mStartSample: 5107908
    mEndSample: 5107908
  - mStartSample: 5118492
    mEndSample: 5118492
  - mStartSample: 5128162
    mEndSample: 5128162
  - mStartSample: 5138653
    mEndSample: 5138653
  - mStartSample: 5149145
    mEndSample: 5149145
  - mStartSample: 5159637
    mEndSample: 5159637
  - mStartSample: 5170128
    mEndSample: 5170128
  - mStartSample: 5180620
    mEndSample: 5180620
  - mStartSample: 5191112
    mEndSample: 5191112
  - mStartSample: 5201603
    mEndSample: 5201603
  - mStartSample: 5212095
    mEndSample: 5212095
  - mStartSample: 5222587
    mEndSample: 5222587
  - mStartSample: 5233078
    mEndSample: 5233078
  - mStartSample: 5243570
    mEndSample: 5243570
  - mStartSample: 5254062
    mEndSample: 5254062
  - mStartSample: 5264553
    mEndSample: 5264553
  - mStartSample: 5275045
    mEndSample: 5275045
  - mStartSample: 5285537
    mEndSample: 5285537
  - mStartSample: 5296028
    mEndSample: 5296028
  - mStartSample: 5306520
    mEndSample: 5306520
  - mStartSample: 5317012
    mEndSample: 5317012
  - mStartSample: 5327503
    mEndSample: 5327503
  - mStartSample: 5337995
    mEndSample: 5337995
  - mStartSample: 5348487
    mEndSample: 5348487
  - mStartSample: 5358978
    mEndSample: 5358978
  - mStartSample: 5369470
    mEndSample: 5369470
  - mStartSample: 5379962
    mEndSample: 5379962
  - mStartSample: 5390453
    mEndSample: 5390453
  - mStartSample: 5400945
    mEndSample: 5400945
  - mStartSample: 5411437
    mEndSample: 5411437
  - mStartSample: 5421928
    mEndSample: 5421928
  - mStartSample: 5432420
    mEndSample: 5432420
  - mStartSample: 5442912
    mEndSample: 5442912
  - mStartSample: 5453403
    mEndSample: 5453403
  - mStartSample: 5463895
    mEndSample: 5463895
  - mStartSample: 5474387
    mEndSample: 5474387
  - mStartSample: 5484878
    mEndSample: 5484878
  - mStartSample: 5495370
    mEndSample: 5495370
  - mStartSample: 5505862
    mEndSample: 5505862
  - mStartSample: 5516353
    mEndSample: 5516353
  - mStartSample: 5526845
    mEndSample: 5526845
  - mStartSample: 5537337
    mEndSample: 5537337
  - mStartSample: 5547828
    mEndSample: 5547828
  - mStartSample: 5558320
    mEndSample: 5558320
  - mStartSample: 5568812
    mEndSample: 5568812
  - mStartSample: 5579303
    mEndSample: 5579303
  - mStartSample: 5589795
    mEndSample: 5589795
  - mStartSample: 5600287
    mEndSample: 5600287
  - mStartSample: 5610778
    mEndSample: 5610778
  - mStartSample: 5621270
    mEndSample: 5621270
  - mStartSample: 5630592
    mEndSample: 5630592
  - mStartSample: 5640944
    mEndSample: 5640944
  - mStartSample: 5651296
    mEndSample: 5651296
  - mStartSample: 5661648
    mEndSample: 5661648
  - mStartSample: 5672000
    mEndSample: 5672000
  - mStartSample: 5682352
    mEndSample: 5682352
  - mStartSample: 5692704
    mEndSample: 5692704
  - mStartSample: 5703056
    mEndSample: 5703056
  - mStartSample: 5713408
    mEndSample: 5713408
  - mStartSample: 5723761
    mEndSample: 5723761
  - mStartSample: 5734113
    mEndSample: 5734113
  - mStartSample: 5744465
    mEndSample: 5744465
  - mStartSample: 5754817
    mEndSample: 5754817
  - mStartSample: 5765169
    mEndSample: 5765169
  - mStartSample: 5775521
    mEndSample: 5775521
  - mStartSample: 5785873
    mEndSample: 5785873
  - mStartSample: 5796225
    mEndSample: 5796225
  - mStartSample: 5806577
    mEndSample: 5806577
  - mStartSample: 5816930
    mEndSample: 5816930
  - mStartSample: 5827282
    mEndSample: 5827282
  - mStartSample: 5837634
    mEndSample: 5837634
  - mStartSample: 5847986
    mEndSample: 5847986
  - mStartSample: 5858338
    mEndSample: 5858338
  - mStartSample: 5868690
    mEndSample: 5868690
  - mStartSample: 5879042
    mEndSample: 5879042
  - mStartSample: 5889395
    mEndSample: 5889395
  - mStartSample: 5899747
    mEndSample: 5899747
  - mStartSample: 5910099
    mEndSample: 5910099
  - mStartSample: 5920451
    mEndSample: 5920451
  - mStartSample: 5930803
    mEndSample: 5930803
  - mStartSample: 5941155
    mEndSample: 5941155
  - mStartSample: 5951507
    mEndSample: 5951507
  - mStartSample: 5961859
    mEndSample: 5961859
  - mStartSample: 5972211
    mEndSample: 5972211
  - mStartSample: 5982564
    mEndSample: 5982564
  - mStartSample: 5992916
    mEndSample: 5992916
  - mStartSample: 6003268
    mEndSample: 6003268
  - mStartSample: 6013620
    mEndSample: 6013620
  - mStartSample: 6023972
    mEndSample: 6023972
  - mStartSample: 6034324
    mEndSample: 6034324
  - mStartSample: 6044676
    mEndSample: 6044676
  - mStartSample: 6055029
    mEndSample: 6055029
  - mStartSample: 6065381
    mEndSample: 6065381
  - mStartSample: 6075733
    mEndSample: 6075733
  - mStartSample: 6086085
    mEndSample: 6086085
  - mStartSample: 6096437
    mEndSample: 6096437
  - mStartSample: 6106789
    mEndSample: 6106789
  - mStartSample: 6117141
    mEndSample: 6117141
  - mStartSample: 6127493
    mEndSample: 6127493
  - mStartSample: 6137845
    mEndSample: 6137845
  - mStartSample: 6148198
    mEndSample: 6148198
  - mStartSample: 6158550
    mEndSample: 6158550
  - mStartSample: 6168902
    mEndSample: 6168902
  - mStartSample: 6179254
    mEndSample: 6179254
  - mStartSample: 6189606
    mEndSample: 6189606
  - mStartSample: 6199958
    mEndSample: 6199958
  - mStartSample: 6210310
    mEndSample: 6210310
  - mStartSample: 6220663
    mEndSample: 6220663
  - mStartSample: 6231015
    mEndSample: 6231015
  - mStartSample: 6241367
    mEndSample: 6241367
  - mStartSample: 6251719
    mEndSample: 6251719
  - mStartSample: 6262071
    mEndSample: 6262071
  - mStartSample: 6272423
    mEndSample: 6272423
  - mStartSample: 6282775
    mEndSample: 6282775
  - mStartSample: 6293127
    mEndSample: 6293127
  - mStartSample: 6303479
    mEndSample: 6303479
  - mStartSample: 6313832
    mEndSample: 6313832
  - mStartSample: 6324184
    mEndSample: 6324184
  - mStartSample: 6334536
    mEndSample: 6334536
  - mStartSample: 6344888
    mEndSample: 6344888
  - mStartSample: 6355240
    mEndSample: 6355240
  - mStartSample: 6365592
    mEndSample: 6365592
  - mStartSample: 6375944
    mEndSample: 6375944
  - mStartSample: 6386255
    mEndSample: 6386255
  - mStartSample: 6396567
    mEndSample: 6396567
  - mStartSample: 6406879
    mEndSample: 6406879
  - mStartSample: 6417191
    mEndSample: 6417191
  - mStartSample: 6427502
    mEndSample: 6427502
  - mStartSample: 6437814
    mEndSample: 6437814
  - mStartSample: 6448126
    mEndSample: 6448126
  - mStartSample: 6458438
    mEndSample: 6458438
  - mStartSample: 6468750
    mEndSample: 6468750
  - mStartSample: 6479061
    mEndSample: 6479061
  - mStartSample: 6489373
    mEndSample: 6489373
  - mStartSample: 6499685
    mEndSample: 6499685
  - mStartSample: 6509997
    mEndSample: 6509997
  - mStartSample: 6520308
    mEndSample: 6520308
  - mStartSample: 6530620
    mEndSample: 6530620
  - mStartSample: 6540932
    mEndSample: 6540932
  - mStartSample: 6551243
    mEndSample: 6551243
  - mStartSample: 6561555
    mEndSample: 6561555
  - mStartSample: 6571867
    mEndSample: 6571867
  - mStartSample: 6582179
    mEndSample: 6582179
  - mStartSample: 6592490
    mEndSample: 6592490
  - mStartSample: 6602802
    mEndSample: 6602802
  - mStartSample: 6613114
    mEndSample: 6613114
  - mStartSample: 6623426
    mEndSample: 6623426
  - mStartSample: 6633738
    mEndSample: 6633738
  - mStartSample: 6644049
    mEndSample: 6644049
  - mStartSample: 6654361
    mEndSample: 6654361
  - mStartSample: 6664673
    mEndSample: 6664673
  - mStartSample: 6674985
    mEndSample: 6674985
  - mStartSample: 6685296
    mEndSample: 6685296
  - mStartSample: 6695608
    mEndSample: 6695608
  - mStartSample: 6705920
    mEndSample: 6705920
  - mStartSample: 6716231
    mEndSample: 6716231
  - mStartSample: 6726543
    mEndSample: 6726543
  - mStartSample: 6736855
    mEndSample: 6736855
  - mStartSample: 6747167
    mEndSample: 6747167
  - mStartSample: 6757478
    mEndSample: 6757478
  - mStartSample: 6767790
    mEndSample: 6767790
  - mStartSample: 6778102
    mEndSample: 6778102
  - mStartSample: 6788414
    mEndSample: 6788414
  - mStartSample: 6798726
    mEndSample: 6798726
  - mStartSample: 6809037
    mEndSample: 6809037
  - mStartSample: 6819349
    mEndSample: 6819349
  - mStartSample: 6829661
    mEndSample: 6829661
  - mStartSample: 6839973
    mEndSample: 6839973
  - mStartSample: 6850284
    mEndSample: 6850284
  - mStartSample: 6860596
    mEndSample: 6860596
  - mStartSample: 6870909
    mEndSample: 6870909
  - mStartSample: 6901844
    mEndSample: 6901844
  - mStartSample: 6932779
    mEndSample: 6932779
  - mStartSample: 6953403
    mEndSample: 6953403
  - mStartSample: 7016016
    mEndSample: 7016016
  - mStartSample: 7025896
    mEndSample: 7025896
  - mStartSample: 7037712
    mEndSample: 7037712
  - mStartSample: 7099582
    mEndSample: 7099582
  - mStartSample: 7109894
    mEndSample: 7109894
  - mStartSample: 7120206
    mEndSample: 7120206
  - mStartSample: 7182076
    mEndSample: 7182076
  - mStartSample: 7192388
    mEndSample: 7192388
  - mStartSample: 7202700
    mEndSample: 7202700
  - mStartSample: 7235340
    mEndSample: 7235340
  - mStartSample: 7266504
    mEndSample: 7266504
  - mStartSample: 7351667
    mEndSample: 7351667
  - mStartSample: 7363080
    mEndSample: 7363080
  - mStartSample: 7374154
    mEndSample: 7374154
  - mStartSample: 7384692
    mEndSample: 7384692
  - mStartSample: 7450842
    mEndSample: 7450842
  - mStartSample: 7461867
    mEndSample: 7461867
  - mStartSample: 7472892
    mEndSample: 7472892
  - mStartSample: 7539042
    mEndSample: 7539042
  - mStartSample: 7550067
    mEndSample: 7550067
  - mStartSample: 7561092
    mEndSample: 7561092
  - mStartSample: 7594167
    mEndSample: 7594167
  - mStartSample: 7627242
    mEndSample: 7627242
  - mStartSample: 7649292
    mEndSample: 7649292
  - mStartSample: 7704417
    mEndSample: 7704417
  - mStartSample: 7715442
    mEndSample: 7715442
  - mStartSample: 7726467
    mEndSample: 7726467
  - mStartSample: 7737492
    mEndSample: 7737492
  - mStartSample: 7803642
    mEndSample: 7803642
  - mStartSample: 7814667
    mEndSample: 7814667
  - mStartSample: 7825692
    mEndSample: 7825692
  - mStartSample: 7891842
    mEndSample: 7891842
  - mStartSample: 7902867
    mEndSample: 7902867
  - mStartSample: 7913892
    mEndSample: 7913892
  - mStartSample: 7946967
    mEndSample: 7946967
  - mStartSample: 7980042
    mEndSample: 7980042
  - mStartSample: 8002092
    mEndSample: 8002092
  - mStartSample: 8057217
    mEndSample: 8057217
  - mStartSample: 8068242
    mEndSample: 8068242
  - mStartSample: 8079267
    mEndSample: 8079267
  - mStartSample: 8090292
    mEndSample: 8090292
  - mStartSample: 8156442
    mEndSample: 8156442
  - mStartSample: 8167467
    mEndSample: 8167467
  - mStartSample: 8178492
    mEndSample: 8178492
  - mStartSample: 8244642
    mEndSample: 8244642
  - mStartSample: 8255667
    mEndSample: 8255667
  - mStartSample: 8266692
    mEndSample: 8266692
  - mStartSample: 8299767
    mEndSample: 8299767
  - mStartSample: 8332842
    mEndSample: 8332842
  - mStartSample: 8354892
    mEndSample: 8354892
  - mStartSample: 8421042
    mEndSample: 8421042
  - mStartSample: 8432067
    mEndSample: 8432067
  - mStartSample: 8443092
    mEndSample: 8443092
  - mStartSample: 8512602
    mEndSample: 8512602
  - mStartSample: 8524411
    mEndSample: 8524411
  - mStartSample: 8537184
    mEndSample: 8537184
  - mStartSample: 8606833
    mEndSample: 8606833
  - mStartSample: 8618160
    mEndSample: 8618160
  - mStartSample: 8630933
    mEndSample: 8630933
  - mStartSample: 8666601
    mEndSample: 8666601
  - mStartSample: 8703956
    mEndSample: 8703956
  - mStartSample: 8735527
    mEndSample: 8735527
  _SerializedPayloadTypes:
  - SonicBloom.Koreo.TextPayload
  _AssetPayloads: []
  _AssetPayloadIdxs: 
  _ColorPayloads: []
  _ColorPayloadIdxs: 
  _CurvePayloads: []
  _CurvePayloadIdxs: 
  _FloatPayloads: []
  _FloatPayloadIdxs: 
  _GradientPayloads: []
  _GradientPayloadIdxs: 
  _IntPayloads: []
  _IntPayloadIdxs: 
  _SpectrumPayloads: []
  _SpectrumPayloadIdxs: 
  _TextPayloads:
  - mTextVal: 1
  - mTextVal: 7
  - mTextVal: 1
  - mTextVal: 7
  - mTextVal: 1
  - mTextVal: 7
  - mTextVal: 1
  - mTextVal: 7
  - mTextVal: 1
  - mTextVal: 7
  - mTextVal: 1
  - mTextVal: 7
  - mTextVal: 1
  - mTextVal: 7
  - mTextVal: 1
  - mTextVal: 7
  - mTextVal: 1
  - mTextVal: 7
  - mTextVal: 1
  - mTextVal: 7
  - mTextVal: 1
  - mTextVal: 7
  - mTextVal: 1
  - mTextVal: 7
  - mTextVal: 1
  - mTextVal: 7
  - mTextVal: 1
  - mTextVal: 7
  - mTextVal: 1
  - mTextVal: 7
  - mTextVal: 1
  - mTextVal: 7
  - mTextVal: 1
  - mTextVal: 7
  - mTextVal: 1
  - mTextVal: 7
  - mTextVal: 1
  - mTextVal: 7
  - mTextVal: 1
  - mTextVal: 7
  - mTextVal: 1
  - mTextVal: 7
  - mTextVal: 1
  - mTextVal: 7
  - mTextVal: 1
  - mTextVal: 7
  - mTextVal: 1
  - mTextVal: 7
  - mTextVal: 1
  - mTextVal: 7
  - mTextVal: 1
  - mTextVal: 7
  - mTextVal: 1
  - mTextVal: 7
  - mTextVal: 1
  - mTextVal: 7
  - mTextVal: 1
  - mTextVal: 7
  - mTextVal: 1
  - mTextVal: 7
  - mTextVal: 1
  - mTextVal: 7
  - mTextVal: 1
  - mTextVal: 7
  - mTextVal: 1
  - mTextVal: 7
  - mTextVal: 1
  - mTextVal: 7
  - mTextVal: 1
  - mTextVal: 7
  - mTextVal: 1
  - mTextVal: 7
  - mTextVal: 1
  - mTextVal: 7
  - mTextVal: 1
  - mTextVal: 7
  - mTextVal: 1
  - mTextVal: 7
  - mTextVal: 1
  - mTextVal: 7
  - mTextVal: 1
  - mTextVal: 7
  - mTextVal: 1
  - mTextVal: 7
  - mTextVal: 1
  - mTextVal: 7
  - mTextVal: 1
  - mTextVal: 7
  _TextPayloadIdxs: 0000000002000000030000000500000006000000080000000b0000000d0000000e00000010000000110000001300000016000000180000001b0000001d00000025000000270000002b0000002e0000002f0000003200000033000000370000003b000000400000004100000047000000480000004d0000005000000056000000570000005d0000005e00000063000000660000006b0000006c00000072000000870000009600000097000000a6000000a7000000b6000000b7000000c6000000c7000000d6000000d7000000e6000000e7000000ff000000040100000601000007010000090100000c0100000e0100000f010000110100001201000014010000170100001b0100001c0100001f0100002001000023010000240100003b0100003c0100005a0100005b0100006a0100006b0100007a0100007b0100008a0100008b0100009a0100009b010000aa010000ab010000ba010000bb010000ca010000
