%YAML 1.1
%TAG !u! tag:unity3d.com,2011:
--- !u!114 &11400000
MonoBehaviour:
  m_ObjectHideFlags: 0
  m_PrefabParentObject: {fileID: 0}
  m_PrefabInternal: {fileID: 0}
  m_GameObject: {fileID: 0}
  m_Enabled: 1
  m_EditorHideFlags: 0
  m_Script: {fileID: -1223223985, guid: aa81bbec85a3f423193272a7c6154986, type: 3}
  m_Name: P11track
  m_EditorClassIdentifier: 
  mEventID: Note
  mEventList:
  - mStartSample: 3000
    mEndSample: 3000
  - mStartSample: 10603
    mEndSample: 10603
  - mStartSample: 18206
    mEndSample: 18206
  - mStartSample: 25810
    mEndSample: 25810
  - mStartSample: 33413
    mEndSample: 33413
  - mStartSample: 41017
    mEndSample: 41017
  - mStartSample: 48620
    mEndSample: 48620
  - mStartSample: 56224
    mEndSample: 56224
  - mStartSample: 63827
    mEndSample: 63827
  - mStartSample: 71431
    mEndSample: 71431
  - mStartSample: 79034
    mEndSample: 79034
  - mStartSample: 86637
    mEndSample: 86637
  - mStartSample: 94241
    mEndSample: 94241
  - mStartSample: 101844
    mEndSample: 101844
  - mStartSample: 109448
    mEndSample: 109448
  - mStartSample: 117051
    mEndSample: 117051
  - mStartSample: 124655
    mEndSample: 124655
  - mStartSample: 139862
    mEndSample: 139862
  - mStartSample: 155068
    mEndSample: 155068
  - mStartSample: 200689
    mEndSample: 200689
  - mStartSample: 208293
    mEndSample: 208293
  - mStartSample: 215896
    mEndSample: 215896
  - mStartSample: 231103
    mEndSample: 231103
  - mStartSample: 238706
    mEndSample: 238706
  - mStartSample: 246310
    mEndSample: 246310
  - mStartSample: 261517
    mEndSample: 261517
  - mStartSample: 269120
    mEndSample: 269120
  - mStartSample: 276724
    mEndSample: 276724
  - mStartSample: 291931
    mEndSample: 291931
  - mStartSample: 307137
    mEndSample: 307137
  - mStartSample: 375568
    mEndSample: 375568
  - mStartSample: 383172
    mEndSample: 383172
  - mStartSample: 390775
    mEndSample: 390775
  - mStartSample: 398379
    mEndSample: 398379
  - mStartSample: 436396
    mEndSample: 436396
  - mStartSample: 444000
    mEndSample: 444000
  - mStartSample: 451603
    mEndSample: 451603
  - mStartSample: 459206
    mEndSample: 459206
  - mStartSample: 497224
    mEndSample: 497224
  - mStartSample: 504827
    mEndSample: 504827
  - mStartSample: 512431
    mEndSample: 512431
  - mStartSample: 520034
    mEndSample: 520034
  - mStartSample: 550448
    mEndSample: 550448
  - mStartSample: 558051
    mEndSample: 558051
  - mStartSample: 565655
    mEndSample: 565655
  - mStartSample: 573258
    mEndSample: 573258
  - mStartSample: 580862
    mEndSample: 580862
  - mStartSample: 588465
    mEndSample: 588465
  - mStartSample: 596068
    mEndSample: 596068
  - mStartSample: 603672
    mEndSample: 603672
  - mStartSample: 611275
    mEndSample: 611275
  - mStartSample: 618879
    mEndSample: 618879
  - mStartSample: 626482
    mEndSample: 626482
  - mStartSample: 634086
    mEndSample: 634086
  - mStartSample: 641689
    mEndSample: 641689
  - mStartSample: 649293
    mEndSample: 649293
  - mStartSample: 656896
    mEndSample: 656896
  - mStartSample: 664500
    mEndSample: 664500
  - mStartSample: 672103
    mEndSample: 672103
  - mStartSample: 685314
    mEndSample: 685314
  - mStartSample: 692917
    mEndSample: 692917
  - mStartSample: 700521
    mEndSample: 700521
  - mStartSample: 715728
    mEndSample: 715728
  - mStartSample: 723331
    mEndSample: 723331
  - mStartSample: 730935
    mEndSample: 730935
  - mStartSample: 738538
    mEndSample: 738538
  - mStartSample: 746141
    mEndSample: 746141
  - mStartSample: 753745
    mEndSample: 753745
  - mStartSample: 761348
    mEndSample: 761348
  - mStartSample: 776555
    mEndSample: 776555
  - mStartSample: 791762
    mEndSample: 791762
  - mStartSample: 881784
    mEndSample: 881784
  - mStartSample: 895437
    mEndSample: 895437
  - mStartSample: 910422
    mEndSample: 910422
  - mStartSample: 940610
    mEndSample: 940610
  - mStartSample: 955704
    mEndSample: 955704
  - mStartSample: 970798
    mEndSample: 970798
  - mStartSample: 1000986
    mEndSample: 1000986
  - mStartSample: 1016080
    mEndSample: 1016080
  - mStartSample: 1031174
    mEndSample: 1031174
  - mStartSample: 1121739
    mEndSample: 1121739
  - mStartSample: 1136833
    mEndSample: 1136833
  - mStartSample: 1151927
    mEndSample: 1151927
  - mStartSample: 1189663
    mEndSample: 1189663
  - mStartSample: 1197210
    mEndSample: 1197210
  - mStartSample: 1230102
    mEndSample: 1230102
  - mStartSample: 1245196
    mEndSample: 1245196
  - mStartSample: 1260290
    mEndSample: 1260290
  - mStartSample: 1275384
    mEndSample: 1275384
  - mStartSample: 1314684
    mEndSample: 1314684
  - mStartSample: 1322231
    mEndSample: 1322231
  - mStartSample: 1352979
    mEndSample: 1352979
  - mStartSample: 1368073
    mEndSample: 1368073
  - mStartSample: 1383167
    mEndSample: 1383167
  - mStartSample: 1403262
    mEndSample: 1403262
  - mStartSample: 1410810
    mEndSample: 1410810
  - mStartSample: 1423622
    mEndSample: 1423622
  - mStartSample: 1431169
    mEndSample: 1431169
  - mStartSample: 1441440
    mEndSample: 1441440
  - mStartSample: 1453320
    mEndSample: 1453320
  - mStartSample: 1465794
    mEndSample: 1465794
  - mStartSample: 1479258
    mEndSample: 1479258
  - mStartSample: 1495098
    mEndSample: 1495098
  - mStartSample: 1513425
    mEndSample: 1513425
  - mStartSample: 1526175
    mEndSample: 1526175
  - mStartSample: 1540965
    mEndSample: 1540965
  - mStartSample: 1558050
    mEndSample: 1558050
  - mStartSample: 1589657
    mEndSample: 1589657
  - mStartSample: 1600380
    mEndSample: 1600380
  - mStartSample: 1611103
    mEndSample: 1611103
  - mStartSample: 1621827
    mEndSample: 1621827
  - mStartSample: 1632550
    mEndSample: 1632550
  - mStartSample: 1643274
    mEndSample: 1643274
  - mStartSample: 1653997
    mEndSample: 1653997
  - mStartSample: 1664720
    mEndSample: 1664720
  - mStartSample: 1675443
    mEndSample: 1675443
  - mStartSample: 1686167
    mEndSample: 1686167
  - mStartSample: 1696890
    mEndSample: 1696890
  - mStartSample: 1707614
    mEndSample: 1707614
  - mStartSample: 1718337
    mEndSample: 1718337
  - mStartSample: 1729060
    mEndSample: 1729060
  - mStartSample: 1739783
    mEndSample: 1739783
  - mStartSample: 1750507
    mEndSample: 1750507
  - mStartSample: 1761230
    mEndSample: 1761230
  - mStartSample: 1771954
    mEndSample: 1771954
  - mStartSample: 1782678
    mEndSample: 1782678
  - mStartSample: 1798428
    mEndSample: 1798428
  - mStartSample: 1814178
    mEndSample: 1814178
  - mStartSample: 1861428
    mEndSample: 1861428
  - mStartSample: 1869303
    mEndSample: 1869303
  - mStartSample: 1877178
    mEndSample: 1877178
  - mStartSample: 1892928
    mEndSample: 1892928
  - mStartSample: 1900803
    mEndSample: 1900803
  - mStartSample: 1908678
    mEndSample: 1908678
  - mStartSample: 1924428
    mEndSample: 1924428
  - mStartSample: 1932303
    mEndSample: 1932303
  - mStartSample: 1940178
    mEndSample: 1940178
  - mStartSample: 1953208
    mEndSample: 1953208
  - mStartSample: 1968958
    mEndSample: 1968958
  - mStartSample: 2037784
    mEndSample: 2037784
  - mStartSample: 2045431
    mEndSample: 2045431
  - mStartSample: 2053079
    mEndSample: 2053079
  - mStartSample: 2060726
    mEndSample: 2060726
  - mStartSample: 2098963
    mEndSample: 2098963
  - mStartSample: 2106611
    mEndSample: 2106611
  - mStartSample: 2114258
    mEndSample: 2114258
  - mStartSample: 2121905
    mEndSample: 2121905
  - mStartSample: 2160142
    mEndSample: 2160142
  - mStartSample: 2167790
    mEndSample: 2167790
  - mStartSample: 2175437
    mEndSample: 2175437
  - mStartSample: 2183085
    mEndSample: 2183085
  - mStartSample: 2337881
    mEndSample: 2337881
  - mStartSample: 2353429
    mEndSample: 2353429
  - mStartSample: 2369575
    mEndSample: 2369575
  - mStartSample: 2401263
    mEndSample: 2401263
  - mStartSample: 2417107
    mEndSample: 2417107
  - mStartSample: 2432952
    mEndSample: 2432952
  - mStartSample: 2443515
    mEndSample: 2443515
  - mStartSample: 2454077
    mEndSample: 2454077
  - mStartSample: 2464640
    mEndSample: 2464640
  - mStartSample: 2480485
    mEndSample: 2480485
  - mStartSample: 2496329
    mEndSample: 2496329
  - mStartSample: 2528018
    mEndSample: 2528018
  - mStartSample: 2543862
    mEndSample: 2543862
  - mStartSample: 2559706
    mEndSample: 2559706
  - mStartSample: 2570269
    mEndSample: 2570269
  - mStartSample: 2580832
    mEndSample: 2580832
  - mStartSample: 2591395
    mEndSample: 2591395
  - mStartSample: 2607239
    mEndSample: 2607239
  - mStartSample: 2626104
    mEndSample: 2626104
  - mStartSample: 2636667
    mEndSample: 2636667
  - mStartSample: 2647230
    mEndSample: 2647230
  - mStartSample: 2657793
    mEndSample: 2657793
  - mStartSample: 2690400
    mEndSample: 2690400
  - mStartSample: 2706834
    mEndSample: 2706834
  - mStartSample: 2723269
    mEndSample: 2723269
  - mStartSample: 2731486
    mEndSample: 2731486
  - mStartSample: 2747921
    mEndSample: 2747921
  - mStartSample: 2756139
    mEndSample: 2756139
  - mStartSample: 2772573
    mEndSample: 2772573
  - mStartSample: 2789008
    mEndSample: 2789008
  - mStartSample: 2854146
    mEndSample: 2854146
  - mStartSample: 2870280
    mEndSample: 2870280
  - mStartSample: 2886414
    mEndSample: 2886414
  - mStartSample: 2947744
    mEndSample: 2947744
  - mStartSample: 2963878
    mEndSample: 2963878
  - mStartSample: 2980012
    mEndSample: 2980012
  - mStartSample: 2988079
    mEndSample: 2988079
  - mStartSample: 2996146
    mEndSample: 2996146
  - mStartSample: 3004213
    mEndSample: 3004213
  - mStartSample: 3012280
    mEndSample: 3012280
  - mStartSample: 3028414
    mEndSample: 3028414
  - mStartSample: 3060683
    mEndSample: 3060683
  - mStartSample: 3076817
    mEndSample: 3076817
  - mStartSample: 3092951
    mEndSample: 3092951
  - mStartSample: 3109085
    mEndSample: 3109085
  - mStartSample: 3205304
    mEndSample: 3205304
  - mStartSample: 3215963
    mEndSample: 3215963
  - mStartSample: 3226621
    mEndSample: 3226621
  - mStartSample: 3237280
    mEndSample: 3237280
  - mStartSample: 3317220
    mEndSample: 3317220
  - mStartSample: 3333207
    mEndSample: 3333207
  - mStartSample: 3349195
    mEndSample: 3349195
  - mStartSample: 3365183
    mEndSample: 3365183
  - mStartSample: 3461111
    mEndSample: 3461111
  - mStartSample: 3471769
    mEndSample: 3471769
  - mStartSample: 3482428
    mEndSample: 3482428
  - mStartSample: 3493087
    mEndSample: 3493087
  - mStartSample: 3573026
    mEndSample: 3573026
  - mStartSample: 3589014
    mEndSample: 3589014
  - mStartSample: 3604858
    mEndSample: 3604858
  - mStartSample: 3622019
    mEndSample: 3622019
  - mStartSample: 3637863
    mEndSample: 3637863
  - mStartSample: 3645786
    mEndSample: 3645786
  - mStartSample: 3652391
    mEndSample: 3652391
  - mStartSample: 3667425
    mEndSample: 3667425
  - mStartSample: 3682459
    mEndSample: 3682459
  - mStartSample: 3697493
    mEndSample: 3697493
  - mStartSample: 3705010
    mEndSample: 3705010
  - mStartSample: 3712527
    mEndSample: 3712527
  - mStartSample: 3720044
    mEndSample: 3720044
  - mStartSample: 3727561
    mEndSample: 3727561
  - mStartSample: 3742595
    mEndSample: 3742595
  - mStartSample: 3757629
    mEndSample: 3757629
  - mStartSample: 3765146
    mEndSample: 3765146
  - mStartSample: 3772663
    mEndSample: 3772663
  - mStartSample: 3787698
    mEndSample: 3787698
  - mStartSample: 3802732
    mEndSample: 3802732
  - mStartSample: 4106256
    mEndSample: 4106256
  - mStartSample: 4121290
    mEndSample: 4121290
  - mStartSample: 4128807
    mEndSample: 4128807
  - mStartSample: 4136324
    mEndSample: 4136324
  - mStartSample: 4151358
    mEndSample: 4151358
  - mStartSample: 4167450
    mEndSample: 4167450
  - mStartSample: 4182484
    mEndSample: 4182484
  - mStartSample: 4190001
    mEndSample: 4190001
  - mStartSample: 4197518
    mEndSample: 4197518
  - mStartSample: 4205035
    mEndSample: 4205035
  - mStartSample: 4212552
    mEndSample: 4212552
  - mStartSample: 4227586
    mEndSample: 4227586
  - mStartSample: 4242620
    mEndSample: 4242620
  - mStartSample: 4250137
    mEndSample: 4250137
  - mStartSample: 4257654
    mEndSample: 4257654
  - mStartSample: 4272688
    mEndSample: 4272688
  - mStartSample: 4287722
    mEndSample: 4287722
  - mStartSample: 4362893
    mEndSample: 4362893
  - mStartSample: 4370410
    mEndSample: 4370410
  - mStartSample: 4377927
    mEndSample: 4377927
  - mStartSample: 4392961
    mEndSample: 4392961
  - mStartSample: 4407995
    mEndSample: 4407995
  - mStartSample: 4423029
    mEndSample: 4423029
  - mStartSample: 4430546
    mEndSample: 4430546
  - mStartSample: 4438063
    mEndSample: 4438063
  - mStartSample: 4453097
    mEndSample: 4453097
  - mStartSample: 4468131
    mEndSample: 4468131
  - mStartSample: 4483165
    mEndSample: 4483165
  - mStartSample: 4513234
    mEndSample: 4513234
  - mStartSample: 4528268
    mEndSample: 4528268
  - mStartSample: 4625989
    mEndSample: 4625989
  - mStartSample: 4633506
    mEndSample: 4633506
  - mStartSample: 4641023
    mEndSample: 4641023
  - mStartSample: 4650368
    mEndSample: 4650368
  - mStartSample: 4665841
    mEndSample: 4665841
  - mStartSample: 4681315
    mEndSample: 4681315
  - mStartSample: 4696789
    mEndSample: 4696789
  - mStartSample: 4712262
    mEndSample: 4712262
  - mStartSample: 4743210
    mEndSample: 4743210
  - mStartSample: 4758683
    mEndSample: 4758683
  - mStartSample: 4774157
    mEndSample: 4774157
  - mStartSample: 4784473
    mEndSample: 4784473
  - mStartSample: 4794789
    mEndSample: 4794789
  - mStartSample: 4805104
    mEndSample: 4805104
  - mStartSample: 4820578
    mEndSample: 4820578
  - mStartSample: 4836052
    mEndSample: 4836052
  - mStartSample: 4900280
    mEndSample: 4900280
  - mStartSample: 4931874
    mEndSample: 4931874
  - mStartSample: 4947671
    mEndSample: 4947671
  - mStartSample: 4963468
    mEndSample: 4963468
  - mStartSample: 4995062
    mEndSample: 4995062
  - mStartSample: 5010859
    mEndSample: 5010859
  - mStartSample: 5026656
    mEndSample: 5026656
  - mStartSample: 5058250
    mEndSample: 5058250
  - mStartSample: 5074047
    mEndSample: 5074047
  - mStartSample: 5089844
    mEndSample: 5089844
  - mStartSample: 5131969
    mEndSample: 5131969
  - mStartSample: 5147766
    mEndSample: 5147766
  - mStartSample: 5163563
    mEndSample: 5163563
  - mStartSample: 5174820
    mEndSample: 5174820
  - mStartSample: 5191692
    mEndSample: 5191692
  - mStartSample: 5206566
    mEndSample: 5206566
  - mStartSample: 5222328
    mEndSample: 5222328
  - mStartSample: 5255184
    mEndSample: 5255184
  - mStartSample: 5270058
    mEndSample: 5270058
  - mStartSample: 5419020
    mEndSample: 5419020
  - mStartSample: 5433969
    mEndSample: 5433969
  - mStartSample: 5441443
    mEndSample: 5441443
  - mStartSample: 5448918
    mEndSample: 5448918
  - mStartSample: 5456392
    mEndSample: 5456392
  - mStartSample: 5463867
    mEndSample: 5463867
  - mStartSample: 5478816
    mEndSample: 5478816
  - mStartSample: 5493765
    mEndSample: 5493765
  - mStartSample: 5501240
    mEndSample: 5501240
  - mStartSample: 5508714
    mEndSample: 5508714
  - mStartSample: 5516189
    mEndSample: 5516189
  - mStartSample: 5523664
    mEndSample: 5523664
  - mStartSample: 5538613
    mEndSample: 5538613
  - mStartSample: 5553562
    mEndSample: 5553562
  - mStartSample: 5561036
    mEndSample: 5561036
  - mStartSample: 5568511
    mEndSample: 5568511
  - mStartSample: 5575986
    mEndSample: 5575986
  - mStartSample: 5583460
    mEndSample: 5583460
  - mStartSample: 5598409
    mEndSample: 5598409
  - mStartSample: 5658206
    mEndSample: 5658206
  - mStartSample: 5673155
    mEndSample: 5673155
  - mStartSample: 5680629
    mEndSample: 5680629
  - mStartSample: 5688104
    mEndSample: 5688104
  - mStartSample: 5695578
    mEndSample: 5695578
  - mStartSample: 5703053
    mEndSample: 5703053
  - mStartSample: 5718002
    mEndSample: 5718002
  - mStartSample: 5732951
    mEndSample: 5732951
  - mStartSample: 5740426
    mEndSample: 5740426
  - mStartSample: 5747900
    mEndSample: 5747900
  - mStartSample: 5755375
    mEndSample: 5755375
  - mStartSample: 5762850
    mEndSample: 5762850
  - mStartSample: 5777799
    mEndSample: 5777799
  - mStartSample: 5792748
    mEndSample: 5792748
  - mStartSample: 5800222
    mEndSample: 5800222
  - mStartSample: 5807697
    mEndSample: 5807697
  - mStartSample: 5815172
    mEndSample: 5815172
  - mStartSample: 5822646
    mEndSample: 5822646
  - mStartSample: 5837596
    mEndSample: 5837596
  - mStartSample: 5957189
    mEndSample: 5957189
  - mStartSample: 5987087
    mEndSample: 5987087
  - mStartSample: 6016986
    mEndSample: 6016986
  - mStartSample: 6046884
    mEndSample: 6046884
  - mStartSample: 6076782
    mEndSample: 6076782
  - mStartSample: 6106681
    mEndSample: 6106681
  - mStartSample: 6136579
    mEndSample: 6136579
  - mStartSample: 6166477
    mEndSample: 6166477
  - mStartSample: 6196375
    mEndSample: 6196375
  - mStartSample: 6226274
    mEndSample: 6226274
  - mStartSample: 6256172
    mEndSample: 6256172
  - mStartSample: 6286070
    mEndSample: 6286070
  - mStartSample: 6315969
    mEndSample: 6315969
  - mStartSample: 6345867
    mEndSample: 6345867
  - mStartSample: 6375765
    mEndSample: 6375765
  - mStartSample: 6405664
    mEndSample: 6405664
  - mStartSample: 6435562
    mEndSample: 6435562
  - mStartSample: 6465460
    mEndSample: 6465460
  - mStartSample: 6495358
    mEndSample: 6495358
  - mStartSample: 6502833
    mEndSample: 6502833
  - mStartSample: 6510308
    mEndSample: 6510308
  - mStartSample: 6525257
    mEndSample: 6525257
  - mStartSample: 6532731
    mEndSample: 6532731
  - mStartSample: 6540206
    mEndSample: 6540206
  - mStartSample: 6555155
    mEndSample: 6555155
  - mStartSample: 6562630
    mEndSample: 6562630
  - mStartSample: 6570104
    mEndSample: 6570104
  - mStartSample: 6577578
    mEndSample: 6577578
  - mStartSample: 6585052
    mEndSample: 6585052
  - mStartSample: 6591981
    mEndSample: 6591981
  - mStartSample: 6599414
    mEndSample: 6599414
  - mStartSample: 6606846
    mEndSample: 6606846
  - mStartSample: 6614279
    mEndSample: 6614279
  - mStartSample: 6621711
    mEndSample: 6621711
  - mStartSample: 6629144
    mEndSample: 6629144
  - mStartSample: 6636577
    mEndSample: 6636577
  - mStartSample: 6644009
    mEndSample: 6644009
  - mStartSample: 6658874
    mEndSample: 6658874
  - mStartSample: 6673740
    mEndSample: 6673740
  - mStartSample: 6734660
    mEndSample: 6734660
  - mStartSample: 6742010
    mEndSample: 6742010
  - mStartSample: 6749360
    mEndSample: 6749360
  - mStartSample: 6756710
    mEndSample: 6756710
  - mStartSample: 6764060
    mEndSample: 6764060
  - mStartSample: 6778760
    mEndSample: 6778760
  - mStartSample: 6793460
    mEndSample: 6793460
  - mStartSample: 6800810
    mEndSample: 6800810
  - mStartSample: 6808160
    mEndSample: 6808160
  - mStartSample: 6815510
    mEndSample: 6815510
  - mStartSample: 6822860
    mEndSample: 6822860
  - mStartSample: 6837560
    mEndSample: 6837560
  - mStartSample: 6852260
    mEndSample: 6852260
  - mStartSample: 6859610
    mEndSample: 6859610
  - mStartSample: 6866960
    mEndSample: 6866960
  - mStartSample: 6874310
    mEndSample: 6874310
  - mStartSample: 6881660
    mEndSample: 6881660
  - mStartSample: 6914751
    mEndSample: 6914751
  - mStartSample: 6922101
    mEndSample: 6922101
  - mStartSample: 6929451
    mEndSample: 6929451
  - mStartSample: 6936801
    mEndSample: 6936801
  - mStartSample: 6944151
    mEndSample: 6944151
  - mStartSample: 6951501
    mEndSample: 6951501
  - mStartSample: 6958851
    mEndSample: 6958851
  - mStartSample: 6966201
    mEndSample: 6966201
  - mStartSample: 6974264
    mEndSample: 6974264
  - mStartSample: 6982300
    mEndSample: 6982300
  - mStartSample: 6989352
    mEndSample: 6989352
  - mStartSample: 6996404
    mEndSample: 6996404
  - mStartSample: 7004250
    mEndSample: 7004250
  - mStartSample: 7017651
    mEndSample: 7017651
  - mStartSample: 7048981
    mEndSample: 7048981
  - mStartSample: 7056840
    mEndSample: 7056840
  - mStartSample: 7063615
    mEndSample: 7063615
  - mStartSample: 7079062
    mEndSample: 7079062
  - mStartSample: 7086650
    mEndSample: 7086650
  - mStartSample: 7095593
    mEndSample: 7095593
  - mStartSample: 7110131
    mEndSample: 7110131
  - mStartSample: 7117400
    mEndSample: 7117400
  - mStartSample: 7124669
    mEndSample: 7124669
  - mStartSample: 7139208
    mEndSample: 7139208
  - mStartSample: 7153746
    mEndSample: 7153746
  - mStartSample: 7242204
    mEndSample: 7242204
  - mStartSample: 7257109
    mEndSample: 7257109
  - mStartSample: 7271472
    mEndSample: 7271472
  - mStartSample: 7301540
    mEndSample: 7301540
  - mStartSample: 7316574
    mEndSample: 7316574
  - mStartSample: 7331608
    mEndSample: 7331608
  - mStartSample: 7361676
    mEndSample: 7361676
  - mStartSample: 7376710
    mEndSample: 7376710
  - mStartSample: 7391744
    mEndSample: 7391744
  - mStartSample: 7479871
    mEndSample: 7479871
  - mStartSample: 7494905
    mEndSample: 7494905
  - mStartSample: 7509939
    mEndSample: 7509939
  - mStartSample: 7598569
    mEndSample: 7598569
  - mStartSample: 7615100
    mEndSample: 7615100
  - mStartSample: 7633257
    mEndSample: 7633257
  - mStartSample: 7877792
    mEndSample: 7877792
  - mStartSample: 7887988
    mEndSample: 7887988
  - mStartSample: 7898185
    mEndSample: 7898185
  - mStartSample: 7908381
    mEndSample: 7908381
  - mStartSample: 7923676
    mEndSample: 7923676
  - mStartSample: 7938971
    mEndSample: 7938971
  - mStartSample: 7949167
    mEndSample: 7949167
  - mStartSample: 7959364
    mEndSample: 7959364
  - mStartSample: 7969560
    mEndSample: 7969560
  - mStartSample: 7979757
    mEndSample: 7979757
  - mStartSample: 7989953
    mEndSample: 7989953
  - mStartSample: 8000150
    mEndSample: 8000150
  - mStartSample: 8010346
    mEndSample: 8010346
  - mStartSample: 8020543
    mEndSample: 8020543
  - mStartSample: 8030739
    mEndSample: 8030739
  - mStartSample: 8046034
    mEndSample: 8046034
  - mStartSample: 8061329
    mEndSample: 8061329
  - mStartSample: 8184684
    mEndSample: 8184684
  - mStartSample: 8190726
    mEndSample: 8190726
  - mStartSample: 8198199
    mEndSample: 8198199
  - mStartSample: 8206734
    mEndSample: 8206734
  - mStartSample: 8214084
    mEndSample: 8214084
  - mStartSample: 8220459
    mEndSample: 8220459
  - mStartSample: 8227773
    mEndSample: 8227773
  - mStartSample: 8234769
    mEndSample: 8234769
  - mStartSample: 8241765
    mEndSample: 8241765
  - mStartSample: 8249556
    mEndSample: 8249556
  - mStartSample: 8257029
    mEndSample: 8257029
  - mStartSample: 8265534
    mEndSample: 8265534
  - mStartSample: 8272884
    mEndSample: 8272884
  - mStartSample: 8278720
    mEndSample: 8278720
  - mStartSample: 8286305
    mEndSample: 8286305
  - mStartSample: 8293685
    mEndSample: 8293685
  - mStartSample: 8302284
    mEndSample: 8302284
  - mStartSample: 8308035
    mEndSample: 8308035
  - mStartSample: 8315385
    mEndSample: 8315385
  - mStartSample: 8322735
    mEndSample: 8322735
  - mStartSample: 8330085
    mEndSample: 8330085
  - mStartSample: 8337435
    mEndSample: 8337435
  - mStartSample: 8344785
    mEndSample: 8344785
  - mStartSample: 8352135
    mEndSample: 8352135
  - mStartSample: 8359485
    mEndSample: 8359485
  - mStartSample: 8365230
    mEndSample: 8365230
  - mStartSample: 8372610
    mEndSample: 8372610
  - mStartSample: 8379326
    mEndSample: 8379326
  - mStartSample: 8388232
    mEndSample: 8388232
  - mStartSample: 8395918
    mEndSample: 8395918
  - mStartSample: 8404092
    mEndSample: 8404092
  - mStartSample: 8410436
    mEndSample: 8410436
  - mStartSample: 8418732
    mEndSample: 8418732
  - mStartSample: 8434205
    mEndSample: 8434205
  - mStartSample: 8449679
    mEndSample: 8449679
  - mStartSample: 8481288
    mEndSample: 8481288
  - mStartSample: 8497272
    mEndSample: 8497272
  - mStartSample: 8513256
    mEndSample: 8513256
  - mStartSample: 8524356
    mEndSample: 8524356
  - mStartSample: 8534672
    mEndSample: 8534672
  - mStartSample: 8544928
    mEndSample: 8544928
  - mStartSample: 8560867
    mEndSample: 8560867
  - mStartSample: 8576807
    mEndSample: 8576807
  - mStartSample: 8608687
    mEndSample: 8608687
  - mStartSample: 8624626
    mEndSample: 8624626
  - mStartSample: 8640566
    mEndSample: 8640566
  - mStartSample: 8651193
    mEndSample: 8651193
  - mStartSample: 8661819
    mEndSample: 8661819
  - mStartSample: 8672446
    mEndSample: 8672446
  - mStartSample: 8688385
    mEndSample: 8688385
  - mStartSample: 8704325
    mEndSample: 8704325
  - mStartSample: 8718500
    mEndSample: 8718500
  - mStartSample: 8729968
    mEndSample: 8729968
  - mStartSample: 8740684
    mEndSample: 8740684
  - mStartSample: 8866268
    mEndSample: 8866268
  - mStartSample: 8966496
    mEndSample: 8966496
  - mStartSample: 8974112
    mEndSample: 8974112
  - mStartSample: 8982288
    mEndSample: 8982288
  - mStartSample: 8990536
    mEndSample: 8990536
  - mStartSample: 8998364
    mEndSample: 8998364
  - mStartSample: 9006192
    mEndSample: 9006192
  - mStartSample: 9014021
    mEndSample: 9014021
  - mStartSample: 9021849
    mEndSample: 9021849
  - mStartSample: 9029678
    mEndSample: 9029678
  - mStartSample: 9037506
    mEndSample: 9037506
  - mStartSample: 9045334
    mEndSample: 9045334
  - mStartSample: 9053163
    mEndSample: 9053163
  - mStartSample: 9060991
    mEndSample: 9060991
  - mStartSample: 9068820
    mEndSample: 9068820
  - mStartSample: 9076648
    mEndSample: 9076648
  - mStartSample: 9084476
    mEndSample: 9084476
  - mStartSample: 9092305
    mEndSample: 9092305
  - mStartSample: 9100133
    mEndSample: 9100133
  - mStartSample: 9107962
    mEndSample: 9107962
  - mStartSample: 9114700
    mEndSample: 9114700
  - mStartSample: 9122436
    mEndSample: 9122436
  - mStartSample: 9130173
    mEndSample: 9130173
  - mStartSample: 9137910
    mEndSample: 9137910
  - mStartSample: 9145647
    mEndSample: 9145647
  - mStartSample: 9153384
    mEndSample: 9153384
  - mStartSample: 9161121
    mEndSample: 9161121
  - mStartSample: 9168857
    mEndSample: 9168857
  - mStartSample: 9176594
    mEndSample: 9176594
  - mStartSample: 9184197
    mEndSample: 9184197
  - mStartSample: 9191800
    mEndSample: 9191800
  - mStartSample: 9199404
    mEndSample: 9199404
  - mStartSample: 9207007
    mEndSample: 9207007
  - mStartSample: 9214611
    mEndSample: 9214611
  - mStartSample: 9222214
    mEndSample: 9222214
  - mStartSample: 9229818
    mEndSample: 9229818
  - mStartSample: 9237421
    mEndSample: 9237421
  - mStartSample: 9245025
    mEndSample: 9245025
  - mStartSample: 9252628
    mEndSample: 9252628
  - mStartSample: 9260231
    mEndSample: 9260231
  - mStartSample: 9267835
    mEndSample: 9267835
  - mStartSample: 9275438
    mEndSample: 9275438
  - mStartSample: 9283042
    mEndSample: 9283042
  - mStartSample: 9290645
    mEndSample: 9290645
  - mStartSample: 9298249
    mEndSample: 9298249
  - mStartSample: 9305852
    mEndSample: 9305852
  - mStartSample: 9313456
    mEndSample: 9313456
  - mStartSample: 9321059
    mEndSample: 9321059
  - mStartSample: 9328662
    mEndSample: 9328662
  - mStartSample: 9336266
    mEndSample: 9336266
  - mStartSample: 9343869
    mEndSample: 9343869
  - mStartSample: 9351473
    mEndSample: 9351473
  - mStartSample: 9359076
    mEndSample: 9359076
  - mStartSample: 9366680
    mEndSample: 9366680
  - mStartSample: 9374283
    mEndSample: 9374283
  - mStartSample: 9381887
    mEndSample: 9381887
  - mStartSample: 9389490
    mEndSample: 9389490
  - mStartSample: 9397094
    mEndSample: 9397094
  - mStartSample: 9404697
    mEndSample: 9404697
  - mStartSample: 9412300
    mEndSample: 9412300
  - mStartSample: 9419904
    mEndSample: 9419904
  - mStartSample: 9480731
    mEndSample: 9480731
  - mStartSample: 9545184
    mEndSample: 9545184
  _SerializedPayloadTypes:
  - SonicBloom.Koreo.TextPayload
  _AssetPayloads: []
  _AssetPayloadIdxs: 
  _ColorPayloads: []
  _ColorPayloadIdxs: 
  _CurvePayloads: []
  _CurvePayloadIdxs: 
  _FloatPayloads: []
  _FloatPayloadIdxs: 
  _GradientPayloads: []
  _GradientPayloadIdxs: 
  _IntPayloads: []
  _IntPayloadIdxs: 
  _SpectrumPayloads: []
  _SpectrumPayloadIdxs: 
  _TextPayloads:
  - mTextVal: 1
  - mTextVal: 7
  - mTextVal: 1
  - mTextVal: 7
  - mTextVal: 1
  - mTextVal: 7
  - mTextVal: 1
  - mTextVal: 7
  - mTextVal: 1
  - mTextVal: '7 '
  - mTextVal: 1
  - mTextVal: 7
  _TextPayloadIdxs: 0000000012000000130000001d0000001e000000290000002a000000460000006b0000007f0000008000000096000000
