%YAML 1.1
%TAG !u! tag:unity3d.com,2011:
--- !u!114 &11400000
MonoBehaviour:
  m_ObjectHideFlags: 0
  m_PrefabParentObject: {fileID: 0}
  m_PrefabInternal: {fileID: 0}
  m_GameObject: {fileID: 0}
  m_Enabled: 1
  m_EditorHideFlags: 0
  m_Script: {fileID: -1223223985, guid: aa81bbec85a3f423193272a7c6154986, type: 3}
  m_Name: P88track
  m_EditorClassIdentifier: 
  mEventID: Note
  mEventList:
  - mStartSample: 12000
    mEndSample: 12000
  - mStartSample: 30503
    mEndSample: 30503
  - mStartSample: 35129
    mEndSample: 35129
  - mStartSample: 39755
    mEndSample: 39755
  - mStartSample: 44381
    mEndSample: 44381
  - mStartSample: 49006
    mEndSample: 49006
  - mStartSample: 67510
    mEndSample: 67510
  - mStartSample: 72136
    mEndSample: 72136
  - mStartSample: 76762
    mEndSample: 76762
  - mStartSample: 81388
    mEndSample: 81388
  - mStartSample: 86013
    mEndSample: 86013
  - mStartSample: 104517
    mEndSample: 104517
  - mStartSample: 123020
    mEndSample: 123020
  - mStartSample: 141524
    mEndSample: 141524
  - mStartSample: 146150
    mEndSample: 146150
  - mStartSample: 150776
    mEndSample: 150776
  - mStartSample: 155402
    mEndSample: 155402
  - mStartSample: 160027
    mEndSample: 160027
  - mStartSample: 178531
    mEndSample: 178531
  - mStartSample: 183157
    mEndSample: 183157
  - mStartSample: 187783
    mEndSample: 187783
  - mStartSample: 192409
    mEndSample: 192409
  - mStartSample: 197034
    mEndSample: 197034
  - mStartSample: 215538
    mEndSample: 215538
  - mStartSample: 234041
    mEndSample: 234041
  - mStartSample: 252545
    mEndSample: 252545
  - mStartSample: 257171
    mEndSample: 257171
  - mStartSample: 261797
    mEndSample: 261797
  - mStartSample: 266423
    mEndSample: 266423
  - mStartSample: 271048
    mEndSample: 271048
  - mStartSample: 289552
    mEndSample: 289552
  - mStartSample: 294178
    mEndSample: 294178
  - mStartSample: 298804
    mEndSample: 298804
  - mStartSample: 303430
    mEndSample: 303430
  - mStartSample: 308055
    mEndSample: 308055
  - mStartSample: 326559
    mEndSample: 326559
  - mStartSample: 345062
    mEndSample: 345062
  - mStartSample: 363566
    mEndSample: 363566
  - mStartSample: 368192
    mEndSample: 368192
  - mStartSample: 372818
    mEndSample: 372818
  - mStartSample: 377444
    mEndSample: 377444
  - mStartSample: 382069
    mEndSample: 382069
  - mStartSample: 400573
    mEndSample: 400573
  - mStartSample: 405199
    mEndSample: 405199
  - mStartSample: 409825
    mEndSample: 409825
  - mStartSample: 414451
    mEndSample: 414451
  - mStartSample: 419076
    mEndSample: 419076
  - mStartSample: 437580
    mEndSample: 437580
  - mStartSample: 456083
    mEndSample: 456083
  - mStartSample: 474587
    mEndSample: 474587
  - mStartSample: 479213
    mEndSample: 479213
  - mStartSample: 483839
    mEndSample: 483839
  - mStartSample: 488465
    mEndSample: 488465
  - mStartSample: 493090
    mEndSample: 493090
  - mStartSample: 511594
    mEndSample: 511594
  - mStartSample: 516220
    mEndSample: 516220
  - mStartSample: 520846
    mEndSample: 520846
  - mStartSample: 525472
    mEndSample: 525472
  - mStartSample: 530097
    mEndSample: 530097
  - mStartSample: 548601
    mEndSample: 548601
  - mStartSample: 568464
    mEndSample: 568464
  - mStartSample: 587928
    mEndSample: 587928
  - mStartSample: 592554
    mEndSample: 592554
  - mStartSample: 597180
    mEndSample: 597180
  - mStartSample: 601806
    mEndSample: 601806
  - mStartSample: 606431
    mEndSample: 606431
  - mStartSample: 624935
    mEndSample: 624935
  - mStartSample: 629561
    mEndSample: 629561
  - mStartSample: 634187
    mEndSample: 634187
  - mStartSample: 638813
    mEndSample: 638813
  - mStartSample: 643438
    mEndSample: 643438
  - mStartSample: 660958
    mEndSample: 660958
  - mStartSample: 681900
    mEndSample: 681900
  - mStartSample: 700403
    mEndSample: 700403
  - mStartSample: 705029
    mEndSample: 705029
  - mStartSample: 709655
    mEndSample: 709655
  - mStartSample: 714281
    mEndSample: 714281
  - mStartSample: 718906
    mEndSample: 718906
  - mStartSample: 737410
    mEndSample: 737410
  - mStartSample: 742036
    mEndSample: 742036
  - mStartSample: 746662
    mEndSample: 746662
  - mStartSample: 751288
    mEndSample: 751288
  - mStartSample: 755913
    mEndSample: 755913
  - mStartSample: 774417
    mEndSample: 774417
  - mStartSample: 779043
    mEndSample: 779043
  - mStartSample: 783669
    mEndSample: 783669
  - mStartSample: 788295
    mEndSample: 788295
  - mStartSample: 792920
    mEndSample: 792920
  - mStartSample: 811424
    mEndSample: 811424
  - mStartSample: 816050
    mEndSample: 816050
  - mStartSample: 820676
    mEndSample: 820676
  - mStartSample: 825302
    mEndSample: 825302
  - mStartSample: 829927
    mEndSample: 829927
  - mStartSample: 848431
    mEndSample: 848431
  - mStartSample: 853057
    mEndSample: 853057
  - mStartSample: 857683
    mEndSample: 857683
  - mStartSample: 862309
    mEndSample: 862309
  - mStartSample: 866934
    mEndSample: 866934
  - mStartSample: 920700
    mEndSample: 920700
  - mStartSample: 939333
    mEndSample: 939333
  - mStartSample: 943991
    mEndSample: 943991
  - mStartSample: 948650
    mEndSample: 948650
  - mStartSample: 953308
    mEndSample: 953308
  - mStartSample: 957967
    mEndSample: 957967
  - mStartSample: 976601
    mEndSample: 976601
  - mStartSample: 995235
    mEndSample: 995235
  - mStartSample: 1013869
    mEndSample: 1013869
  - mStartSample: 1034208
    mEndSample: 1034208
  - mStartSample: 1053108
    mEndSample: 1053108
  - mStartSample: 1057766
    mEndSample: 1057766
  - mStartSample: 1062425
    mEndSample: 1062425
  - mStartSample: 1067083
    mEndSample: 1067083
  - mStartSample: 1071742
    mEndSample: 1071742
  - mStartSample: 1089585
    mEndSample: 1089585
  - mStartSample: 1108296
    mEndSample: 1108296
  - mStartSample: 1126251
    mEndSample: 1126251
  - mStartSample: 1144773
    mEndSample: 1144773
  - mStartSample: 1162917
    mEndSample: 1162917
  - mStartSample: 1180683
    mEndSample: 1180683
  - mStartSample: 1199583
    mEndSample: 1199583
  - mStartSample: 1217160
    mEndSample: 1217160
  - mStartSample: 1236816
    mEndSample: 1236816
  - mStartSample: 1257984
    mEndSample: 1257984
  - mStartSample: 1274742
    mEndSample: 1274742
  - mStartSample: 1279400
    mEndSample: 1279400
  - mStartSample: 1284059
    mEndSample: 1284059
  - mStartSample: 1288717
    mEndSample: 1288717
  - mStartSample: 1293376
    mEndSample: 1293376
  - mStartSample: 1314306
    mEndSample: 1314306
  - mStartSample: 1318964
    mEndSample: 1318964
  - mStartSample: 1323623
    mEndSample: 1323623
  - mStartSample: 1328281
    mEndSample: 1328281
  - mStartSample: 1332940
    mEndSample: 1332940
  - mStartSample: 1350972
    mEndSample: 1350972
  - mStartSample: 1370817
    mEndSample: 1370817
  - mStartSample: 1390095
    mEndSample: 1390095
  - mStartSample: 1394753
    mEndSample: 1394753
  - mStartSample: 1399412
    mEndSample: 1399412
  - mStartSample: 1404070
    mEndSample: 1404070
  - mStartSample: 1408729
    mEndSample: 1408729
  - mStartSample: 1427328
    mEndSample: 1427328
  - mStartSample: 1446228
    mEndSample: 1446228
  - mStartSample: 1464939
    mEndSample: 1464939
  - mStartSample: 1485918
    mEndSample: 1485918
  - mStartSample: 1506330
    mEndSample: 1506330
  - mStartSample: 1510988
    mEndSample: 1510988
  - mStartSample: 1515647
    mEndSample: 1515647
  - mStartSample: 1520305
    mEndSample: 1520305
  - mStartSample: 1524964
    mEndSample: 1524964
  - mStartSample: 1542996
    mEndSample: 1542996
  - mStartSample: 1560762
    mEndSample: 1560762
  - mStartSample: 1578717
    mEndSample: 1578717
  - mStartSample: 1597806
    mEndSample: 1597806
  - mStartSample: 1615005
    mEndSample: 1615005
  - mStartSample: 1633905
    mEndSample: 1633905
  - mStartSample: 1652238
    mEndSample: 1652238
  - mStartSample: 1670571
    mEndSample: 1670571
  - mStartSample: 1690038
    mEndSample: 1690038
  - mStartSample: 1711395
    mEndSample: 1711395
  - mStartSample: 1730673
    mEndSample: 1730673
  - mStartSample: 1748817
    mEndSample: 1748817
  - mStartSample: 1769040
    mEndSample: 1769040
  - mStartSample: 1789263
    mEndSample: 1789263
  - mStartSample: 1809108
    mEndSample: 1809108
  - mStartSample: 1830465
    mEndSample: 1830465
  - mStartSample: 1850877
    mEndSample: 1850877
  - mStartSample: 1855535
    mEndSample: 1855535
  - mStartSample: 1860194
    mEndSample: 1860194
  - mStartSample: 1864852
    mEndSample: 1864852
  - mStartSample: 1869511
    mEndSample: 1869511
  - mStartSample: 1885842
    mEndSample: 1885842
  - mStartSample: 1890500
    mEndSample: 1890500
  - mStartSample: 1895159
    mEndSample: 1895159
  - mStartSample: 1899817
    mEndSample: 1899817
  - mStartSample: 1904476
    mEndSample: 1904476
  - mStartSample: 1924209
    mEndSample: 1924209
  - mStartSample: 1941030
    mEndSample: 1941030
  - mStartSample: 1959741
    mEndSample: 1959741
  - mStartSample: 1964399
    mEndSample: 1964399
  - mStartSample: 1969058
    mEndSample: 1969058
  - mStartSample: 1973716
    mEndSample: 1973716
  - mStartSample: 1978375
    mEndSample: 1978375
  - mStartSample: 1996596
    mEndSample: 1996596
  - mStartSample: 2001254
    mEndSample: 2001254
  - mStartSample: 2005913
    mEndSample: 2005913
  - mStartSample: 2010571
    mEndSample: 2010571
  - mStartSample: 2015230
    mEndSample: 2015230
  - mStartSample: 2032506
    mEndSample: 2032506
  - mStartSample: 2052540
    mEndSample: 2052540
  - mStartSample: 2071818
    mEndSample: 2071818
  - mStartSample: 2076476
    mEndSample: 2076476
  - mStartSample: 2081135
    mEndSample: 2081135
  - mStartSample: 2085793
    mEndSample: 2085793
  - mStartSample: 2090452
    mEndSample: 2090452
  - mStartSample: 2108295
    mEndSample: 2108295
  - mStartSample: 2112953
    mEndSample: 2112953
  - mStartSample: 2117612
    mEndSample: 2117612
  - mStartSample: 2122270
    mEndSample: 2122270
  - mStartSample: 2126929
    mEndSample: 2126929
  - mStartSample: 2145717
    mEndSample: 2145717
  - mStartSample: 2165562
    mEndSample: 2165562
  - mStartSample: 2183139
    mEndSample: 2183139
  - mStartSample: 2187797
    mEndSample: 2187797
  - mStartSample: 2192456
    mEndSample: 2192456
  - mStartSample: 2197114
    mEndSample: 2197114
  - mStartSample: 2201773
    mEndSample: 2201773
  - mStartSample: 2220372
    mEndSample: 2220372
  - mStartSample: 2225030
    mEndSample: 2225030
  - mStartSample: 2229689
    mEndSample: 2229689
  - mStartSample: 2234347
    mEndSample: 2234347
  - mStartSample: 2239006
    mEndSample: 2239006
  - mStartSample: 2258172
    mEndSample: 2258172
  - mStartSample: 2277450
    mEndSample: 2277450
  - mStartSample: 2295405
    mEndSample: 2295405
  - mStartSample: 2300063
    mEndSample: 2300063
  - mStartSample: 2304722
    mEndSample: 2304722
  - mStartSample: 2309380
    mEndSample: 2309380
  - mStartSample: 2314039
    mEndSample: 2314039
  - mStartSample: 2332788
    mEndSample: 2332788
  - mStartSample: 2337446
    mEndSample: 2337446
  - mStartSample: 2342105
    mEndSample: 2342105
  - mStartSample: 2346763
    mEndSample: 2346763
  - mStartSample: 2351422
    mEndSample: 2351422
  - mStartSample: 2370164
    mEndSample: 2370164
  - mStartSample: 2390312
    mEndSample: 2390312
  - mStartSample: 2409292
    mEndSample: 2409292
  - mStartSample: 2413950
    mEndSample: 2413950
  - mStartSample: 2418609
    mEndSample: 2418609
  - mStartSample: 2423267
    mEndSample: 2423267
  - mStartSample: 2427926
    mEndSample: 2427926
  - mStartSample: 2445792
    mEndSample: 2445792
  - mStartSample: 2450450
    mEndSample: 2450450
  - mStartSample: 2455109
    mEndSample: 2455109
  - mStartSample: 2459767
    mEndSample: 2459767
  - mStartSample: 2464426
    mEndSample: 2464426
  - mStartSample: 2482876
    mEndSample: 2482876
  - mStartSample: 2501856
    mEndSample: 2501856
  - mStartSample: 2522550
    mEndSample: 2522550
  - mStartSample: 2527208
    mEndSample: 2527208
  - mStartSample: 2531867
    mEndSample: 2531867
  - mStartSample: 2536525
    mEndSample: 2536525
  - mStartSample: 2541184
    mEndSample: 2541184
  - mStartSample: 2557500
    mEndSample: 2557500
  - mStartSample: 2562158
    mEndSample: 2562158
  - mStartSample: 2566817
    mEndSample: 2566817
  - mStartSample: 2571475
    mEndSample: 2571475
  - mStartSample: 2576134
    mEndSample: 2576134
  - mStartSample: 2594250
    mEndSample: 2594250
  - mStartSample: 2598908
    mEndSample: 2598908
  - mStartSample: 2603567
    mEndSample: 2603567
  - mStartSample: 2608225
    mEndSample: 2608225
  - mStartSample: 2612884
    mEndSample: 2612884
  - mStartSample: 2631900
    mEndSample: 2631900
  - mStartSample: 2636558
    mEndSample: 2636558
  - mStartSample: 2641217
    mEndSample: 2641217
  - mStartSample: 2645875
    mEndSample: 2645875
  - mStartSample: 2650534
    mEndSample: 2650534
  - mStartSample: 2670750
    mEndSample: 2670750
  - mStartSample: 2675408
    mEndSample: 2675408
  - mStartSample: 2680067
    mEndSample: 2680067
  - mStartSample: 2684725
    mEndSample: 2684725
  - mStartSample: 2689384
    mEndSample: 2689384
  _SerializedPayloadTypes:
  - SonicBloom.Koreo.TextPayload
  _AssetPayloads: []
  _AssetPayloadIdxs: 
  _ColorPayloads: []
  _ColorPayloadIdxs: 
  _CurvePayloads: []
  _CurvePayloadIdxs: 
  _FloatPayloads: []
  _FloatPayloadIdxs: 
  _GradientPayloads: []
  _GradientPayloadIdxs: 
  _IntPayloads: []
  _IntPayloadIdxs: 
  _SpectrumPayloads: []
  _SpectrumPayloadIdxs: 
  _TextPayloads:
  - mTextVal: 1
  - mTextVal: 7
  - mTextVal: 1
  - mTextVal: 7
  - mTextVal: 1
  - mTextVal: 7
  - mTextVal: 1
  - mTextVal: 7
  - mTextVal: 1
  - mTextVal: 7
  - mTextVal: 1
  - mTextVal: 7
  - mTextVal: 1
  - mTextVal: 7
  - mTextVal: 1
  - mTextVal: 7
  - mTextVal: 1
  - mTextVal: 7
  - mTextVal: 1
  - mTextVal: 7
  - mTextVal: 1
  - mTextVal: 7
  - mTextVal: 1
  - mTextVal: 7
  - mTextVal: 1
  - mTextVal: 7
  - mTextVal: 1
  - mTextVal: 7
  - mTextVal: 1
  - mTextVal: 7
  - mTextVal: 1
  - mTextVal: 7
  - mTextVal: 1
  - mTextVal: 7
  - mTextVal: 1
  - mTextVal: 7
  - mTextVal: 1
  - mTextVal: 7
  - mTextVal: 1
  - mTextVal: 7
  - mTextVal: 1
  - mTextVal: 7
  - mTextVal: 1
  - mTextVal: 7
  - mTextVal: 1
  - mTextVal: 7
  - mTextVal: 1
  - mTextVal: 7
  - mTextVal: 1
  - mTextVal: 7
  - mTextVal: 1
  - mTextVal: 7
  - mTextVal: 1
  - mTextVal: 7
  - mTextVal: 1
  - mTextVal: 7
  - mTextVal: 1
  - mTextVal: 7
  - mTextVal: 1
  - mTextVal: 7
  - mTextVal: 1
  - mTextVal: 7
  - mTextVal: 1
  - mTextVal: 7
  - mTextVal: 1
  - mTextVal: 7
  - mTextVal: 1
  - mTextVal: 7
  - mTextVal: 1
  - mTextVal: 7
  - mTextVal: 1
  - mTextVal: 7
  - mTextVal: 1
  - mTextVal: 7
  - mTextVal: 1
  - mTextVal: 7
  - mTextVal: 1
  - mTextVal: 7
  - mTextVal: 1
  - mTextVal: 7
  _TextPayloadIdxs: 0100000005000000060000000a0000000d000000110000001200000016000000190000001d0000001e0000002200000025000000290000002a0000002e0000003100000035000000360000003a0000003d000000410000004200000046000000490000004d0000004e000000520000005300000057000000580000005c0000005d0000006100000063000000670000006c000000700000007b0000007f0000008000000084000000870000008b0000009000000094000000a5000000a9000000aa000000ae000000b1000000b5000000b6000000ba000000bd000000c1000000c2000000c6000000c9000000cd000000ce000000d2000000d5000000d9000000da000000de000000e1000000e5000000e6000000ea000000ed000000f1000000f2000000f6000000f7000000fb000000fc000000000100000101000005010000
