%YAML 1.1
%TAG !u! tag:unity3d.com,2011:
--- !u!114 &11400000
MonoBehaviour:
  m_ObjectHideFlags: 0
  m_PrefabParentObject: {fileID: 0}
  m_PrefabInternal: {fileID: 0}
  m_GameObject: {fileID: 0}
  m_Enabled: 1
  m_EditorHideFlags: 0
  m_Script: {fileID: -1223223985, guid: aa81bbec85a3f423193272a7c6154986, type: 3}
  m_Name: P54track
  m_EditorClassIdentifier: 
  mEventID: Note
  mEventList:
  - mStartSample: 200922
    mEndSample: 200922
  - mStartSample: 333222
    mEndSample: 333222
  - mStartSample: 347922
    mEndSample: 347922
  - mStartSample: 362622
    mEndSample: 362622
  - mStartSample: 377322
    mEndSample: 377322
  - mStartSample: 509622
    mEndSample: 509622
  - mStartSample: 524322
    mEndSample: 524322
  - mStartSample: 539022
    mEndSample: 539022
  - mStartSample: 553722
    mEndSample: 553722
  - mStartSample: 686022
    mEndSample: 686022
  - mStartSample: 715422
    mEndSample: 715422
  - mStartSample: 730122
    mEndSample: 730122
  - mStartSample: 818322
    mEndSample: 818322
  - mStartSample: 906522
    mEndSample: 906522
  - mStartSample: 1038822
    mEndSample: 1038822
  - mStartSample: 1053522
    mEndSample: 1053522
  - mStartSample: 1068222
    mEndSample: 1068222
  - mStartSample: 1082922
    mEndSample: 1082922
  - mStartSample: 1215222
    mEndSample: 1215222
  - mStartSample: 1229922
    mEndSample: 1229922
  - mStartSample: 1244622
    mEndSample: 1244622
  - mStartSample: 1259322
    mEndSample: 1259322
  - mStartSample: 1391622
    mEndSample: 1391622
  - mStartSample: 1421022
    mEndSample: 1421022
  - mStartSample: 1435722
    mEndSample: 1435722
  - mStartSample: 1523922
    mEndSample: 1523922
  - mStartSample: 1612122
    mEndSample: 1612122
  - mStartSample: 1700322
    mEndSample: 1700322
  - mStartSample: 1744422
    mEndSample: 1744422
  - mStartSample: 1759122
    mEndSample: 1759122
  - mStartSample: 1773822
    mEndSample: 1773822
  - mStartSample: 1788522
    mEndSample: 1788522
  - mStartSample: 1950222
    mEndSample: 1950222
  - mStartSample: 1964922
    mEndSample: 1964922
  - mStartSample: 2111922
    mEndSample: 2111922
  - mStartSample: 2126622
    mEndSample: 2126622
  - mStartSample: 2141322
    mEndSample: 2141322
  - mStartSample: 2229522
    mEndSample: 2229522
  - mStartSample: 2273622
    mEndSample: 2273622
  - mStartSample: 2303022
    mEndSample: 2303022
  - mStartSample: 2317722
    mEndSample: 2317722
  - mStartSample: 2405922
    mEndSample: 2405922
  - mStartSample: 2450022
    mEndSample: 2450022
  - mStartSample: 2464722
    mEndSample: 2464722
  - mStartSample: 2479422
    mEndSample: 2479422
  - mStartSample: 2494122
    mEndSample: 2494122
  - mStartSample: 2582322
    mEndSample: 2582322
  - mStartSample: 2655822
    mEndSample: 2655822
  - mStartSample: 2670522
    mEndSample: 2670522
  - mStartSample: 2758722
    mEndSample: 2758722
  - mStartSample: 2817522
    mEndSample: 2817522
  - mStartSample: 2832222
    mEndSample: 2832222
  - mStartSample: 2846922
    mEndSample: 2846922
  - mStartSample: 2935122
    mEndSample: 2935122
  - mStartSample: 2979222
    mEndSample: 2979222
  - mStartSample: 3008622
    mEndSample: 3008622
  - mStartSample: 3023322
    mEndSample: 3023322
  - mStartSample: 3111522
    mEndSample: 3111522
  - mStartSample: 3155622
    mEndSample: 3155622
  - mStartSample: 3170322
    mEndSample: 3170322
  - mStartSample: 3185022
    mEndSample: 3185022
  - mStartSample: 3199722
    mEndSample: 3199722
  - mStartSample: 3332022
    mEndSample: 3332022
  - mStartSample: 3346722
    mEndSample: 3346722
  - mStartSample: 3361422
    mEndSample: 3361422
  - mStartSample: 3376122
    mEndSample: 3376122
  - mStartSample: 3508422
    mEndSample: 3508422
  - mStartSample: 3537822
    mEndSample: 3537822
  - mStartSample: 3552522
    mEndSample: 3552522
  - mStartSample: 3640722
    mEndSample: 3640722
  - mStartSample: 3728922
    mEndSample: 3728922
  - mStartSample: 3861222
    mEndSample: 3861222
  - mStartSample: 3875922
    mEndSample: 3875922
  - mStartSample: 3890622
    mEndSample: 3890622
  - mStartSample: 3905322
    mEndSample: 3905322
  - mStartSample: 4037622
    mEndSample: 4037622
  - mStartSample: 4052322
    mEndSample: 4052322
  - mStartSample: 4067022
    mEndSample: 4067022
  - mStartSample: 4081722
    mEndSample: 4081722
  - mStartSample: 4214022
    mEndSample: 4214022
  - mStartSample: 4243422
    mEndSample: 4243422
  - mStartSample: 4258122
    mEndSample: 4258122
  - mStartSample: 4346322
    mEndSample: 4346322
  - mStartSample: 4434522
    mEndSample: 4434522
  - mStartSample: 4522722
    mEndSample: 4522722
  - mStartSample: 4566822
    mEndSample: 4566822
  - mStartSample: 4581522
    mEndSample: 4581522
  - mStartSample: 4596222
    mEndSample: 4596222
  - mStartSample: 4610922
    mEndSample: 4610922
  - mStartSample: 4772622
    mEndSample: 4772622
  - mStartSample: 4787322
    mEndSample: 4787322
  - mStartSample: 4934322
    mEndSample: 4934322
  - mStartSample: 4949022
    mEndSample: 4949022
  - mStartSample: 4963722
    mEndSample: 4963722
  - mStartSample: 5051922
    mEndSample: 5051922
  - mStartSample: 5096022
    mEndSample: 5096022
  - mStartSample: 5125422
    mEndSample: 5125422
  - mStartSample: 5140122
    mEndSample: 5140122
  - mStartSample: 5228322
    mEndSample: 5228322
  - mStartSample: 5272422
    mEndSample: 5272422
  - mStartSample: 5287122
    mEndSample: 5287122
  - mStartSample: 5301822
    mEndSample: 5301822
  - mStartSample: 5316522
    mEndSample: 5316522
  - mStartSample: 5404722
    mEndSample: 5404722
  - mStartSample: 5478222
    mEndSample: 5478222
  - mStartSample: 5492922
    mEndSample: 5492922
  - mStartSample: 5581122
    mEndSample: 5581122
  - mStartSample: 5639922
    mEndSample: 5639922
  - mStartSample: 5654622
    mEndSample: 5654622
  - mStartSample: 5669322
    mEndSample: 5669322
  - mStartSample: 5757522
    mEndSample: 5757522
  - mStartSample: 5801622
    mEndSample: 5801622
  - mStartSample: 5831022
    mEndSample: 5831022
  - mStartSample: 5845722
    mEndSample: 5845722
  _SerializedPayloadTypes:
  - SonicBloom.Koreo.TextPayload
  _AssetPayloads: []
  _AssetPayloadIdxs: 
  _ColorPayloads: []
  _ColorPayloadIdxs: 
  _CurvePayloads: []
  _CurvePayloadIdxs: 
  _FloatPayloads: []
  _FloatPayloadIdxs: 
  _GradientPayloads: []
  _GradientPayloadIdxs: 
  _IntPayloads: []
  _IntPayloadIdxs: 
  _SpectrumPayloads: []
  _SpectrumPayloadIdxs: 
  _TextPayloads:
  - mTextVal: 1
  - mTextVal: 7
  - mTextVal: 1
  - mTextVal: 7
  - mTextVal: 1
  - mTextVal: 7
  - mTextVal: 1
  - mTextVal: 7
  - mTextVal: 1
  - mTextVal: 7
  - mTextVal: 1
  - mTextVal: 7
  - mTextVal: 1
  - mTextVal: 7
  - mTextVal: 1
  - mTextVal: 7
  - mTextVal: 1
  - mTextVal: 7
  - mTextVal: 1
  - mTextVal: 7
  - mTextVal: 1
  - mTextVal: 7
  - mTextVal: 1
  - mTextVal: 7
  - mTextVal: 1
  - mTextVal: 7
  - mTextVal: 1
  - mTextVal: 7
  - mTextVal: 1
  - mTextVal: 7
  - mTextVal: 1
  - mTextVal: 7
  - mTextVal: 1
  - mTextVal: 7
  - mTextVal: 1
  - mTextVal: 7
  _TextPayloadIdxs: 01000000040000000500000008000000090000000b0000000e00000011000000120000001500000016000000180000001c0000001f00000026000000280000002a0000002d0000003a0000003d0000003e000000410000004200000044000000470000004a0000004b0000004e0000004f0000005100000055000000580000005f000000610000006300000066000000
