%YAML 1.1
%TAG !u! tag:unity3d.com,2011:
--- !u!114 &11400000
MonoBehaviour:
  m_ObjectHideFlags: 0
  m_PrefabParentObject: {fileID: 0}
  m_PrefabInternal: {fileID: 0}
  m_GameObject: {fileID: 0}
  m_Enabled: 1
  m_EditorHideFlags: 0
  m_Script: {fileID: -2076007791, guid: aa81bbec85a3f423193272a7c6154986, type: 3}
  m_Name: P49
  m_EditorClassIdentifier: 
  mSourceClip: {fileID: 8300000, guid: 9779423e5cdd5a045bd8896035bdfe07, type: 3}
  mAudioFilePath: 
  mSampleRate: 44100
  mIgnoreLatencyOffset: 0
  mTempoSections:
  - sectionName: New Section
    startSample: 0
    samplesPerBeat: 22050
    beatsPerMeasure: 4
    bStartNewMeasure: 1
  - sectionName: New Section
    startSample: 1850
    samplesPerBeat: 16036.363636363636
    beatsPerMeasure: 4
    bStartNewMeasure: 1
  - sectionName: New Section
    startSample: 3407
    samplesPerBeat: 23625
    beatsPerMeasure: 4
    bStartNewMeasure: 1
  - sectionName: New Section
    startSample: 34078
    samplesPerBeat: 15206.896551724138
    beatsPerMeasure: 4
    bStartNewMeasure: 1
  - sectionName: New Section
    startSample: 34081
    samplesPerBeat: 16036.363636363636
    beatsPerMeasure: 4
    bStartNewMeasure: 1
  - sectionName: New Section
    startSample: 326264
    samplesPerBeat: 15564.70588235294
    beatsPerMeasure: 4
    bStartNewMeasure: 1
  - sectionName: New Section
    startSample: 340780
    samplesPerBeat: 15294.797687861272
    beatsPerMeasure: 4
    bStartNewMeasure: 1
  - sectionName: New Section
    startSample: 340816
    samplesPerBeat: 15120
    beatsPerMeasure: 4
    bStartNewMeasure: 1
  - sectionName: New Section
    startSample: 441648
    samplesPerBeat: 15564.70588235294
    beatsPerMeasure: 4
    bStartNewMeasure: 1
  - sectionName: New Section
    startSample: 503151
    samplesPerBeat: 15564.70588235294
    beatsPerMeasure: 4
    bStartNewMeasure: 1
  - sectionName: New Section
    startSample: 564834
    samplesPerBeat: 15564.70588235294
    beatsPerMeasure: 4
    bStartNewMeasure: 1
  - sectionName: New Section
    startSample: 594770
    samplesPerBeat: 14700
    beatsPerMeasure: 4
    bStartNewMeasure: 1
  - sectionName: New Section
    startSample: 653119
    samplesPerBeat: 15294.797687861272
    beatsPerMeasure: 4
    bStartNewMeasure: 1
  - sectionName: New Section
    startSample: 959014
    samplesPerBeat: 15428.571428571428
    beatsPerMeasure: 4
    bStartNewMeasure: 1
  - sectionName: New Section
    startSample: 1082442
    samplesPerBeat: 15294.797687861272
    beatsPerMeasure: 4
    bStartNewMeasure: 1
  - sectionName: New Section
    startSample: 3407800
    samplesPerBeat: 24054.545454545456
    beatsPerMeasure: 4
    bStartNewMeasure: 1
  - sectionName: New Section
    startSample: 3598668
    samplesPerBeat: 23730.941704035875
    beatsPerMeasure: 4
    bStartNewMeasure: 1
  - sectionName: New Section
    startSample: 3788515
    samplesPerBeat: 23415.929203539825
    beatsPerMeasure: 4
    bStartNewMeasure: 1
  - sectionName: New Section
    startSample: 4166010
    samplesPerBeat: 20834.645669291338
    beatsPerMeasure: 4
    bStartNewMeasure: 1
  - sectionName: New Section
    startSample: 4494726
    samplesPerBeat: 16434.782608695652
    beatsPerMeasure: 4
    bStartNewMeasure: 1
  - sectionName: New Section
    startSample: 4519378
    samplesPerBeat: 16434.782608695652
    beatsPerMeasure: 4
    bStartNewMeasure: 1
  - sectionName: New Section
    startSample: 4585117
    samplesPerBeat: 16036.363636363636
    beatsPerMeasure: 4
    bStartNewMeasure: 1
  - sectionName: New Section
    startSample: 4712790
    samplesPerBeat: 15939.759036144578
    beatsPerMeasure: 4
    bStartNewMeasure: 1
  - sectionName: New Section
    startSample: 4901586
    samplesPerBeat: 15939.759036144578
    beatsPerMeasure: 4
    bStartNewMeasure: 1
  - sectionName: New Section
    startSample: 5480080
    samplesPerBeat: 15383.720930232557
    beatsPerMeasure: 4
    bStartNewMeasure: 1
  - sectionName: New Section
    startSample: 5785850
    samplesPerBeat: 15120
    beatsPerMeasure: 4
    bStartNewMeasure: 1
  - sectionName: New Section
    startSample: 6026736
    samplesPerBeat: 15120
    beatsPerMeasure: 4
    bStartNewMeasure: 1
  mTracks:
  - {fileID: 11400000, guid: 2edc0206b97840141abc683772b960c7, type: 2}
  - {fileID: 11400000, guid: 722e1c0f3c8ac514aa09f22dbb8494ca, type: 2}
