%YAML 1.1
%TAG !u! tag:unity3d.com,2011:
--- !u!114 &11400000
MonoBehaviour:
  m_ObjectHideFlags: 0
  m_PrefabParentObject: {fileID: 0}
  m_PrefabInternal: {fileID: 0}
  m_GameObject: {fileID: 0}
  m_Enabled: 1
  m_EditorHideFlags: 0
  m_Script: {fileID: -1223223985, guid: aa81bbec85a3f423193272a7c6154986, type: 3}
  m_Name: P19track
  m_EditorClassIdentifier: 
  mEventID: Note
  mEventList:
  - mStartSample: 2000
    mEndSample: 2000
  - mStartSample: 46100
    mEndSample: 46100
  - mStartSample: 90200
    mEndSample: 90200
  - mStartSample: 104900
    mEndSample: 104900
  - mStartSample: 119600
    mEndSample: 119600
  - mStartSample: 207800
    mEndSample: 207800
  - mStartSample: 222500
    mEndSample: 222500
  - mStartSample: 237200
    mEndSample: 237200
  - mStartSample: 325400
    mEndSample: 325400
  - mStartSample: 340100
    mEndSample: 340100
  - mStartSample: 354800
    mEndSample: 354800
  - mStartSample: 398900
    mEndSample: 398900
  - mStartSample: 443000
    mEndSample: 443000
  - mStartSample: 472400
    mEndSample: 472400
  - mStartSample: 560600
    mEndSample: 560600
  - mStartSample: 575300
    mEndSample: 575300
  - mStartSample: 590000
    mEndSample: 590000
  - mStartSample: 678200
    mEndSample: 678200
  - mStartSample: 692900
    mEndSample: 692900
  - mStartSample: 707600
    mEndSample: 707600
  - mStartSample: 795800
    mEndSample: 795800
  - mStartSample: 810500
    mEndSample: 810500
  - mStartSample: 825200
    mEndSample: 825200
  - mStartSample: 972200
    mEndSample: 972200
  - mStartSample: 986900
    mEndSample: 986900
  - mStartSample: 1045700
    mEndSample: 1045700
  - mStartSample: 1060400
    mEndSample: 1060400
  - mStartSample: 1075100
    mEndSample: 1075100
  - mStartSample: 1148600
    mEndSample: 1148600
  - mStartSample: 1163300
    mEndSample: 1163300
  - mStartSample: 1178000
    mEndSample: 1178000
  - mStartSample: 1266200
    mEndSample: 1266200
  - mStartSample: 1280900
    mEndSample: 1280900
  - mStartSample: 1295600
    mEndSample: 1295600
  - mStartSample: 1339700
    mEndSample: 1339700
  - mStartSample: 1369100
    mEndSample: 1369100
  - mStartSample: 1398500
    mEndSample: 1398500
  - mStartSample: 1413200
    mEndSample: 1413200
  - mStartSample: 1442600
    mEndSample: 1442600
  - mStartSample: 1457300
    mEndSample: 1457300
  - mStartSample: 1486700
    mEndSample: 1486700
  - mStartSample: 1516100
    mEndSample: 1516100
  - mStartSample: 1530800
    mEndSample: 1530800
  - mStartSample: 1545500
    mEndSample: 1545500
  - mStartSample: 1574900
    mEndSample: 1574900
  - mStartSample: 1619000
    mEndSample: 1619000
  - mStartSample: 1633700
    mEndSample: 1633700
  - mStartSample: 1736600
    mEndSample: 1736600
  - mStartSample: 1751300
    mEndSample: 1751300
  - mStartSample: 1766000
    mEndSample: 1766000
  - mStartSample: 1810100
    mEndSample: 1810100
  - mStartSample: 1839500
    mEndSample: 1839500
  - mStartSample: 1868900
    mEndSample: 1868900
  - mStartSample: 1883600
    mEndSample: 1883600
  - mStartSample: 1913000
    mEndSample: 1913000
  - mStartSample: 1927700
    mEndSample: 1927700
  - mStartSample: 1957100
    mEndSample: 1957100
  - mStartSample: 1986500
    mEndSample: 1986500
  - mStartSample: 2001200
    mEndSample: 2001200
  - mStartSample: 2015900
    mEndSample: 2015900
  - mStartSample: 2089400
    mEndSample: 2089400
  - mStartSample: 2104100
    mEndSample: 2104100
  - mStartSample: 2118800
    mEndSample: 2118800
  - mStartSample: 2207000
    mEndSample: 2207000
  - mStartSample: 2221700
    mEndSample: 2221700
  - mStartSample: 2236400
    mEndSample: 2236400
  - mStartSample: 2280500
    mEndSample: 2280500
  - mStartSample: 2309900
    mEndSample: 2309900
  - mStartSample: 2339300
    mEndSample: 2339300
  - mStartSample: 2383400
    mEndSample: 2383400
  - mStartSample: 2398100
    mEndSample: 2398100
  - mStartSample: 2427500
    mEndSample: 2427500
  - mStartSample: 2456900
    mEndSample: 2456900
  - mStartSample: 2471600
    mEndSample: 2471600
  - mStartSample: 2486300
    mEndSample: 2486300
  - mStartSample: 2515700
    mEndSample: 2515700
  - mStartSample: 2559800
    mEndSample: 2559800
  - mStartSample: 2574500
    mEndSample: 2574500
  - mStartSample: 2589200
    mEndSample: 2589200
  - mStartSample: 2677400
    mEndSample: 2677400
  - mStartSample: 2692100
    mEndSample: 2692100
  - mStartSample: 2750900
    mEndSample: 2750900
  - mStartSample: 2795000
    mEndSample: 2795000
  - mStartSample: 2809700
    mEndSample: 2809700
  - mStartSample: 2824400
    mEndSample: 2824400
  - mStartSample: 2839100
    mEndSample: 2839100
  - mStartSample: 2853800
    mEndSample: 2853800
  - mStartSample: 2868500
    mEndSample: 2868500
  - mStartSample: 2883200
    mEndSample: 2883200
  - mStartSample: 2897900
    mEndSample: 2897900
  - mStartSample: 2912600
    mEndSample: 2912600
  - mStartSample: 2927300
    mEndSample: 2927300
  - mStartSample: 2942000
    mEndSample: 2942000
  - mStartSample: 2971400
    mEndSample: 2971400
  - mStartSample: 2986100
    mEndSample: 2986100
  - mStartSample: 3059600
    mEndSample: 3059600
  - mStartSample: 3074300
    mEndSample: 3074300
  - mStartSample: 3089000
    mEndSample: 3089000
  - mStartSample: 3103700
    mEndSample: 3103700
  - mStartSample: 3118400
    mEndSample: 3118400
  - mStartSample: 3133100
    mEndSample: 3133100
  - mStartSample: 3147800
    mEndSample: 3147800
  - mStartSample: 3162500
    mEndSample: 3162500
  - mStartSample: 3177200
    mEndSample: 3177200
  - mStartSample: 3221300
    mEndSample: 3221300
  - mStartSample: 3294800
    mEndSample: 3294800
  - mStartSample: 3309500
    mEndSample: 3309500
  - mStartSample: 3324200
    mEndSample: 3324200
  - mStartSample: 3338900
    mEndSample: 3338900
  - mStartSample: 3353600
    mEndSample: 3353600
  - mStartSample: 3368300
    mEndSample: 3368300
  - mStartSample: 3383000
    mEndSample: 3383000
  - mStartSample: 3397700
    mEndSample: 3397700
  - mStartSample: 3412400
    mEndSample: 3412400
  - mStartSample: 3456500
    mEndSample: 3456500
  - mStartSample: 3500600
    mEndSample: 3500600
  - mStartSample: 3515300
    mEndSample: 3515300
  - mStartSample: 3819590
    mEndSample: 3819590
  - mStartSample: 3833800
    mEndSample: 3833800
  - mStartSample: 3910070
    mEndSample: 3910070
  - mStartSample: 3924570
    mEndSample: 3924570
  - mStartSample: 3999970
    mEndSample: 3999970
  - mStartSample: 4015630
    mEndSample: 4015630
  - mStartSample: 4028674
    mEndSample: 4028674
  - mStartSample: 4119394
    mEndSample: 4119394
  - mStartSample: 4134514
    mEndSample: 4134514
  - mStartSample: 4194994
    mEndSample: 4194994
  - mStartSample: 4225234
    mEndSample: 4225234
  - mStartSample: 4255474
    mEndSample: 4255474
  - mStartSample: 4300158
    mEndSample: 4300158
  - mStartSample: 4314940
    mEndSample: 4314940
  - mStartSample: 4344504
    mEndSample: 4344504
  - mStartSample: 4374068
    mEndSample: 4374068
  - mStartSample: 4388850
    mEndSample: 4388850
  - mStartSample: 4403633
    mEndSample: 4403633
  - mStartSample: 4477543
    mEndSample: 4477543
  - mStartSample: 4492325
    mEndSample: 4492325
  - mStartSample: 4595800
    mEndSample: 4595800
  - mStartSample: 4610582
    mEndSample: 4610582
  - mStartSample: 4625365
    mEndSample: 4625365
  - mStartSample: 4669711
    mEndSample: 4669711
  - mStartSample: 4714057
    mEndSample: 4714057
  - mStartSample: 4728839
    mEndSample: 4728839
  - mStartSample: 4773186
    mEndSample: 4773186
  - mStartSample: 4787968
    mEndSample: 4787968
  - mStartSample: 4817532
    mEndSample: 4817532
  - mStartSample: 4832314
    mEndSample: 4832314
  - mStartSample: 4861878
    mEndSample: 4861878
  - mStartSample: 4876661
    mEndSample: 4876661
  - mStartSample: 4906225
    mEndSample: 4906225
  - mStartSample: 4950571
    mEndSample: 4950571
  - mStartSample: 4965353
    mEndSample: 4965353
  - mStartSample: 5068828
    mEndSample: 5068828
  - mStartSample: 5083610
    mEndSample: 5083610
  - mStartSample: 5098393
    mEndSample: 5098393
  - mStartSample: 5142739
    mEndSample: 5142739
  - mStartSample: 5172303
    mEndSample: 5172303
  - mStartSample: 5201867
    mEndSample: 5201867
  - mStartSample: 5246214
    mEndSample: 5246214
  - mStartSample: 5260996
    mEndSample: 5260996
  - mStartSample: 5290560
    mEndSample: 5290560
  - mStartSample: 5320124
    mEndSample: 5320124
  - mStartSample: 5334906
    mEndSample: 5334906
  - mStartSample: 5349688
    mEndSample: 5349688
  - mStartSample: 5379253
    mEndSample: 5379253
  - mStartSample: 5423599
    mEndSample: 5423599
  - mStartSample: 5438381
    mEndSample: 5438381
  - mStartSample: 5537420
    mEndSample: 5537420
  - mStartSample: 5557400
    mEndSample: 5557400
  - mStartSample: 5703920
    mEndSample: 5703920
  - mStartSample: 5801386
    mEndSample: 5801386
  - mStartSample: 5820460
    mEndSample: 5820460
  - mStartSample: 5837511
    mEndSample: 5837511
  - mStartSample: 5928546
    mEndSample: 5928546
  - mStartSample: 5943863
    mEndSample: 5943863
  - mStartSample: 5963226
    mEndSample: 5963226
  - mStartSample: 6059752
    mEndSample: 6059752
  - mStartSample: 6074491
    mEndSample: 6074491
  - mStartSample: 6089519
    mEndSample: 6089519
  - mStartSample: 6137782
    mEndSample: 6137782
  - mStartSample: 6183733
    mEndSample: 6183733
  - mStartSample: 6217835
    mEndSample: 6217835
  - mStartSample: 6311471
    mEndSample: 6311471
  - mStartSample: 6330545
    mEndSample: 6330545
  - mStartSample: 6345862
    mEndSample: 6345862
  - mStartSample: 6438631
    mEndSample: 6438631
  - mStartSample: 6457127
    mEndSample: 6457127
  - mStartSample: 6473311
    mEndSample: 6473311
  - mStartSample: 6566080
    mEndSample: 6566080
  - mStartSample: 6583998
    mEndSample: 6583998
  - mStartSample: 6605095
    mEndSample: 6605095
  _SerializedPayloadTypes:
  - SonicBloom.Koreo.TextPayload
  _AssetPayloads: []
  _AssetPayloadIdxs: 
  _ColorPayloads: []
  _ColorPayloadIdxs: 
  _CurvePayloads: []
  _CurvePayloadIdxs: 
  _FloatPayloads: []
  _FloatPayloadIdxs: 
  _GradientPayloads: []
  _GradientPayloadIdxs: 
  _IntPayloads: []
  _IntPayloadIdxs: 
  _SpectrumPayloads: []
  _SpectrumPayloadIdxs: 
  _TextPayloads:
  - mTextVal: 1
  - mTextVal: 7
  - mTextVal: 1
  - mTextVal: 7
  - mTextVal: 1
  - mTextVal: 7
  - mTextVal: 1
  - mTextVal: 7
  - mTextVal: 1
  - mTextVal: 7
  - mTextVal: 1
  - mTextVal: 7
  - mTextVal: 1
  - mTextVal: 7
  - mTextVal: 1
  - mTextVal: 7
  - mTextVal: 1
  - mTextVal: 7
  - mTextVal: 1
  - mTextVal: 7
  - mTextVal: 1
  - mTextVal: 7
  - mTextVal: 1
  - mTextVal: 7
  - mTextVal: 1
  - mTextVal: 7
  - mTextVal: 1
  - mTextVal: 7
  - mTextVal: 1
  - mTextVal: 7
  - mTextVal: 1
  - mTextVal: 7
  - mTextVal: 1
  - mTextVal: 7
  - mTextVal: 1
  - mTextVal: 7
  - mTextVal: 1
  - mTextVal: 7
  - mTextVal: 1
  - mTextVal: 7
  - mTextVal: 1
  - mTextVal: 7
  - mTextVal: 1
  - mTextVal: 7
  _TextPayloadIdxs: 02000000040000000500000007000000080000000a0000000e0000001000000011000000130000001400000016000000190000001b0000001c0000001e0000001f00000021000000290000002b0000002f00000031000000390000003b0000003c0000003e0000003f00000041000000480000004a0000004c0000004e000000520000005c0000005f0000006700000069000000710000008400000086000000890000008b000000980000009a000000
