%YAML 1.1
%TAG !u! tag:unity3d.com,2011:
--- !u!114 &11400000
MonoBehaviour:
  m_ObjectHideFlags: 0
  m_PrefabParentObject: {fileID: 0}
  m_PrefabInternal: {fileID: 0}
  m_GameObject: {fileID: 0}
  m_Enabled: 1
  m_EditorHideFlags: 0
  m_Script: {fileID: -1223223985, guid: aa81bbec85a3f423193272a7c6154986, type: 3}
  m_Name: P77track
  m_EditorClassIdentifier: 
  mEventID: Note
  mEventList:
  - mStartSample: 24400
    mEndSample: 24400
  - mStartSample: 42900
    mEndSample: 42900
  - mStartSample: 118500
    mEndSample: 118500
  - mStartSample: 137400
    mEndSample: 137400
  - mStartSample: 156300
    mEndSample: 156300
  - mStartSample: 175200
    mEndSample: 175200
  - mStartSample: 194100
    mEndSample: 194100
  - mStartSample: 307500
    mEndSample: 307500
  - mStartSample: 345300
    mEndSample: 345300
  - mStartSample: 420900
    mEndSample: 420900
  - mStartSample: 439800
    mEndSample: 439800
  - mStartSample: 458700
    mEndSample: 458700
  - mStartSample: 477600
    mEndSample: 477600
  - mStartSample: 496500
    mEndSample: 496500
  - mStartSample: 600450
    mEndSample: 600450
  - mStartSample: 609900
    mEndSample: 609900
  - mStartSample: 619350
    mEndSample: 619350
  - mStartSample: 628800
    mEndSample: 628800
  - mStartSample: 638250
    mEndSample: 638250
  - mStartSample: 647700
    mEndSample: 647700
  - mStartSample: 723300
    mEndSample: 723300
  - mStartSample: 742200
    mEndSample: 742200
  - mStartSample: 761100
    mEndSample: 761100
  - mStartSample: 780000
    mEndSample: 780000
  - mStartSample: 798900
    mEndSample: 798900
  - mStartSample: 827528
    mEndSample: 827528
  - mStartSample: 836700
    mEndSample: 836700
  - mStartSample: 855600
    mEndSample: 855600
  - mStartSample: 874500
    mEndSample: 874500
  - mStartSample: 931200
    mEndSample: 931200
  - mStartSample: 950100
    mEndSample: 950100
  - mStartSample: 1025700
    mEndSample: 1025700
  - mStartSample: 1044600
    mEndSample: 1044600
  - mStartSample: 1063500
    mEndSample: 1063500
  - mStartSample: 1082400
    mEndSample: 1082400
  - mStartSample: 1101300
    mEndSample: 1101300
  - mStartSample: 1233600
    mEndSample: 1233600
  - mStartSample: 1252500
    mEndSample: 1252500
  - mStartSample: 1328100
    mEndSample: 1328100
  - mStartSample: 1347000
    mEndSample: 1347000
  - mStartSample: 1365900
    mEndSample: 1365900
  - mStartSample: 1384800
    mEndSample: 1384800
  - mStartSample: 1403700
    mEndSample: 1403700
  - mStartSample: 1536000
    mEndSample: 1536000
  - mStartSample: 1554900
    mEndSample: 1554900
  - mStartSample: 1630500
    mEndSample: 1630500
  - mStartSample: 1649400
    mEndSample: 1649400
  - mStartSample: 1668300
    mEndSample: 1668300
  - mStartSample: 1687200
    mEndSample: 1687200
  - mStartSample: 1706100
    mEndSample: 1706100
  - mStartSample: 1810050
    mEndSample: 1810050
  - mStartSample: 1819500
    mEndSample: 1819500
  - mStartSample: 1828950
    mEndSample: 1828950
  - mStartSample: 1838400
    mEndSample: 1838400
  - mStartSample: 1847850
    mEndSample: 1847850
  - mStartSample: 1857300
    mEndSample: 1857300
  - mStartSample: 1932900
    mEndSample: 1932900
  - mStartSample: 1951800
    mEndSample: 1951800
  - mStartSample: 1970700
    mEndSample: 1970700
  - mStartSample: 1989600
    mEndSample: 1989600
  - mStartSample: 2008500
    mEndSample: 2008500
  - mStartSample: 2036850
    mEndSample: 2036850
  - mStartSample: 2046300
    mEndSample: 2046300
  - mStartSample: 2065200
    mEndSample: 2065200
  - mStartSample: 2084100
    mEndSample: 2084100
  - mStartSample: 2140800
    mEndSample: 2140800
  - mStartSample: 2159700
    mEndSample: 2159700
  - mStartSample: 2235300
    mEndSample: 2235300
  - mStartSample: 2254200
    mEndSample: 2254200
  - mStartSample: 2273100
    mEndSample: 2273100
  - mStartSample: 2292000
    mEndSample: 2292000
  - mStartSample: 2310900
    mEndSample: 2310900
  - mStartSample: 2414850
    mEndSample: 2414850
  - mStartSample: 2424300
    mEndSample: 2424300
  - mStartSample: 2433750
    mEndSample: 2433750
  - mStartSample: 2443200
    mEndSample: 2443200
  - mStartSample: 2452650
    mEndSample: 2452650
  - mStartSample: 2462100
    mEndSample: 2462100
  - mStartSample: 2537700
    mEndSample: 2537700
  - mStartSample: 2556600
    mEndSample: 2556600
  - mStartSample: 2575500
    mEndSample: 2575500
  - mStartSample: 2594400
    mEndSample: 2594400
  - mStartSample: 2613300
    mEndSample: 2613300
  - mStartSample: 2641650
    mEndSample: 2641650
  - mStartSample: 2651100
    mEndSample: 2651100
  - mStartSample: 2670000
    mEndSample: 2670000
  - mStartSample: 2688900
    mEndSample: 2688900
  - mStartSample: 2745600
    mEndSample: 2745600
  - mStartSample: 2764500
    mEndSample: 2764500
  - mStartSample: 2840100
    mEndSample: 2840100
  - mStartSample: 2859000
    mEndSample: 2859000
  - mStartSample: 2877900
    mEndSample: 2877900
  - mStartSample: 2896800
    mEndSample: 2896800
  - mStartSample: 2915700
    mEndSample: 2915700
  - mStartSample: 3066900
    mEndSample: 3066900
  - mStartSample: 3085800
    mEndSample: 3085800
  - mStartSample: 3095250
    mEndSample: 3095250
  - mStartSample: 3104700
    mEndSample: 3104700
  - mStartSample: 3123600
    mEndSample: 3123600
  - mStartSample: 3142500
    mEndSample: 3142500
  - mStartSample: 3161400
    mEndSample: 3161400
  - mStartSample: 3170850
    mEndSample: 3170850
  - mStartSample: 3180300
    mEndSample: 3180300
  - mStartSample: 3199200
    mEndSample: 3199200
  - mStartSample: 3208650
    mEndSample: 3208650
  - mStartSample: 3218100
    mEndSample: 3218100
  - mStartSample: 3227550
    mEndSample: 3227550
  - mStartSample: 3237000
    mEndSample: 3237000
  - mStartSample: 3246450
    mEndSample: 3246450
  - mStartSample: 3255900
    mEndSample: 3255900
  - mStartSample: 3265350
    mEndSample: 3265350
  - mStartSample: 3274800
    mEndSample: 3274800
  - mStartSample: 3284250
    mEndSample: 3284250
  - mStartSample: 3293700
    mEndSample: 3293700
  - mStartSample: 3312600
    mEndSample: 3312600
  - mStartSample: 3331500
    mEndSample: 3331500
  - mStartSample: 3369300
    mEndSample: 3369300
  - mStartSample: 3388200
    mEndSample: 3388200
  - mStartSample: 3397650
    mEndSample: 3397650
  - mStartSample: 3407100
    mEndSample: 3407100
  - mStartSample: 3416550
    mEndSample: 3416550
  - mStartSample: 3426000
    mEndSample: 3426000
  - mStartSample: 3435450
    mEndSample: 3435450
  - mStartSample: 3444900
    mEndSample: 3444900
  - mStartSample: 3463800
    mEndSample: 3463800
  - mStartSample: 3473250
    mEndSample: 3473250
  - mStartSample: 3482700
    mEndSample: 3482700
  - mStartSample: 3492150
    mEndSample: 3492150
  - mStartSample: 3501600
    mEndSample: 3501600
  - mStartSample: 3511050
    mEndSample: 3511050
  - mStartSample: 3520500
    mEndSample: 3520500
  - mStartSample: 3525225
    mEndSample: 3525225
  - mStartSample: 3529950
    mEndSample: 3529950
  - mStartSample: 3534675
    mEndSample: 3534675
  - mStartSample: 3539400
    mEndSample: 3539400
  - mStartSample: 3544125
    mEndSample: 3544125
  - mStartSample: 3548850
    mEndSample: 3548850
  - mStartSample: 3553575
    mEndSample: 3553575
  - mStartSample: 3558300
    mEndSample: 3558300
  - mStartSample: 3567750
    mEndSample: 3567750
  - mStartSample: 3577200
    mEndSample: 3577200
  - mStartSample: 3586650
    mEndSample: 3586650
  - mStartSample: 3596100
    mEndSample: 3596100
  - mStartSample: 3600825
    mEndSample: 3600825
  - mStartSample: 3605550
    mEndSample: 3605550
  - mStartSample: 3610275
    mEndSample: 3610275
  - mStartSample: 3615000
    mEndSample: 3615000
  - mStartSample: 3619725
    mEndSample: 3619725
  - mStartSample: 3624450
    mEndSample: 3624450
  - mStartSample: 3629175
    mEndSample: 3629175
  - mStartSample: 3633900
    mEndSample: 3633900
  - mStartSample: 3643350
    mEndSample: 3643350
  - mStartSample: 3652800
    mEndSample: 3652800
  - mStartSample: 3662250
    mEndSample: 3662250
  - mStartSample: 3671700
    mEndSample: 3671700
  - mStartSample: 3676425
    mEndSample: 3676425
  - mStartSample: 3681150
    mEndSample: 3681150
  - mStartSample: 3685875
    mEndSample: 3685875
  - mStartSample: 3690600
    mEndSample: 3690600
  - mStartSample: 3695325
    mEndSample: 3695325
  - mStartSample: 3700050
    mEndSample: 3700050
  - mStartSample: 3704775
    mEndSample: 3704775
  - mStartSample: 3709500
    mEndSample: 3709500
  - mStartSample: 3714225
    mEndSample: 3714225
  - mStartSample: 3718950
    mEndSample: 3718950
  - mStartSample: 3723675
    mEndSample: 3723675
  - mStartSample: 3728400
    mEndSample: 3728400
  - mStartSample: 3733125
    mEndSample: 3733125
  - mStartSample: 3737850
    mEndSample: 3737850
  - mStartSample: 3742575
    mEndSample: 3742575
  - mStartSample: 3747300
    mEndSample: 3747300
  - mStartSample: 3766200
    mEndSample: 3766200
  - mStartSample: 3785100
    mEndSample: 3785100
  - mStartSample: 3804000
    mEndSample: 3804000
  - mStartSample: 3822900
    mEndSample: 3822900
  - mStartSample: 3832350
    mEndSample: 3832350
  - mStartSample: 3841800
    mEndSample: 3841800
  - mStartSample: 3860700
    mEndSample: 3860700
  - mStartSample: 3879600
    mEndSample: 3879600
  - mStartSample: 3898500
    mEndSample: 3898500
  - mStartSample: 3926850
    mEndSample: 3926850
  - mStartSample: 3936300
    mEndSample: 3936300
  - mStartSample: 3945750
    mEndSample: 3945750
  - mStartSample: 3955200
    mEndSample: 3955200
  - mStartSample: 3964650
    mEndSample: 3964650
  - mStartSample: 3974100
    mEndSample: 3974100
  - mStartSample: 4011900
    mEndSample: 4011900
  - mStartSample: 4049700
    mEndSample: 4049700
  - mStartSample: 4125300
    mEndSample: 4125300
  - mStartSample: 4144200
    mEndSample: 4144200
  - mStartSample: 4163100
    mEndSample: 4163100
  - mStartSample: 4182000
    mEndSample: 4182000
  - mStartSample: 4200900
    mEndSample: 4200900
  - mStartSample: 4314300
    mEndSample: 4314300
  - mStartSample: 4352100
    mEndSample: 4352100
  - mStartSample: 4427700
    mEndSample: 4427700
  - mStartSample: 4446600
    mEndSample: 4446600
  - mStartSample: 4465500
    mEndSample: 4465500
  - mStartSample: 4484400
    mEndSample: 4484400
  - mStartSample: 4503300
    mEndSample: 4503300
  - mStartSample: 4607250
    mEndSample: 4607250
  - mStartSample: 4616700
    mEndSample: 4616700
  - mStartSample: 4626150
    mEndSample: 4626150
  - mStartSample: 4635600
    mEndSample: 4635600
  - mStartSample: 4645050
    mEndSample: 4645050
  - mStartSample: 4654500
    mEndSample: 4654500
  - mStartSample: 4730100
    mEndSample: 4730100
  - mStartSample: 4749000
    mEndSample: 4749000
  - mStartSample: 4767900
    mEndSample: 4767900
  - mStartSample: 4786800
    mEndSample: 4786800
  - mStartSample: 4805700
    mEndSample: 4805700
  - mStartSample: 4833892
    mEndSample: 4833892
  - mStartSample: 4843500
    mEndSample: 4843500
  - mStartSample: 4862400
    mEndSample: 4862400
  - mStartSample: 4881300
    mEndSample: 4881300
  - mStartSample: 4938000
    mEndSample: 4938000
  - mStartSample: 4956900
    mEndSample: 4956900
  - mStartSample: 5032500
    mEndSample: 5032500
  - mStartSample: 5051400
    mEndSample: 5051400
  - mStartSample: 5070300
    mEndSample: 5070300
  - mStartSample: 5089200
    mEndSample: 5089200
  - mStartSample: 5108100
    mEndSample: 5108100
  - mStartSample: 5212050
    mEndSample: 5212050
  - mStartSample: 5221500
    mEndSample: 5221500
  - mStartSample: 5230950
    mEndSample: 5230950
  - mStartSample: 5240400
    mEndSample: 5240400
  - mStartSample: 5249850
    mEndSample: 5249850
  - mStartSample: 5259300
    mEndSample: 5259300
  - mStartSample: 5334900
    mEndSample: 5334900
  - mStartSample: 5353800
    mEndSample: 5353800
  - mStartSample: 5372700
    mEndSample: 5372700
  - mStartSample: 5391600
    mEndSample: 5391600
  - mStartSample: 5410500
    mEndSample: 5410500
  - mStartSample: 5438888
    mEndSample: 5438888
  - mStartSample: 5448300
    mEndSample: 5448300
  - mStartSample: 5467200
    mEndSample: 5467200
  - mStartSample: 5486100
    mEndSample: 5486100
  - mStartSample: 5542800
    mEndSample: 5542800
  - mStartSample: 5561700
    mEndSample: 5561700
  - mStartSample: 5637300
    mEndSample: 5637300
  - mStartSample: 5656200
    mEndSample: 5656200
  - mStartSample: 5675100
    mEndSample: 5675100
  - mStartSample: 5694000
    mEndSample: 5694000
  - mStartSample: 5712900
    mEndSample: 5712900
  - mStartSample: 5769600
    mEndSample: 5769600
  - mStartSample: 5788500
    mEndSample: 5788500
  _SerializedPayloadTypes:
  - SonicBloom.Koreo.TextPayload
  _AssetPayloads: []
  _AssetPayloadIdxs: 
  _ColorPayloads: []
  _ColorPayloadIdxs: 
  _CurvePayloads: []
  _CurvePayloadIdxs: 
  _FloatPayloads: []
  _FloatPayloadIdxs: 
  _GradientPayloads: []
  _GradientPayloadIdxs: 
  _IntPayloads: []
  _IntPayloadIdxs: 
  _SpectrumPayloads: []
  _SpectrumPayloadIdxs: 
  _TextPayloads:
  - mTextVal: 1
  - mTextVal: 7
  - mTextVal: 1
  - mTextVal: 7
  - mTextVal: 1
  - mTextVal: 7
  _TextPayloadIdxs: 820000008d0000008e000000990000009a000000aa000000
