%YAML 1.1
%TAG !u! tag:unity3d.com,2011:
--- !u!114 &11400000
MonoBehaviour:
  m_ObjectHideFlags: 0
  m_PrefabParentObject: {fileID: 0}
  m_PrefabInternal: {fileID: 0}
  m_GameObject: {fileID: 0}
  m_Enabled: 1
  m_EditorHideFlags: 0
  m_Script: {fileID: -1223223985, guid: aa81bbec85a3f423193272a7c6154986, type: 3}
  m_Name: P12track
  m_EditorClassIdentifier: 
  mEventID: Note
  mEventList:
  - mStartSample: 19000
    mEndSample: 19000
  - mStartSample: 23530
    mEndSample: 23530
  - mStartSample: 28061
    mEndSample: 28061
  - mStartSample: 32592
    mEndSample: 32592
  - mStartSample: 37123
    mEndSample: 37123
  - mStartSample: 55246
    mEndSample: 55246
  - mStartSample: 59777
    mEndSample: 59777
  - mStartSample: 64308
    mEndSample: 64308
  - mStartSample: 68839
    mEndSample: 68839
  - mStartSample: 73369
    mEndSample: 73369
  - mStartSample: 91493
    mEndSample: 91493
  - mStartSample: 96023
    mEndSample: 96023
  - mStartSample: 100554
    mEndSample: 100554
  - mStartSample: 105085
    mEndSample: 105085
  - mStartSample: 109616
    mEndSample: 109616
  - mStartSample: 114147
    mEndSample: 114147
  - mStartSample: 118678
    mEndSample: 118678
  - mStartSample: 123208
    mEndSample: 123208
  - mStartSample: 127739
    mEndSample: 127739
  - mStartSample: 132270
    mEndSample: 132270
  - mStartSample: 136801
    mEndSample: 136801
  - mStartSample: 141332
    mEndSample: 141332
  - mStartSample: 145863
    mEndSample: 145863
  - mStartSample: 163986
    mEndSample: 163986
  - mStartSample: 173047
    mEndSample: 173047
  - mStartSample: 182109
    mEndSample: 182109
  - mStartSample: 191171
    mEndSample: 191171
  - mStartSample: 200232
    mEndSample: 200232
  - mStartSample: 209294
    mEndSample: 209294
  - mStartSample: 218356
    mEndSample: 218356
  - mStartSample: 227417
    mEndSample: 227417
  - mStartSample: 236479
    mEndSample: 236479
  - mStartSample: 245541
    mEndSample: 245541
  - mStartSample: 254602
    mEndSample: 254602
  - mStartSample: 263664
    mEndSample: 263664
  - mStartSample: 272726
    mEndSample: 272726
  - mStartSample: 282662
    mEndSample: 282662
  - mStartSample: 293090
    mEndSample: 293090
  - mStartSample: 314712
    mEndSample: 314712
  - mStartSample: 319242
    mEndSample: 319242
  - mStartSample: 323773
    mEndSample: 323773
  - mStartSample: 328304
    mEndSample: 328304
  - mStartSample: 332835
    mEndSample: 332835
  - mStartSample: 350958
    mEndSample: 350958
  - mStartSample: 355489
    mEndSample: 355489
  - mStartSample: 360020
    mEndSample: 360020
  - mStartSample: 364551
    mEndSample: 364551
  - mStartSample: 369081
    mEndSample: 369081
  - mStartSample: 387205
    mEndSample: 387205
  - mStartSample: 391735
    mEndSample: 391735
  - mStartSample: 396266
    mEndSample: 396266
  - mStartSample: 400797
    mEndSample: 400797
  - mStartSample: 405328
    mEndSample: 405328
  - mStartSample: 409859
    mEndSample: 409859
  - mStartSample: 414390
    mEndSample: 414390
  - mStartSample: 418920
    mEndSample: 418920
  - mStartSample: 423451
    mEndSample: 423451
  - mStartSample: 427982
    mEndSample: 427982
  - mStartSample: 432513
    mEndSample: 432513
  - mStartSample: 437044
    mEndSample: 437044
  - mStartSample: 441575
    mEndSample: 441575
  - mStartSample: 459698
    mEndSample: 459698
  - mStartSample: 468759
    mEndSample: 468759
  - mStartSample: 477821
    mEndSample: 477821
  - mStartSample: 486883
    mEndSample: 486883
  - mStartSample: 495944
    mEndSample: 495944
  - mStartSample: 505006
    mEndSample: 505006
  - mStartSample: 514068
    mEndSample: 514068
  - mStartSample: 523129
    mEndSample: 523129
  - mStartSample: 532191
    mEndSample: 532191
  - mStartSample: 541253
    mEndSample: 541253
  - mStartSample: 550314
    mEndSample: 550314
  - mStartSample: 559376
    mEndSample: 559376
  - mStartSample: 568438
    mEndSample: 568438
  - mStartSample: 578632
    mEndSample: 578632
  - mStartSample: 589051
    mEndSample: 589051
  - mStartSample: 610342
    mEndSample: 610342
  - mStartSample: 619100
    mEndSample: 619100
  - mStartSample: 628160
    mEndSample: 628160
  - mStartSample: 637824
    mEndSample: 637824
  - mStartSample: 647035
    mEndSample: 647035
  - mStartSample: 651414
    mEndSample: 651414
  - mStartSample: 656095
    mEndSample: 656095
  - mStartSample: 661229
    mEndSample: 661229
  - mStartSample: 665608
    mEndSample: 665608
  - mStartSample: 685984
    mEndSample: 685984
  - mStartSample: 694742
    mEndSample: 694742
  - mStartSample: 703802
    mEndSample: 703802
  - mStartSample: 713466
    mEndSample: 713466
  - mStartSample: 722677
    mEndSample: 722677
  - mStartSample: 727056
    mEndSample: 727056
  - mStartSample: 731737
    mEndSample: 731737
  - mStartSample: 736871
    mEndSample: 736871
  - mStartSample: 741250
    mEndSample: 741250
  - mStartSample: 761256
    mEndSample: 761256
  - mStartSample: 770014
    mEndSample: 770014
  - mStartSample: 779074
    mEndSample: 779074
  - mStartSample: 788738
    mEndSample: 788738
  - mStartSample: 797949
    mEndSample: 797949
  - mStartSample: 802328
    mEndSample: 802328
  - mStartSample: 807009
    mEndSample: 807009
  - mStartSample: 812143
    mEndSample: 812143
  - mStartSample: 816522
    mEndSample: 816522
  - mStartSample: 836528
    mEndSample: 836528
  - mStartSample: 845286
    mEndSample: 845286
  - mStartSample: 854346
    mEndSample: 854346
  - mStartSample: 864010
    mEndSample: 864010
  - mStartSample: 873221
    mEndSample: 873221
  - mStartSample: 877600
    mEndSample: 877600
  - mStartSample: 882281
    mEndSample: 882281
  - mStartSample: 887415
    mEndSample: 887415
  - mStartSample: 891794
    mEndSample: 891794
  - mStartSample: 910716
    mEndSample: 910716
  - mStartSample: 915246
    mEndSample: 915246
  - mStartSample: 919777
    mEndSample: 919777
  - mStartSample: 924308
    mEndSample: 924308
  - mStartSample: 928839
    mEndSample: 928839
  - mStartSample: 946962
    mEndSample: 946962
  - mStartSample: 951493
    mEndSample: 951493
  - mStartSample: 956024
    mEndSample: 956024
  - mStartSample: 960555
    mEndSample: 960555
  - mStartSample: 965085
    mEndSample: 965085
  - mStartSample: 983209
    mEndSample: 983209
  - mStartSample: 987739
    mEndSample: 987739
  - mStartSample: 992270
    mEndSample: 992270
  - mStartSample: 996801
    mEndSample: 996801
  - mStartSample: 1001332
    mEndSample: 1001332
  - mStartSample: 1005863
    mEndSample: 1005863
  - mStartSample: 1010394
    mEndSample: 1010394
  - mStartSample: 1014924
    mEndSample: 1014924
  - mStartSample: 1019455
    mEndSample: 1019455
  - mStartSample: 1023986
    mEndSample: 1023986
  - mStartSample: 1028517
    mEndSample: 1028517
  - mStartSample: 1033048
    mEndSample: 1033048
  - mStartSample: 1038243
    mEndSample: 1038243
  - mStartSample: 1056889
    mEndSample: 1056889
  - mStartSample: 1065950
    mEndSample: 1065950
  - mStartSample: 1075012
    mEndSample: 1075012
  - mStartSample: 1084073
    mEndSample: 1084073
  - mStartSample: 1093135
    mEndSample: 1093135
  - mStartSample: 1102197
    mEndSample: 1102197
  - mStartSample: 1111258
    mEndSample: 1111258
  - mStartSample: 1120320
    mEndSample: 1120320
  - mStartSample: 1129382
    mEndSample: 1129382
  - mStartSample: 1138443
    mEndSample: 1138443
  - mStartSample: 1147505
    mEndSample: 1147505
  - mStartSample: 1165628
    mEndSample: 1165628
  - mStartSample: 1181412
    mEndSample: 1181412
  - mStartSample: 1188282
    mEndSample: 1188282
  - mStartSample: 1207776
    mEndSample: 1207776
  - mStartSample: 1217092
    mEndSample: 1217092
  - mStartSample: 1226409
    mEndSample: 1226409
  - mStartSample: 1235726
    mEndSample: 1235726
  - mStartSample: 1245043
    mEndSample: 1245043
  - mStartSample: 1249702
    mEndSample: 1249702
  - mStartSample: 1254360
    mEndSample: 1254360
  - mStartSample: 1259018
    mEndSample: 1259018
  - mStartSample: 1263677
    mEndSample: 1263677
  - mStartSample: 1283032
    mEndSample: 1283032
  - mStartSample: 1292348
    mEndSample: 1292348
  - mStartSample: 1301665
    mEndSample: 1301665
  - mStartSample: 1310982
    mEndSample: 1310982
  - mStartSample: 1320299
    mEndSample: 1320299
  - mStartSample: 1324958
    mEndSample: 1324958
  - mStartSample: 1329616
    mEndSample: 1329616
  - mStartSample: 1334274
    mEndSample: 1334274
  - mStartSample: 1338933
    mEndSample: 1338933
  - mStartSample: 1358916
    mEndSample: 1358916
  - mStartSample: 1368232
    mEndSample: 1368232
  - mStartSample: 1377549
    mEndSample: 1377549
  - mStartSample: 1386866
    mEndSample: 1386866
  - mStartSample: 1396183
    mEndSample: 1396183
  - mStartSample: 1400842
    mEndSample: 1400842
  - mStartSample: 1405500
    mEndSample: 1405500
  - mStartSample: 1410158
    mEndSample: 1410158
  - mStartSample: 1414817
    mEndSample: 1414817
  - mStartSample: 1434528
    mEndSample: 1434528
  - mStartSample: 1443844
    mEndSample: 1443844
  - mStartSample: 1453161
    mEndSample: 1453161
  - mStartSample: 1462478
    mEndSample: 1462478
  - mStartSample: 1471795
    mEndSample: 1471795
  - mStartSample: 1476454
    mEndSample: 1476454
  - mStartSample: 1481112
    mEndSample: 1481112
  - mStartSample: 1485770
    mEndSample: 1485770
  - mStartSample: 1490429
    mEndSample: 1490429
  - mStartSample: 1508716
    mEndSample: 1508716
  - mStartSample: 1513309
    mEndSample: 1513309
  - mStartSample: 1517903
    mEndSample: 1517903
  - mStartSample: 1522497
    mEndSample: 1522497
  - mStartSample: 1527091
    mEndSample: 1527091
  - mStartSample: 1545466
    mEndSample: 1545466
  - mStartSample: 1550059
    mEndSample: 1550059
  - mStartSample: 1554653
    mEndSample: 1554653
  - mStartSample: 1559247
    mEndSample: 1559247
  - mStartSample: 1563841
    mEndSample: 1563841
  - mStartSample: 1580864
    mEndSample: 1580864
  - mStartSample: 1585457
    mEndSample: 1585457
  - mStartSample: 1590051
    mEndSample: 1590051
  - mStartSample: 1594645
    mEndSample: 1594645
  - mStartSample: 1599239
    mEndSample: 1599239
  - mStartSample: 1603832
    mEndSample: 1603832
  - mStartSample: 1608426
    mEndSample: 1608426
  - mStartSample: 1613020
    mEndSample: 1613020
  - mStartSample: 1617614
    mEndSample: 1617614
  - mStartSample: 1622207
    mEndSample: 1622207
  - mStartSample: 1626801
    mEndSample: 1626801
  - mStartSample: 1631395
    mEndSample: 1631395
  - mStartSample: 1635989
    mEndSample: 1635989
  - mStartSample: 1654364
    mEndSample: 1654364
  - mStartSample: 1663551
    mEndSample: 1663551
  - mStartSample: 1672739
    mEndSample: 1672739
  - mStartSample: 1681926
    mEndSample: 1681926
  - mStartSample: 1691114
    mEndSample: 1691114
  - mStartSample: 1700301
    mEndSample: 1700301
  - mStartSample: 1709489
    mEndSample: 1709489
  - mStartSample: 1718676
    mEndSample: 1718676
  - mStartSample: 1727864
    mEndSample: 1727864
  - mStartSample: 1737051
    mEndSample: 1737051
  - mStartSample: 1746239
    mEndSample: 1746239
  - mStartSample: 1764614
    mEndSample: 1764614
  - mStartSample: 1779288
    mEndSample: 1779288
  - mStartSample: 1785000
    mEndSample: 1785000
  - mStartSample: 1805128
    mEndSample: 1805128
  - mStartSample: 1814412
    mEndSample: 1814412
  - mStartSample: 1823696
    mEndSample: 1823696
  - mStartSample: 1842264
    mEndSample: 1842264
  - mStartSample: 1851549
    mEndSample: 1851549
  - mStartSample: 1860833
    mEndSample: 1860833
  - mStartSample: 1870117
    mEndSample: 1870117
  - mStartSample: 1879401
    mEndSample: 1879401
  - mStartSample: 1888685
    mEndSample: 1888685
  - mStartSample: 1897970
    mEndSample: 1897970
  - mStartSample: 1907254
    mEndSample: 1907254
  - mStartSample: 1916538
    mEndSample: 1916538
  - mStartSample: 1925822
    mEndSample: 1925822
  - mStartSample: 1935106
    mEndSample: 1935106
  - mStartSample: 1944391
    mEndSample: 1944391
  - mStartSample: 1954834
    mEndSample: 1954834
  - mStartSample: 1964118
    mEndSample: 1964118
  - mStartSample: 1973402
    mEndSample: 1973402
  - mStartSample: 1990812
    mEndSample: 1990812
  - mStartSample: 2000096
    mEndSample: 2000096
  - mStartSample: 2009380
    mEndSample: 2009380
  - mStartSample: 2018664
    mEndSample: 2018664
  - mStartSample: 2027949
    mEndSample: 2027949
  - mStartSample: 2037233
    mEndSample: 2037233
  - mStartSample: 2046517
    mEndSample: 2046517
  - mStartSample: 2055801
    mEndSample: 2055801
  - mStartSample: 2065085
    mEndSample: 2065085
  - mStartSample: 2075646
    mEndSample: 2075646
  - mStartSample: 2086260
    mEndSample: 2086260
  - mStartSample: 2105620
    mEndSample: 2105620
  - mStartSample: 2114904
    mEndSample: 2114904
  - mStartSample: 2124188
    mEndSample: 2124188
  - mStartSample: 2142756
    mEndSample: 2142756
  - mStartSample: 2152041
    mEndSample: 2152041
  - mStartSample: 2161325
    mEndSample: 2161325
  - mStartSample: 2170609
    mEndSample: 2170609
  - mStartSample: 2179893
    mEndSample: 2179893
  - mStartSample: 2189177
    mEndSample: 2189177
  - mStartSample: 2198462
    mEndSample: 2198462
  - mStartSample: 2207746
    mEndSample: 2207746
  - mStartSample: 2217030
    mEndSample: 2217030
  - mStartSample: 2226314
    mEndSample: 2226314
  - mStartSample: 2235598
    mEndSample: 2235598
  - mStartSample: 2244883
    mEndSample: 2244883
  - mStartSample: 2255326
    mEndSample: 2255326
  - mStartSample: 2264610
    mEndSample: 2264610
  - mStartSample: 2273894
    mEndSample: 2273894
  - mStartSample: 2291304
    mEndSample: 2291304
  - mStartSample: 2300588
    mEndSample: 2300588
  - mStartSample: 2309872
    mEndSample: 2309872
  - mStartSample: 2319156
    mEndSample: 2319156
  - mStartSample: 2328441
    mEndSample: 2328441
  - mStartSample: 2337725
    mEndSample: 2337725
  - mStartSample: 2347009
    mEndSample: 2347009
  - mStartSample: 2356293
    mEndSample: 2356293
  - mStartSample: 2365577
    mEndSample: 2365577
  - mStartSample: 2376138
    mEndSample: 2376138
  - mStartSample: 2386752
    mEndSample: 2386752
  - mStartSample: 2405964
    mEndSample: 2405964
  - mStartSample: 2410615
    mEndSample: 2410615
  - mStartSample: 2415267
    mEndSample: 2415267
  - mStartSample: 2419919
    mEndSample: 2419919
  - mStartSample: 2424571
    mEndSample: 2424571
  - mStartSample: 2429223
    mEndSample: 2429223
  - mStartSample: 2433875
    mEndSample: 2433875
  - mStartSample: 2438527
    mEndSample: 2438527
  - mStartSample: 2443179
    mEndSample: 2443179
  - mStartSample: 2447831
    mEndSample: 2447831
  - mStartSample: 2452482
    mEndSample: 2452482
  - mStartSample: 2457134
    mEndSample: 2457134
  - mStartSample: 2461786
    mEndSample: 2461786
  - mStartSample: 2466438
    mEndSample: 2466438
  - mStartSample: 2471090
    mEndSample: 2471090
  - mStartSample: 2475742
    mEndSample: 2475742
  - mStartSample: 2480394
    mEndSample: 2480394
  - mStartSample: 2485046
    mEndSample: 2485046
  - mStartSample: 2489698
    mEndSample: 2489698
  - mStartSample: 2494350
    mEndSample: 2494350
  - mStartSample: 2499001
    mEndSample: 2499001
  - mStartSample: 2503653
    mEndSample: 2503653
  - mStartSample: 2508305
    mEndSample: 2508305
  - mStartSample: 2512957
    mEndSample: 2512957
  - mStartSample: 2517609
    mEndSample: 2517609
  - mStartSample: 2522261
    mEndSample: 2522261
  - mStartSample: 2526913
    mEndSample: 2526913
  - mStartSample: 2531565
    mEndSample: 2531565
  - mStartSample: 2536217
    mEndSample: 2536217
  - mStartSample: 2540869
    mEndSample: 2540869
  - mStartSample: 2545520
    mEndSample: 2545520
  - mStartSample: 2550172
    mEndSample: 2550172
  - mStartSample: 2554824
    mEndSample: 2554824
  - mStartSample: 2559476
    mEndSample: 2559476
  - mStartSample: 2564128
    mEndSample: 2564128
  - mStartSample: 2568780
    mEndSample: 2568780
  - mStartSample: 2573432
    mEndSample: 2573432
  - mStartSample: 2578084
    mEndSample: 2578084
  - mStartSample: 2582736
    mEndSample: 2582736
  - mStartSample: 2587388
    mEndSample: 2587388
  - mStartSample: 2592039
    mEndSample: 2592039
  - mStartSample: 2596691
    mEndSample: 2596691
  - mStartSample: 2601343
    mEndSample: 2601343
  - mStartSample: 2605995
    mEndSample: 2605995
  - mStartSample: 2610647
    mEndSample: 2610647
  - mStartSample: 2615299
    mEndSample: 2615299
  - mStartSample: 2619951
    mEndSample: 2619951
  - mStartSample: 2624603
    mEndSample: 2624603
  - mStartSample: 2629255
    mEndSample: 2629255
  - mStartSample: 2633907
    mEndSample: 2633907
  - mStartSample: 2638558
    mEndSample: 2638558
  - mStartSample: 2643210
    mEndSample: 2643210
  - mStartSample: 2647862
    mEndSample: 2647862
  - mStartSample: 2652514
    mEndSample: 2652514
  - mStartSample: 2657166
    mEndSample: 2657166
  - mStartSample: 2661818
    mEndSample: 2661818
  - mStartSample: 2666470
    mEndSample: 2666470
  - mStartSample: 2671122
    mEndSample: 2671122
  - mStartSample: 2675774
    mEndSample: 2675774
  - mStartSample: 2680426
    mEndSample: 2680426
  - mStartSample: 2685077
    mEndSample: 2685077
  - mStartSample: 2704460
    mEndSample: 2704460
  - mStartSample: 2709111
    mEndSample: 2709111
  - mStartSample: 2713763
    mEndSample: 2713763
  - mStartSample: 2718415
    mEndSample: 2718415
  - mStartSample: 2723067
    mEndSample: 2723067
  - mStartSample: 2727719
    mEndSample: 2727719
  - mStartSample: 2732371
    mEndSample: 2732371
  - mStartSample: 2737023
    mEndSample: 2737023
  - mStartSample: 2741675
    mEndSample: 2741675
  - mStartSample: 2746327
    mEndSample: 2746327
  - mStartSample: 2750978
    mEndSample: 2750978
  - mStartSample: 2755630
    mEndSample: 2755630
  - mStartSample: 2760282
    mEndSample: 2760282
  - mStartSample: 2764934
    mEndSample: 2764934
  - mStartSample: 2769586
    mEndSample: 2769586
  - mStartSample: 2774238
    mEndSample: 2774238
  - mStartSample: 2778890
    mEndSample: 2778890
  - mStartSample: 2783542
    mEndSample: 2783542
  - mStartSample: 2788194
    mEndSample: 2788194
  - mStartSample: 2792846
    mEndSample: 2792846
  - mStartSample: 2797497
    mEndSample: 2797497
  - mStartSample: 2802149
    mEndSample: 2802149
  - mStartSample: 2806801
    mEndSample: 2806801
  - mStartSample: 2811453
    mEndSample: 2811453
  - mStartSample: 2816105
    mEndSample: 2816105
  - mStartSample: 2820757
    mEndSample: 2820757
  - mStartSample: 2825409
    mEndSample: 2825409
  - mStartSample: 2830061
    mEndSample: 2830061
  - mStartSample: 2834713
    mEndSample: 2834713
  - mStartSample: 2839365
    mEndSample: 2839365
  - mStartSample: 2844016
    mEndSample: 2844016
  - mStartSample: 2848668
    mEndSample: 2848668
  - mStartSample: 2853320
    mEndSample: 2853320
  - mStartSample: 2857972
    mEndSample: 2857972
  - mStartSample: 2862624
    mEndSample: 2862624
  - mStartSample: 2867276
    mEndSample: 2867276
  - mStartSample: 2871928
    mEndSample: 2871928
  - mStartSample: 2876580
    mEndSample: 2876580
  - mStartSample: 2881232
    mEndSample: 2881232
  - mStartSample: 2885884
    mEndSample: 2885884
  - mStartSample: 2890535
    mEndSample: 2890535
  - mStartSample: 2895187
    mEndSample: 2895187
  - mStartSample: 2899839
    mEndSample: 2899839
  - mStartSample: 2904491
    mEndSample: 2904491
  - mStartSample: 2909143
    mEndSample: 2909143
  - mStartSample: 2913795
    mEndSample: 2913795
  - mStartSample: 2918447
    mEndSample: 2918447
  - mStartSample: 2923099
    mEndSample: 2923099
  - mStartSample: 2927751
    mEndSample: 2927751
  - mStartSample: 2932403
    mEndSample: 2932403
  - mStartSample: 2937054
    mEndSample: 2937054
  - mStartSample: 2941706
    mEndSample: 2941706
  - mStartSample: 2946358
    mEndSample: 2946358
  - mStartSample: 2951010
    mEndSample: 2951010
  - mStartSample: 2955662
    mEndSample: 2955662
  - mStartSample: 2960314
    mEndSample: 2960314
  - mStartSample: 2964966
    mEndSample: 2964966
  - mStartSample: 2969618
    mEndSample: 2969618
  - mStartSample: 2974270
    mEndSample: 2974270
  - mStartSample: 2978922
    mEndSample: 2978922
  - mStartSample: 2983573
    mEndSample: 2983573
  - mStartSample: 3003504
    mEndSample: 3003504
  - mStartSample: 3008155
    mEndSample: 3008155
  - mStartSample: 3012807
    mEndSample: 3012807
  - mStartSample: 3017459
    mEndSample: 3017459
  - mStartSample: 3022111
    mEndSample: 3022111
  - mStartSample: 3026763
    mEndSample: 3026763
  - mStartSample: 3031415
    mEndSample: 3031415
  - mStartSample: 3036067
    mEndSample: 3036067
  - mStartSample: 3040719
    mEndSample: 3040719
  - mStartSample: 3045371
    mEndSample: 3045371
  - mStartSample: 3050022
    mEndSample: 3050022
  - mStartSample: 3054674
    mEndSample: 3054674
  - mStartSample: 3059326
    mEndSample: 3059326
  - mStartSample: 3063978
    mEndSample: 3063978
  - mStartSample: 3068630
    mEndSample: 3068630
  - mStartSample: 3073282
    mEndSample: 3073282
  - mStartSample: 3077934
    mEndSample: 3077934
  - mStartSample: 3082586
    mEndSample: 3082586
  - mStartSample: 3087238
    mEndSample: 3087238
  - mStartSample: 3091890
    mEndSample: 3091890
  - mStartSample: 3096541
    mEndSample: 3096541
  - mStartSample: 3101193
    mEndSample: 3101193
  - mStartSample: 3105845
    mEndSample: 3105845
  - mStartSample: 3110497
    mEndSample: 3110497
  - mStartSample: 3115149
    mEndSample: 3115149
  - mStartSample: 3119801
    mEndSample: 3119801
  - mStartSample: 3124453
    mEndSample: 3124453
  - mStartSample: 3129105
    mEndSample: 3129105
  - mStartSample: 3134513
    mEndSample: 3134513
  - mStartSample: 3144372
    mEndSample: 3144372
  - mStartSample: 3153623
    mEndSample: 3153623
  - mStartSample: 3158274
    mEndSample: 3158274
  - mStartSample: 3162926
    mEndSample: 3162926
  - mStartSample: 3167578
    mEndSample: 3167578
  - mStartSample: 3172230
    mEndSample: 3172230
  - mStartSample: 3176882
    mEndSample: 3176882
  - mStartSample: 3181534
    mEndSample: 3181534
  - mStartSample: 3186186
    mEndSample: 3186186
  - mStartSample: 3190838
    mEndSample: 3190838
  - mStartSample: 3195490
    mEndSample: 3195490
  - mStartSample: 3200141
    mEndSample: 3200141
  - mStartSample: 3204793
    mEndSample: 3204793
  - mStartSample: 3209445
    mEndSample: 3209445
  - mStartSample: 3214097
    mEndSample: 3214097
  - mStartSample: 3218749
    mEndSample: 3218749
  - mStartSample: 3223401
    mEndSample: 3223401
  - mStartSample: 3228053
    mEndSample: 3228053
  - mStartSample: 3232705
    mEndSample: 3232705
  - mStartSample: 3237357
    mEndSample: 3237357
  - mStartSample: 3242009
    mEndSample: 3242009
  - mStartSample: 3246660
    mEndSample: 3246660
  - mStartSample: 3251312
    mEndSample: 3251312
  - mStartSample: 3255964
    mEndSample: 3255964
  - mStartSample: 3260616
    mEndSample: 3260616
  - mStartSample: 3265268
    mEndSample: 3265268
  - mStartSample: 3269920
    mEndSample: 3269920
  - mStartSample: 3274572
    mEndSample: 3274572
  - mStartSample: 3279224
    mEndSample: 3279224
  - mStartSample: 3283876
    mEndSample: 3283876
  - mStartSample: 3302483
    mEndSample: 3302483
  - mStartSample: 3307276
    mEndSample: 3307276
  - mStartSample: 3312069
    mEndSample: 3312069
  - mStartSample: 3316863
    mEndSample: 3316863
  - mStartSample: 3321656
    mEndSample: 3321656
  - mStartSample: 3326450
    mEndSample: 3326450
  - mStartSample: 3331243
    mEndSample: 3331243
  - mStartSample: 3336037
    mEndSample: 3336037
  - mStartSample: 3339613
    mEndSample: 3339613
  - mStartSample: 3344371
    mEndSample: 3344371
  - mStartSample: 3349130
    mEndSample: 3349130
  - mStartSample: 3353889
    mEndSample: 3353889
  - mStartSample: 3358648
    mEndSample: 3358648
  - mStartSample: 3363407
    mEndSample: 3363407
  - mStartSample: 3368166
    mEndSample: 3368166
  - mStartSample: 3372925
    mEndSample: 3372925
  - mStartSample: 3377684
    mEndSample: 3377684
  - mStartSample: 3382443
    mEndSample: 3382443
  - mStartSample: 3387202
    mEndSample: 3387202
  - mStartSample: 3391961
    mEndSample: 3391961
  - mStartSample: 3396720
    mEndSample: 3396720
  - mStartSample: 3401479
    mEndSample: 3401479
  - mStartSample: 3406238
    mEndSample: 3406238
  - mStartSample: 3410997
    mEndSample: 3410997
  - mStartSample: 3415756
    mEndSample: 3415756
  - mStartSample: 3419364
    mEndSample: 3419364
  - mStartSample: 3424123
    mEndSample: 3424123
  - mStartSample: 3428882
    mEndSample: 3428882
  - mStartSample: 3433092
    mEndSample: 3433092
  - mStartSample: 3437750
    mEndSample: 3437750
  - mStartSample: 3442408
    mEndSample: 3442408
  - mStartSample: 3447067
    mEndSample: 3447067
  - mStartSample: 3451725
    mEndSample: 3451725
  - mStartSample: 3456384
    mEndSample: 3456384
  - mStartSample: 3461042
    mEndSample: 3461042
  - mStartSample: 3465701
    mEndSample: 3465701
  - mStartSample: 3470359
    mEndSample: 3470359
  - mStartSample: 3475018
    mEndSample: 3475018
  - mStartSample: 3479676
    mEndSample: 3479676
  - mStartSample: 3484334
    mEndSample: 3484334
  - mStartSample: 3488993
    mEndSample: 3488993
  - mStartSample: 3493651
    mEndSample: 3493651
  - mStartSample: 3498310
    mEndSample: 3498310
  - mStartSample: 3502968
    mEndSample: 3502968
  - mStartSample: 3507627
    mEndSample: 3507627
  - mStartSample: 3512285
    mEndSample: 3512285
  - mStartSample: 3516944
    mEndSample: 3516944
  - mStartSample: 3521602
    mEndSample: 3521602
  - mStartSample: 3526261
    mEndSample: 3526261
  - mStartSample: 3530919
    mEndSample: 3530919
  - mStartSample: 3535577
    mEndSample: 3535577
  - mStartSample: 3540236
    mEndSample: 3540236
  - mStartSample: 3544894
    mEndSample: 3544894
  - mStartSample: 3549553
    mEndSample: 3549553
  - mStartSample: 3554211
    mEndSample: 3554211
  - mStartSample: 3558870
    mEndSample: 3558870
  - mStartSample: 3563528
    mEndSample: 3563528
  - mStartSample: 3568187
    mEndSample: 3568187
  - mStartSample: 3572845
    mEndSample: 3572845
  - mStartSample: 3577503
    mEndSample: 3577503
  - mStartSample: 3582162
    mEndSample: 3582162
  - mStartSample: 3601986
    mEndSample: 3601986
  - mStartSample: 3606644
    mEndSample: 3606644
  - mStartSample: 3611303
    mEndSample: 3611303
  - mStartSample: 3615961
    mEndSample: 3615961
  - mStartSample: 3621408
    mEndSample: 3621408
  - mStartSample: 3626066
    mEndSample: 3626066
  - mStartSample: 3630724
    mEndSample: 3630724
  - mStartSample: 3635383
    mEndSample: 3635383
  - mStartSample: 3640041
    mEndSample: 3640041
  - mStartSample: 3644700
    mEndSample: 3644700
  - mStartSample: 3649358
    mEndSample: 3649358
  - mStartSample: 3654017
    mEndSample: 3654017
  - mStartSample: 3658675
    mEndSample: 3658675
  - mStartSample: 3663334
    mEndSample: 3663334
  - mStartSample: 3667992
    mEndSample: 3667992
  - mStartSample: 3672650
    mEndSample: 3672650
  - mStartSample: 3677309
    mEndSample: 3677309
  - mStartSample: 3681967
    mEndSample: 3681967
  - mStartSample: 3686626
    mEndSample: 3686626
  - mStartSample: 3691284
    mEndSample: 3691284
  - mStartSample: 3695943
    mEndSample: 3695943
  - mStartSample: 3700601
    mEndSample: 3700601
  - mStartSample: 3705260
    mEndSample: 3705260
  - mStartSample: 3709918
    mEndSample: 3709918
  - mStartSample: 3714577
    mEndSample: 3714577
  - mStartSample: 3719235
    mEndSample: 3719235
  - mStartSample: 3723893
    mEndSample: 3723893
  - mStartSample: 3728552
    mEndSample: 3728552
  - mStartSample: 3734150
    mEndSample: 3734150
  - mStartSample: 3744300
    mEndSample: 3744300
  - mStartSample: 3753666
    mEndSample: 3753666
  - mStartSample: 3758325
    mEndSample: 3758325
  - mStartSample: 3762983
    mEndSample: 3762983
  - mStartSample: 3767641
    mEndSample: 3767641
  - mStartSample: 3772575
    mEndSample: 3772575
  - mStartSample: 3777214
    mEndSample: 3777214
  - mStartSample: 3781853
    mEndSample: 3781853
  - mStartSample: 3786492
    mEndSample: 3786492
  - mStartSample: 3791131
    mEndSample: 3791131
  - mStartSample: 3795770
    mEndSample: 3795770
  - mStartSample: 3800410
    mEndSample: 3800410
  - mStartSample: 3805049
    mEndSample: 3805049
  - mStartSample: 3809688
    mEndSample: 3809688
  - mStartSample: 3814327
    mEndSample: 3814327
  - mStartSample: 3818966
    mEndSample: 3818966
  - mStartSample: 3823605
    mEndSample: 3823605
  - mStartSample: 3828245
    mEndSample: 3828245
  - mStartSample: 3832884
    mEndSample: 3832884
  - mStartSample: 3837523
    mEndSample: 3837523
  - mStartSample: 3842162
    mEndSample: 3842162
  - mStartSample: 3846801
    mEndSample: 3846801
  - mStartSample: 3851440
    mEndSample: 3851440
  - mStartSample: 3856080
    mEndSample: 3856080
  - mStartSample: 3860719
    mEndSample: 3860719
  - mStartSample: 3865358
    mEndSample: 3865358
  - mStartSample: 3869997
    mEndSample: 3869997
  - mStartSample: 3874636
    mEndSample: 3874636
  - mStartSample: 3879276
    mEndSample: 3879276
  - mStartSample: 3883915
    mEndSample: 3883915
  - mStartSample: 3902471
    mEndSample: 3902471
  - mStartSample: 3907111
    mEndSample: 3907111
  - mStartSample: 3911750
    mEndSample: 3911750
  - mStartSample: 3916389
    mEndSample: 3916389
  - mStartSample: 3921840
    mEndSample: 3921840
  - mStartSample: 3926479
    mEndSample: 3926479
  - mStartSample: 3931118
    mEndSample: 3931118
  - mStartSample: 3935757
    mEndSample: 3935757
  - mStartSample: 3940396
    mEndSample: 3940396
  - mStartSample: 3945035
    mEndSample: 3945035
  - mStartSample: 3949675
    mEndSample: 3949675
  - mStartSample: 3954314
    mEndSample: 3954314
  - mStartSample: 3958953
    mEndSample: 3958953
  - mStartSample: 3963592
    mEndSample: 3963592
  - mStartSample: 3968231
    mEndSample: 3968231
  - mStartSample: 3972870
    mEndSample: 3972870
  - mStartSample: 3977510
    mEndSample: 3977510
  - mStartSample: 3982149
    mEndSample: 3982149
  - mStartSample: 3986788
    mEndSample: 3986788
  - mStartSample: 3991427
    mEndSample: 3991427
  - mStartSample: 3996066
    mEndSample: 3996066
  - mStartSample: 4000705
    mEndSample: 4000705
  - mStartSample: 4005345
    mEndSample: 4005345
  - mStartSample: 4009984
    mEndSample: 4009984
  - mStartSample: 4014623
    mEndSample: 4014623
  - mStartSample: 4019262
    mEndSample: 4019262
  - mStartSample: 4023901
    mEndSample: 4023901
  - mStartSample: 4028541
    mEndSample: 4028541
  - mStartSample: 4033180
    mEndSample: 4033180
  - mStartSample: 4037819
    mEndSample: 4037819
  - mStartSample: 4042458
    mEndSample: 4042458
  - mStartSample: 4047097
    mEndSample: 4047097
  - mStartSample: 4051736
    mEndSample: 4051736
  - mStartSample: 4056376
    mEndSample: 4056376
  - mStartSample: 4061015
    mEndSample: 4061015
  - mStartSample: 4065654
    mEndSample: 4065654
  - mStartSample: 4070293
    mEndSample: 4070293
  - mStartSample: 4074932
    mEndSample: 4074932
  - mStartSample: 4079571
    mEndSample: 4079571
  - mStartSample: 4084211
    mEndSample: 4084211
  - mStartSample: 4088850
    mEndSample: 4088850
  - mStartSample: 4093489
    mEndSample: 4093489
  - mStartSample: 4098128
    mEndSample: 4098128
  - mStartSample: 4102767
    mEndSample: 4102767
  - mStartSample: 4107407
    mEndSample: 4107407
  - mStartSample: 4112046
    mEndSample: 4112046
  - mStartSample: 4116685
    mEndSample: 4116685
  - mStartSample: 4121324
    mEndSample: 4121324
  - mStartSample: 4125963
    mEndSample: 4125963
  - mStartSample: 4130602
    mEndSample: 4130602
  - mStartSample: 4135242
    mEndSample: 4135242
  - mStartSample: 4139881
    mEndSample: 4139881
  - mStartSample: 4144520
    mEndSample: 4144520
  - mStartSample: 4149159
    mEndSample: 4149159
  - mStartSample: 4153798
    mEndSample: 4153798
  - mStartSample: 4158437
    mEndSample: 4158437
  - mStartSample: 4163077
    mEndSample: 4163077
  - mStartSample: 4167716
    mEndSample: 4167716
  - mStartSample: 4172355
    mEndSample: 4172355
  - mStartSample: 4176994
    mEndSample: 4176994
  - mStartSample: 4182960
    mEndSample: 4182960
  - mStartSample: 4204829
    mEndSample: 4204829
  - mStartSample: 4214107
    mEndSample: 4214107
  - mStartSample: 4223385
    mEndSample: 4223385
  - mStartSample: 4241942
    mEndSample: 4241942
  - mStartSample: 4251220
    mEndSample: 4251220
  - mStartSample: 4260499
    mEndSample: 4260499
  - mStartSample: 4269777
    mEndSample: 4269777
  - mStartSample: 4279055
    mEndSample: 4279055
  - mStartSample: 4288334
    mEndSample: 4288334
  - mStartSample: 4297612
    mEndSample: 4297612
  - mStartSample: 4306890
    mEndSample: 4306890
  - mStartSample: 4316169
    mEndSample: 4316169
  - mStartSample: 4325447
    mEndSample: 4325447
  - mStartSample: 4334725
    mEndSample: 4334725
  - mStartSample: 4345344
    mEndSample: 4345344
  - mStartSample: 4355100
    mEndSample: 4355100
  - mStartSample: 4364378
    mEndSample: 4364378
  - mStartSample: 4373656
    mEndSample: 4373656
  - mStartSample: 4392213
    mEndSample: 4392213
  - mStartSample: 4401491
    mEndSample: 4401491
  - mStartSample: 4410770
    mEndSample: 4410770
  - mStartSample: 4420048
    mEndSample: 4420048
  - mStartSample: 4429326
    mEndSample: 4429326
  - mStartSample: 4438605
    mEndSample: 4438605
  - mStartSample: 4447883
    mEndSample: 4447883
  - mStartSample: 4457161
    mEndSample: 4457161
  - mStartSample: 4466440
    mEndSample: 4466440
  - mStartSample: 4475718
    mEndSample: 4475718
  - mStartSample: 4486384
    mEndSample: 4486384
  - mStartSample: 4506228
    mEndSample: 4506228
  - mStartSample: 4515506
    mEndSample: 4515506
  - mStartSample: 4524784
    mEndSample: 4524784
  - mStartSample: 4542375
    mEndSample: 4542375
  - mStartSample: 4551653
    mEndSample: 4551653
  - mStartSample: 4560932
    mEndSample: 4560932
  - mStartSample: 4570210
    mEndSample: 4570210
  - mStartSample: 4579488
    mEndSample: 4579488
  - mStartSample: 4588767
    mEndSample: 4588767
  - mStartSample: 4598045
    mEndSample: 4598045
  - mStartSample: 4607323
    mEndSample: 4607323
  - mStartSample: 4616602
    mEndSample: 4616602
  - mStartSample: 4626846
    mEndSample: 4626846
  - mStartSample: 4636750
    mEndSample: 4636750
  - mStartSample: 4645403
    mEndSample: 4645403
  - mStartSample: 4654681
    mEndSample: 4654681
  - mStartSample: 4663959
    mEndSample: 4663959
  - mStartSample: 4673238
    mEndSample: 4673238
  - mStartSample: 4691795
    mEndSample: 4691795
  - mStartSample: 4701073
    mEndSample: 4701073
  - mStartSample: 4710351
    mEndSample: 4710351
  - mStartSample: 4719630
    mEndSample: 4719630
  - mStartSample: 4728908
    mEndSample: 4728908
  - mStartSample: 4738186
    mEndSample: 4738186
  - mStartSample: 4747465
    mEndSample: 4747465
  - mStartSample: 4756743
    mEndSample: 4756743
  - mStartSample: 4766021
    mEndSample: 4766021
  - mStartSample: 4775300
    mEndSample: 4775300
  - mStartSample: 4787097
    mEndSample: 4787097
  - mStartSample: 4813419
    mEndSample: 4813419
  - mStartSample: 4817934
    mEndSample: 4817934
  - mStartSample: 4822449
    mEndSample: 4822449
  - mStartSample: 4826965
    mEndSample: 4826965
  - mStartSample: 4831480
    mEndSample: 4831480
  - mStartSample: 4849541
    mEndSample: 4849541
  - mStartSample: 4854057
    mEndSample: 4854057
  - mStartSample: 4858572
    mEndSample: 4858572
  - mStartSample: 4863087
    mEndSample: 4863087
  - mStartSample: 4867603
    mEndSample: 4867603
  - mStartSample: 4885664
    mEndSample: 4885664
  - mStartSample: 4890180
    mEndSample: 4890180
  - mStartSample: 4894695
    mEndSample: 4894695
  - mStartSample: 4899210
    mEndSample: 4899210
  - mStartSample: 4903726
    mEndSample: 4903726
  - mStartSample: 4908241
    mEndSample: 4908241
  - mStartSample: 4912756
    mEndSample: 4912756
  - mStartSample: 4917272
    mEndSample: 4917272
  - mStartSample: 4921787
    mEndSample: 4921787
  - mStartSample: 4926302
    mEndSample: 4926302
  - mStartSample: 4930818
    mEndSample: 4930818
  - mStartSample: 4935333
    mEndSample: 4935333
  - mStartSample: 4939849
    mEndSample: 4939849
  - mStartSample: 4957910
    mEndSample: 4957910
  - mStartSample: 4966941
    mEndSample: 4966941
  - mStartSample: 4975971
    mEndSample: 4975971
  - mStartSample: 4985002
    mEndSample: 4985002
  - mStartSample: 4994033
    mEndSample: 4994033
  - mStartSample: 5004125
    mEndSample: 5004125
  - mStartSample: 5013155
    mEndSample: 5013155
  - mStartSample: 5022675
    mEndSample: 5022675
  - mStartSample: 5031706
    mEndSample: 5031706
  - mStartSample: 5040736
    mEndSample: 5040736
  - mStartSample: 5049767
    mEndSample: 5049767
  - mStartSample: 5059425
    mEndSample: 5059425
  - mStartSample: 5068525
    mEndSample: 5068525
  - mStartSample: 5077625
    mEndSample: 5077625
  - mStartSample: 5086900
    mEndSample: 5086900
  - mStartSample: 5108800
    mEndSample: 5108800
  - mStartSample: 5113315
    mEndSample: 5113315
  - mStartSample: 5117830
    mEndSample: 5117830
  - mStartSample: 5122346
    mEndSample: 5122346
  - mStartSample: 5126861
    mEndSample: 5126861
  - mStartSample: 5144922
    mEndSample: 5144922
  - mStartSample: 5149438
    mEndSample: 5149438
  - mStartSample: 5153953
    mEndSample: 5153953
  - mStartSample: 5158468
    mEndSample: 5158468
  - mStartSample: 5162984
    mEndSample: 5162984
  - mStartSample: 5181045
    mEndSample: 5181045
  - mStartSample: 5185561
    mEndSample: 5185561
  - mStartSample: 5190076
    mEndSample: 5190076
  - mStartSample: 5194591
    mEndSample: 5194591
  - mStartSample: 5199107
    mEndSample: 5199107
  - mStartSample: 5203622
    mEndSample: 5203622
  - mStartSample: 5208137
    mEndSample: 5208137
  - mStartSample: 5212653
    mEndSample: 5212653
  - mStartSample: 5217168
    mEndSample: 5217168
  - mStartSample: 5221683
    mEndSample: 5221683
  - mStartSample: 5226199
    mEndSample: 5226199
  - mStartSample: 5230714
    mEndSample: 5230714
  - mStartSample: 5235230
    mEndSample: 5235230
  - mStartSample: 5254249
    mEndSample: 5254249
  - mStartSample: 5262267
    mEndSample: 5262267
  - mStartSample: 5272800
    mEndSample: 5272800
  - mStartSample: 5281924
    mEndSample: 5281924
  - mStartSample: 5291048
    mEndSample: 5291048
  - mStartSample: 5300172
    mEndSample: 5300172
  - mStartSample: 5309296
    mEndSample: 5309296
  - mStartSample: 5318420
    mEndSample: 5318420
  - mStartSample: 5327544
    mEndSample: 5327544
  - mStartSample: 5336668
    mEndSample: 5336668
  - mStartSample: 5345793
    mEndSample: 5345793
  - mStartSample: 5354917
    mEndSample: 5354917
  - mStartSample: 5364041
    mEndSample: 5364041
  - mStartSample: 5373165
    mEndSample: 5373165
  - mStartSample: 5383422
    mEndSample: 5383422
  - mStartSample: 5404062
    mEndSample: 5404062
  - mStartSample: 5413378
    mEndSample: 5413378
  - mStartSample: 5422695
    mEndSample: 5422695
  - mStartSample: 5432012
    mEndSample: 5432012
  - mStartSample: 5441329
    mEndSample: 5441329
  - mStartSample: 5445988
    mEndSample: 5445988
  - mStartSample: 5450646
    mEndSample: 5450646
  - mStartSample: 5455304
    mEndSample: 5455304
  - mStartSample: 5459963
    mEndSample: 5459963
  - mStartSample: 5479551
    mEndSample: 5479551
  - mStartSample: 5488867
    mEndSample: 5488867
  - mStartSample: 5498184
    mEndSample: 5498184
  - mStartSample: 5507501
    mEndSample: 5507501
  - mStartSample: 5516818
    mEndSample: 5516818
  - mStartSample: 5521477
    mEndSample: 5521477
  - mStartSample: 5526135
    mEndSample: 5526135
  - mStartSample: 5530793
    mEndSample: 5530793
  - mStartSample: 5535452
    mEndSample: 5535452
  - mStartSample: 5555100
    mEndSample: 5555100
  - mStartSample: 5564416
    mEndSample: 5564416
  - mStartSample: 5573733
    mEndSample: 5573733
  - mStartSample: 5583050
    mEndSample: 5583050
  - mStartSample: 5592367
    mEndSample: 5592367
  - mStartSample: 5597026
    mEndSample: 5597026
  - mStartSample: 5601684
    mEndSample: 5601684
  - mStartSample: 5606342
    mEndSample: 5606342
  - mStartSample: 5611001
    mEndSample: 5611001
  - mStartSample: 5630709
    mEndSample: 5630709
  - mStartSample: 5640025
    mEndSample: 5640025
  - mStartSample: 5649342
    mEndSample: 5649342
  - mStartSample: 5658659
    mEndSample: 5658659
  - mStartSample: 5667976
    mEndSample: 5667976
  - mStartSample: 5672635
    mEndSample: 5672635
  - mStartSample: 5677293
    mEndSample: 5677293
  - mStartSample: 5681951
    mEndSample: 5681951
  - mStartSample: 5686610
    mEndSample: 5686610
  - mStartSample: 5704938
    mEndSample: 5704938
  - mStartSample: 5709531
    mEndSample: 5709531
  - mStartSample: 5714125
    mEndSample: 5714125
  - mStartSample: 5718719
    mEndSample: 5718719
  - mStartSample: 5723313
    mEndSample: 5723313
  - mStartSample: 5741688
    mEndSample: 5741688
  - mStartSample: 5746281
    mEndSample: 5746281
  - mStartSample: 5750875
    mEndSample: 5750875
  - mStartSample: 5755469
    mEndSample: 5755469
  - mStartSample: 5760063
    mEndSample: 5760063
  - mStartSample: 5777235
    mEndSample: 5777235
  - mStartSample: 5781828
    mEndSample: 5781828
  - mStartSample: 5786422
    mEndSample: 5786422
  - mStartSample: 5791016
    mEndSample: 5791016
  - mStartSample: 5795610
    mEndSample: 5795610
  - mStartSample: 5800203
    mEndSample: 5800203
  - mStartSample: 5804797
    mEndSample: 5804797
  - mStartSample: 5809391
    mEndSample: 5809391
  - mStartSample: 5813340
    mEndSample: 5813340
  - mStartSample: 5817933
    mEndSample: 5817933
  - mStartSample: 5822527
    mEndSample: 5822527
  - mStartSample: 5827121
    mEndSample: 5827121
  - mStartSample: 5832360
    mEndSample: 5832360
  - mStartSample: 5851240
    mEndSample: 5851240
  - mStartSample: 5860427
    mEndSample: 5860427
  - mStartSample: 5869615
    mEndSample: 5869615
  - mStartSample: 5878802
    mEndSample: 5878802
  - mStartSample: 5887990
    mEndSample: 5887990
  - mStartSample: 5897177
    mEndSample: 5897177
  - mStartSample: 5906365
    mEndSample: 5906365
  - mStartSample: 5915552
    mEndSample: 5915552
  - mStartSample: 5923863
    mEndSample: 5923863
  - mStartSample: 5933070
    mEndSample: 5933070
  - mStartSample: 5942277
    mEndSample: 5942277
  - mStartSample: 5960493
    mEndSample: 5960493
  - mStartSample: 5976135
    mEndSample: 5976135
  - mStartSample: 5981976
    mEndSample: 5981976
  - mStartSample: 6002594
    mEndSample: 6002594
  - mStartSample: 6011976
    mEndSample: 6011976
  - mStartSample: 6021359
    mEndSample: 6021359
  - mStartSample: 6030742
    mEndSample: 6030742
  - mStartSample: 6040125
    mEndSample: 6040125
  - mStartSample: 6044817
    mEndSample: 6044817
  - mStartSample: 6049508
    mEndSample: 6049508
  - mStartSample: 6054200
    mEndSample: 6054200
  - mStartSample: 6058891
    mEndSample: 6058891
  - mStartSample: 6077657
    mEndSample: 6077657
  - mStartSample: 6087040
    mEndSample: 6087040
  - mStartSample: 6096423
    mEndSample: 6096423
  - mStartSample: 6105806
    mEndSample: 6105806
  - mStartSample: 6115189
    mEndSample: 6115189
  - mStartSample: 6119881
    mEndSample: 6119881
  - mStartSample: 6124572
    mEndSample: 6124572
  - mStartSample: 6129264
    mEndSample: 6129264
  - mStartSample: 6133955
    mEndSample: 6133955
  - mStartSample: 6153400
    mEndSample: 6153400
  - mStartSample: 6162782
    mEndSample: 6162782
  - mStartSample: 6172165
    mEndSample: 6172165
  - mStartSample: 6181548
    mEndSample: 6181548
  - mStartSample: 6190931
    mEndSample: 6190931
  - mStartSample: 6195623
    mEndSample: 6195623
  - mStartSample: 6200314
    mEndSample: 6200314
  - mStartSample: 6205006
    mEndSample: 6205006
  - mStartSample: 6209697
    mEndSample: 6209697
  - mStartSample: 6229440
    mEndSample: 6229440
  - mStartSample: 6238822
    mEndSample: 6238822
  - mStartSample: 6248205
    mEndSample: 6248205
  - mStartSample: 6257588
    mEndSample: 6257588
  - mStartSample: 6266971
    mEndSample: 6266971
  - mStartSample: 6271663
    mEndSample: 6271663
  - mStartSample: 6276354
    mEndSample: 6276354
  - mStartSample: 6281046
    mEndSample: 6281046
  - mStartSample: 6285737
    mEndSample: 6285737
  - mStartSample: 6303736
    mEndSample: 6303736
  - mStartSample: 6308266
    mEndSample: 6308266
  - mStartSample: 6312797
    mEndSample: 6312797
  - mStartSample: 6317328
    mEndSample: 6317328
  - mStartSample: 6321859
    mEndSample: 6321859
  - mStartSample: 6339982
    mEndSample: 6339982
  - mStartSample: 6344513
    mEndSample: 6344513
  - mStartSample: 6349044
    mEndSample: 6349044
  - mStartSample: 6353575
    mEndSample: 6353575
  - mStartSample: 6358105
    mEndSample: 6358105
  - mStartSample: 6376229
    mEndSample: 6376229
  - mStartSample: 6380759
    mEndSample: 6380759
  - mStartSample: 6385290
    mEndSample: 6385290
  - mStartSample: 6389821
    mEndSample: 6389821
  - mStartSample: 6394352
    mEndSample: 6394352
  - mStartSample: 6398883
    mEndSample: 6398883
  - mStartSample: 6403414
    mEndSample: 6403414
  - mStartSample: 6407944
    mEndSample: 6407944
  - mStartSample: 6412077
    mEndSample: 6412077
  - mStartSample: 6416608
    mEndSample: 6416608
  - mStartSample: 6421139
    mEndSample: 6421139
  - mStartSample: 6425670
    mEndSample: 6425670
  - mStartSample: 6430896
    mEndSample: 6430896
  - mStartSample: 6450066
    mEndSample: 6450066
  - mStartSample: 6459127
    mEndSample: 6459127
  - mStartSample: 6468189
    mEndSample: 6468189
  - mStartSample: 6477250
    mEndSample: 6477250
  - mStartSample: 6486312
    mEndSample: 6486312
  - mStartSample: 6495374
    mEndSample: 6495374
  - mStartSample: 6504435
    mEndSample: 6504435
  - mStartSample: 6513497
    mEndSample: 6513497
  - mStartSample: 6522559
    mEndSample: 6522559
  - mStartSample: 6531620
    mEndSample: 6531620
  - mStartSample: 6540682
    mEndSample: 6540682
  - mStartSample: 6559280
    mEndSample: 6559280
  - mStartSample: 6574960
    mEndSample: 6574960
  - mStartSample: 6581459
    mEndSample: 6581459
  - mStartSample: 6601296
    mEndSample: 6601296
  - mStartSample: 6610547
    mEndSample: 6610547
  - mStartSample: 6619799
    mEndSample: 6619799
  - mStartSample: 6638302
    mEndSample: 6638302
  - mStartSample: 6647554
    mEndSample: 6647554
  - mStartSample: 6656806
    mEndSample: 6656806
  - mStartSample: 6666058
    mEndSample: 6666058
  - mStartSample: 6675309
    mEndSample: 6675309
  - mStartSample: 6684561
    mEndSample: 6684561
  - mStartSample: 6693813
    mEndSample: 6693813
  - mStartSample: 6703065
    mEndSample: 6703065
  - mStartSample: 6712316
    mEndSample: 6712316
  - mStartSample: 6721568
    mEndSample: 6721568
  - mStartSample: 6730820
    mEndSample: 6730820
  - mStartSample: 6740072
    mEndSample: 6740072
  - mStartSample: 6751206
    mEndSample: 6751206
  - mStartSample: 6760458
    mEndSample: 6760458
  - mStartSample: 6769710
    mEndSample: 6769710
  - mStartSample: 6786955
    mEndSample: 6786955
  - mStartSample: 6796207
    mEndSample: 6796207
  - mStartSample: 6805459
    mEndSample: 6805459
  - mStartSample: 6814711
    mEndSample: 6814711
  - mStartSample: 6823962
    mEndSample: 6823962
  - mStartSample: 6833214
    mEndSample: 6833214
  - mStartSample: 6842466
    mEndSample: 6842466
  - mStartSample: 6851718
    mEndSample: 6851718
  - mStartSample: 6860969
    mEndSample: 6860969
  - mStartSample: 6870221
    mEndSample: 6870221
  - mStartSample: 6880730
    mEndSample: 6880730
  - mStartSample: 6901468
    mEndSample: 6901468
  - mStartSample: 6910719
    mEndSample: 6910719
  - mStartSample: 6919971
    mEndSample: 6919971
  - mStartSample: 6938474
    mEndSample: 6938474
  - mStartSample: 6947726
    mEndSample: 6947726
  - mStartSample: 6956978
    mEndSample: 6956978
  - mStartSample: 6966230
    mEndSample: 6966230
  - mStartSample: 6975481
    mEndSample: 6975481
  - mStartSample: 6984733
    mEndSample: 6984733
  - mStartSample: 6993985
    mEndSample: 6993985
  - mStartSample: 7003237
    mEndSample: 7003237
  - mStartSample: 7012488
    mEndSample: 7012488
  - mStartSample: 7021740
    mEndSample: 7021740
  - mStartSample: 7030992
    mEndSample: 7030992
  - mStartSample: 7040244
    mEndSample: 7040244
  - mStartSample: 7049495
    mEndSample: 7049495
  - mStartSample: 7058747
    mEndSample: 7058747
  - mStartSample: 7067999
    mEndSample: 7067999
  - mStartSample: 7086502
    mEndSample: 7086502
  - mStartSample: 7095754
    mEndSample: 7095754
  - mStartSample: 7105006
    mEndSample: 7105006
  - mStartSample: 7114258
    mEndSample: 7114258
  - mStartSample: 7123509
    mEndSample: 7123509
  - mStartSample: 7132761
    mEndSample: 7132761
  - mStartSample: 7142013
    mEndSample: 7142013
  - mStartSample: 7151265
    mEndSample: 7151265
  - mStartSample: 7160516
    mEndSample: 7160516
  - mStartSample: 7169768
    mEndSample: 7169768
  - mStartSample: 7180281
    mEndSample: 7180281
  - mStartSample: 7198311
    mEndSample: 7198311
  - mStartSample: 7212188
    mEndSample: 7212188
  - mStartSample: 7216814
    mEndSample: 7216814
  - mStartSample: 7253821
    mEndSample: 7253821
  - mStartSample: 7290828
    mEndSample: 7290828
  - mStartSample: 7295454
    mEndSample: 7295454
  - mStartSample: 7300080
    mEndSample: 7300080
  - mStartSample: 7304706
    mEndSample: 7304706
  - mStartSample: 7309331
    mEndSample: 7309331
  - mStartSample: 7313957
    mEndSample: 7313957
  - mStartSample: 7318583
    mEndSample: 7318583
  - mStartSample: 7323209
    mEndSample: 7323209
  - mStartSample: 7327835
    mEndSample: 7327835
  - mStartSample: 7363554
    mEndSample: 7363554
  - mStartSample: 7372806
    mEndSample: 7372806
  - mStartSample: 7382057
    mEndSample: 7382057
  - mStartSample: 7391309
    mEndSample: 7391309
  - mStartSample: 7401849
    mEndSample: 7401849
  - mStartSample: 7434230
    mEndSample: 7434230
  - mStartSample: 7441198
    mEndSample: 7441198
  - mStartSample: 7477660
    mEndSample: 7477660
  - mStartSample: 7514594
    mEndSample: 7514594
  - mStartSample: 7519219
    mEndSample: 7519219
  - mStartSample: 7523845
    mEndSample: 7523845
  - mStartSample: 7528471
    mEndSample: 7528471
  - mStartSample: 7533097
    mEndSample: 7533097
  - mStartSample: 7537723
    mEndSample: 7537723
  - mStartSample: 7542349
    mEndSample: 7542349
  - mStartSample: 7546975
    mEndSample: 7546975
  - mStartSample: 7551600
    mEndSample: 7551600
  - mStartSample: 7587282
    mEndSample: 7587282
  - mStartSample: 7626458
    mEndSample: 7626458
  - mStartSample: 7635709
    mEndSample: 7635709
  - mStartSample: 7644961
    mEndSample: 7644961
  - mStartSample: 7654213
    mEndSample: 7654213
  - mStartSample: 7663464
    mEndSample: 7663464
  - mStartSample: 7681968
    mEndSample: 7681968
  - mStartSample: 7695846
    mEndSample: 7695846
  - mStartSample: 7700471
    mEndSample: 7700471
  - mStartSample: 7737478
    mEndSample: 7737478
  - mStartSample: 7774485
    mEndSample: 7774485
  - mStartSample: 7779111
    mEndSample: 7779111
  - mStartSample: 7783737
    mEndSample: 7783737
  - mStartSample: 7788363
    mEndSample: 7788363
  - mStartSample: 7792989
    mEndSample: 7792989
  - mStartSample: 7797615
    mEndSample: 7797615
  - mStartSample: 7802241
    mEndSample: 7802241
  - mStartSample: 7806867
    mEndSample: 7806867
  - mStartSample: 7811492
    mEndSample: 7811492
  - mStartSample: 7848499
    mEndSample: 7848499
  - mStartSample: 7857751
    mEndSample: 7857751
  - mStartSample: 7867003
    mEndSample: 7867003
  - mStartSample: 7876255
    mEndSample: 7876255
  - mStartSample: 7885506
    mEndSample: 7885506
  - mStartSample: 7917888
    mEndSample: 7917888
  - mStartSample: 7922513
    mEndSample: 7922513
  - mStartSample: 7959520
    mEndSample: 7959520
  - mStartSample: 7997490
    mEndSample: 7997490
  - mStartSample: 8002115
    mEndSample: 8002115
  - mStartSample: 8006741
    mEndSample: 8006741
  - mStartSample: 8011367
    mEndSample: 8011367
  - mStartSample: 8015993
    mEndSample: 8015993
  - mStartSample: 8020619
    mEndSample: 8020619
  - mStartSample: 8025245
    mEndSample: 8025245
  - mStartSample: 8029871
    mEndSample: 8029871
  - mStartSample: 8034496
    mEndSample: 8034496
  - mStartSample: 8071503
    mEndSample: 8071503
  - mStartSample: 8108510
    mEndSample: 8108510
  - mStartSample: 8117762
    mEndSample: 8117762
  - mStartSample: 8127014
    mEndSample: 8127014
  - mStartSample: 8136266
    mEndSample: 8136266
  - mStartSample: 8145517
    mEndSample: 8145517
  - mStartSample: 8173273
    mEndSample: 8173273
  - mStartSample: 8183784
    mEndSample: 8183784
  - mStartSample: 8211714
    mEndSample: 8211714
  - mStartSample: 8222151
    mEndSample: 8222151
  - mStartSample: 8249787
    mEndSample: 8249787
  - mStartSample: 8259514
    mEndSample: 8259514
  - mStartSample: 8269242
    mEndSample: 8269242
  - mStartSample: 8278970
    mEndSample: 8278970
  - mStartSample: 8288698
    mEndSample: 8288698
  - mStartSample: 8298426
    mEndSample: 8298426
  - mStartSample: 8317882
    mEndSample: 8317882
  - mStartSample: 8339604
    mEndSample: 8339604
  _SerializedPayloadTypes: []
  _AssetPayloads: []
  _AssetPayloadIdxs: 
  _ColorPayloads: []
  _ColorPayloadIdxs: 
  _CurvePayloads: []
  _CurvePayloadIdxs: 
  _FloatPayloads: []
  _FloatPayloadIdxs: 
  _GradientPayloads: []
  _GradientPayloadIdxs: 
  _IntPayloads: []
  _IntPayloadIdxs: 
  _SpectrumPayloads: []
  _SpectrumPayloadIdxs: 
  _TextPayloads: []
  _TextPayloadIdxs: 
