%YAML 1.1
%TAG !u! tag:unity3d.com,2011:
--- !u!114 &11400000
MonoBehaviour:
  m_ObjectHideFlags: 0
  m_PrefabParentObject: {fileID: 0}
  m_PrefabInternal: {fileID: 0}
  m_GameObject: {fileID: 0}
  m_Enabled: 1
  m_EditorHideFlags: 0
  m_Script: {fileID: -1223223985, guid: aa81bbec85a3f423193272a7c6154986, type: 3}
  m_Name: P37track
  m_EditorClassIdentifier: 
  mEventID: Note
  mEventList:
  - mStartSample: 7512
    mEndSample: 7512
  - mStartSample: 13025
    mEndSample: 13025
  - mStartSample: 18537
    mEndSample: 18537
  - mStartSample: 24050
    mEndSample: 24050
  - mStartSample: 29562
    mEndSample: 29562
  - mStartSample: 35075
    mEndSample: 35075
  - mStartSample: 40587
    mEndSample: 40587
  - mStartSample: 46100
    mEndSample: 46100
  - mStartSample: 51612
    mEndSample: 51612
  - mStartSample: 57125
    mEndSample: 57125
  - mStartSample: 62637
    mEndSample: 62637
  - mStartSample: 68150
    mEndSample: 68150
  - mStartSample: 73662
    mEndSample: 73662
  - mStartSample: 79175
    mEndSample: 79175
  - mStartSample: 84400
    mEndSample: 84400
  - mStartSample: 89567
    mEndSample: 89567
  - mStartSample: 94735
    mEndSample: 94735
  - mStartSample: 99903
    mEndSample: 99903
  - mStartSample: 105071
    mEndSample: 105071
  - mStartSample: 110239
    mEndSample: 110239
  - mStartSample: 115407
    mEndSample: 115407
  - mStartSample: 120575
    mEndSample: 120575
  - mStartSample: 125743
    mEndSample: 125743
  - mStartSample: 134808
    mEndSample: 134808
  - mStartSample: 145144
    mEndSample: 145144
  - mStartSample: 155480
    mEndSample: 155480
  - mStartSample: 165371
    mEndSample: 165371
  - mStartSample: 170551
    mEndSample: 170551
  - mStartSample: 175731
    mEndSample: 175731
  - mStartSample: 180911
    mEndSample: 180911
  - mStartSample: 186091
    mEndSample: 186091
  - mStartSample: 191271
    mEndSample: 191271
  - mStartSample: 196451
    mEndSample: 196451
  - mStartSample: 201631
    mEndSample: 201631
  - mStartSample: 206811
    mEndSample: 206811
  - mStartSample: 211991
    mEndSample: 211991
  - mStartSample: 217172
    mEndSample: 217172
  - mStartSample: 222352
    mEndSample: 222352
  - mStartSample: 227532
    mEndSample: 227532
  - mStartSample: 232712
    mEndSample: 232712
  - mStartSample: 237892
    mEndSample: 237892
  - mStartSample: 243072
    mEndSample: 243072
  - mStartSample: 248252
    mEndSample: 248252
  - mStartSample: 253282
    mEndSample: 253282
  - mStartSample: 258312
    mEndSample: 258312
  - mStartSample: 263343
    mEndSample: 263343
  - mStartSample: 268373
    mEndSample: 268373
  - mStartSample: 273404
    mEndSample: 273404
  - mStartSample: 278434
    mEndSample: 278434
  - mStartSample: 283464
    mEndSample: 283464
  - mStartSample: 288495
    mEndSample: 288495
  - mStartSample: 293525
    mEndSample: 293525
  - mStartSample: 298556
    mEndSample: 298556
  - mStartSample: 303586
    mEndSample: 303586
  - mStartSample: 308617
    mEndSample: 308617
  - mStartSample: 313647
    mEndSample: 313647
  - mStartSample: 318677
    mEndSample: 318677
  - mStartSample: 323708
    mEndSample: 323708
  - mStartSample: 328738
    mEndSample: 328738
  - mStartSample: 333826
    mEndSample: 333826
  - mStartSample: 338914
    mEndSample: 338914
  - mStartSample: 344003
    mEndSample: 344003
  - mStartSample: 349091
    mEndSample: 349091
  - mStartSample: 354180
    mEndSample: 354180
  - mStartSample: 359268
    mEndSample: 359268
  - mStartSample: 364357
    mEndSample: 364357
  - mStartSample: 369445
    mEndSample: 369445
  - mStartSample: 379622
    mEndSample: 379622
  - mStartSample: 389799
    mEndSample: 389799
  - mStartSample: 399976
    mEndSample: 399976
  - mStartSample: 410153
    mEndSample: 410153
  - mStartSample: 415241
    mEndSample: 415241
  - mStartSample: 420330
    mEndSample: 420330
  - mStartSample: 425418
    mEndSample: 425418
  - mStartSample: 430507
    mEndSample: 430507
  - mStartSample: 435595
    mEndSample: 435595
  - mStartSample: 440684
    mEndSample: 440684
  - mStartSample: 446310
    mEndSample: 446310
  - mStartSample: 451399
    mEndSample: 451399
  - mStartSample: 456487
    mEndSample: 456487
  - mStartSample: 461038
    mEndSample: 461038
  - mStartSample: 466126
    mEndSample: 466126
  - mStartSample: 471214
    mEndSample: 471214
  - mStartSample: 476303
    mEndSample: 476303
  - mStartSample: 481391
    mEndSample: 481391
  - mStartSample: 486480
    mEndSample: 486480
  - mStartSample: 491568
    mEndSample: 491568
  - mStartSample: 496657
    mEndSample: 496657
  - mStartSample: 501745
    mEndSample: 501745
  - mStartSample: 506834
    mEndSample: 506834
  - mStartSample: 511922
    mEndSample: 511922
  - mStartSample: 517011
    mEndSample: 517011
  - mStartSample: 522733
    mEndSample: 522733
  - mStartSample: 527188
    mEndSample: 527188
  - mStartSample: 531463
    mEndSample: 531463
  - mStartSample: 537364
    mEndSample: 537364
  - mStartSample: 542453
    mEndSample: 542453
  - mStartSample: 547541
    mEndSample: 547541
  - mStartSample: 552630
    mEndSample: 552630
  - mStartSample: 557718
    mEndSample: 557718
  - mStartSample: 562807
    mEndSample: 562807
  - mStartSample: 567895
    mEndSample: 567895
  - mStartSample: 572520
    mEndSample: 572520
  - mStartSample: 582855
    mEndSample: 582855
  - mStartSample: 593191
    mEndSample: 593191
  - mStartSample: 603527
    mEndSample: 603527
  - mStartSample: 613863
    mEndSample: 613863
  - mStartSample: 619030
    mEndSample: 619030
  - mStartSample: 624198
    mEndSample: 624198
  - mStartSample: 629366
    mEndSample: 629366
  - mStartSample: 634534
    mEndSample: 634534
  - mStartSample: 639702
    mEndSample: 639702
  - mStartSample: 644870
    mEndSample: 644870
  - mStartSample: 650038
    mEndSample: 650038
  - mStartSample: 655206
    mEndSample: 655206
  - mStartSample: 660374
    mEndSample: 660374
  - mStartSample: 665542
    mEndSample: 665542
  - mStartSample: 670710
    mEndSample: 670710
  - mStartSample: 675878
    mEndSample: 675878
  - mStartSample: 681046
    mEndSample: 681046
  - mStartSample: 684816
    mEndSample: 684816
  - mStartSample: 689984
    mEndSample: 689984
  - mStartSample: 695079
    mEndSample: 695079
  - mStartSample: 700210
    mEndSample: 700210
  - mStartSample: 705342
    mEndSample: 705342
  - mStartSample: 710474
    mEndSample: 710474
  - mStartSample: 715606
    mEndSample: 715606
  - mStartSample: 720738
    mEndSample: 720738
  - mStartSample: 725870
    mEndSample: 725870
  - mStartSample: 731002
    mEndSample: 731002
  - mStartSample: 736134
    mEndSample: 736134
  - mStartSample: 741265
    mEndSample: 741265
  - mStartSample: 746397
    mEndSample: 746397
  - mStartSample: 751529
    mEndSample: 751529
  - mStartSample: 756661
    mEndSample: 756661
  - mStartSample: 761793
    mEndSample: 761793
  - mStartSample: 766925
    mEndSample: 766925
  - mStartSample: 772057
    mEndSample: 772057
  - mStartSample: 777189
    mEndSample: 777189
  - mStartSample: 782258
    mEndSample: 782258
  - mStartSample: 787327
    mEndSample: 787327
  - mStartSample: 792396
    mEndSample: 792396
  - mStartSample: 797465
    mEndSample: 797465
  - mStartSample: 802533
    mEndSample: 802533
  - mStartSample: 807602
    mEndSample: 807602
  - mStartSample: 812671
    mEndSample: 812671
  - mStartSample: 817740
    mEndSample: 817740
  - mStartSample: 822809
    mEndSample: 822809
  - mStartSample: 827878
    mEndSample: 827878
  - mStartSample: 832947
    mEndSample: 832947
  - mStartSample: 838016
    mEndSample: 838016
  - mStartSample: 843085
    mEndSample: 843085
  - mStartSample: 848154
    mEndSample: 848154
  - mStartSample: 853223
    mEndSample: 853223
  - mStartSample: 858292
    mEndSample: 858292
  - mStartSample: 868430
    mEndSample: 868430
  - mStartSample: 873499
    mEndSample: 873499
  - mStartSample: 878568
    mEndSample: 878568
  - mStartSample: 888706
    mEndSample: 888706
  - mStartSample: 893775
    mEndSample: 893775
  - mStartSample: 898844
    mEndSample: 898844
  - mStartSample: 944465
    mEndSample: 944465
  - mStartSample: 949533
    mEndSample: 949533
  - mStartSample: 954602
    mEndSample: 954602
  - mStartSample: 959671
    mEndSample: 959671
  - mStartSample: 964740
    mEndSample: 964740
  - mStartSample: 969809
    mEndSample: 969809
  - mStartSample: 974878
    mEndSample: 974878
  - mStartSample: 979947
    mEndSample: 979947
  - mStartSample: 985016
    mEndSample: 985016
  - mStartSample: 990085
    mEndSample: 990085
  - mStartSample: 995154
    mEndSample: 995154
  - mStartSample: 1000223
    mEndSample: 1000223
  - mStartSample: 1005292
    mEndSample: 1005292
  - mStartSample: 1010361
    mEndSample: 1010361
  - mStartSample: 1015430
    mEndSample: 1015430
  - mStartSample: 1020499
    mEndSample: 1020499
  - mStartSample: 1025568
    mEndSample: 1025568
  - mStartSample: 1030637
    mEndSample: 1030637
  - mStartSample: 1035706
    mEndSample: 1035706
  - mStartSample: 1040775
    mEndSample: 1040775
  - mStartSample: 1045844
    mEndSample: 1045844
  - mStartSample: 1050913
    mEndSample: 1050913
  - mStartSample: 1055982
    mEndSample: 1055982
  - mStartSample: 1061051
    mEndSample: 1061051
  - mStartSample: 1071189
    mEndSample: 1071189
  - mStartSample: 1078974
    mEndSample: 1078974
  - mStartSample: 1081327
    mEndSample: 1081327
  - mStartSample: 1091465
    mEndSample: 1091465
  - mStartSample: 1101602
    mEndSample: 1101602
  - mStartSample: 1106698
    mEndSample: 1106698
  - mStartSample: 1111795
    mEndSample: 1111795
  - mStartSample: 1116892
    mEndSample: 1116892
  - mStartSample: 1121988
    mEndSample: 1121988
  - mStartSample: 1127085
    mEndSample: 1127085
  - mStartSample: 1132182
    mEndSample: 1132182
  - mStartSample: 1137278
    mEndSample: 1137278
  - mStartSample: 1142375
    mEndSample: 1142375
  - mStartSample: 1147472
    mEndSample: 1147472
  - mStartSample: 1152568
    mEndSample: 1152568
  - mStartSample: 1157665
    mEndSample: 1157665
  - mStartSample: 1162762
    mEndSample: 1162762
  - mStartSample: 1167859
    mEndSample: 1167859
  - mStartSample: 1172955
    mEndSample: 1172955
  - mStartSample: 1178052
    mEndSample: 1178052
  - mStartSample: 1183149
    mEndSample: 1183149
  - mStartSample: 1188245
    mEndSample: 1188245
  - mStartSample: 1193342
    mEndSample: 1193342
  - mStartSample: 1198439
    mEndSample: 1198439
  - mStartSample: 1203535
    mEndSample: 1203535
  - mStartSample: 1208632
    mEndSample: 1208632
  - mStartSample: 1213729
    mEndSample: 1213729
  - mStartSample: 1218825
    mEndSample: 1218825
  - mStartSample: 1223922
    mEndSample: 1223922
  - mStartSample: 1234116
    mEndSample: 1234116
  - mStartSample: 1241443
    mEndSample: 1241443
  - mStartSample: 1242708
    mEndSample: 1242708
  - mStartSample: 1244309
    mEndSample: 1244309
  - mStartSample: 1254502
    mEndSample: 1254502
  - mStartSample: 1259599
    mEndSample: 1259599
  - mStartSample: 1262414
    mEndSample: 1262414
  - mStartSample: 1263540
    mEndSample: 1263540
  - mStartSample: 1264696
    mEndSample: 1264696
  - mStartSample: 1295276
    mEndSample: 1295276
  - mStartSample: 1305469
    mEndSample: 1305469
  - mStartSample: 1336049
    mEndSample: 1336049
  - mStartSample: 1346243
    mEndSample: 1346243
  - mStartSample: 1376823
    mEndSample: 1376823
  - mStartSample: 1387016
    mEndSample: 1387016
  - mStartSample: 1417597
    mEndSample: 1417597
  - mStartSample: 1427790
    mEndSample: 1427790
  - mStartSample: 1458370
    mEndSample: 1458370
  - mStartSample: 1468564
    mEndSample: 1468564
  - mStartSample: 1499144
    mEndSample: 1499144
  - mStartSample: 1509337
    mEndSample: 1509337
  - mStartSample: 1539917
    mEndSample: 1539917
  - mStartSample: 1550111
    mEndSample: 1550111
  - mStartSample: 1580691
    mEndSample: 1580691
  - mStartSample: 1590884
    mEndSample: 1590884
  - mStartSample: 1595981
    mEndSample: 1595981
  - mStartSample: 1601078
    mEndSample: 1601078
  - mStartSample: 1606174
    mEndSample: 1606174
  - mStartSample: 1611271
    mEndSample: 1611271
  - mStartSample: 1616368
    mEndSample: 1616368
  - mStartSample: 1621464
    mEndSample: 1621464
  - mStartSample: 1626561
    mEndSample: 1626561
  - mStartSample: 1631658
    mEndSample: 1631658
  - mStartSample: 1641851
    mEndSample: 1641851
  - mStartSample: 1646948
    mEndSample: 1646948
  - mStartSample: 1652045
    mEndSample: 1652045
  - mStartSample: 1667335
    mEndSample: 1667335
  - mStartSample: 1672431
    mEndSample: 1672431
  - mStartSample: 1718302
    mEndSample: 1718302
  - mStartSample: 1723398
    mEndSample: 1723398
  - mStartSample: 1728495
    mEndSample: 1728495
  - mStartSample: 1733592
    mEndSample: 1733592
  - mStartSample: 1738688
    mEndSample: 1738688
  - mStartSample: 1743785
    mEndSample: 1743785
  - mStartSample: 1748882
    mEndSample: 1748882
  - mStartSample: 1753978
    mEndSample: 1753978
  - mStartSample: 1759075
    mEndSample: 1759075
  - mStartSample: 1764172
    mEndSample: 1764172
  - mStartSample: 1769269
    mEndSample: 1769269
  - mStartSample: 1774365
    mEndSample: 1774365
  - mStartSample: 1779462
    mEndSample: 1779462
  - mStartSample: 1784559
    mEndSample: 1784559
  - mStartSample: 1789655
    mEndSample: 1789655
  - mStartSample: 1794752
    mEndSample: 1794752
  - mStartSample: 1799849
    mEndSample: 1799849
  - mStartSample: 1804945
    mEndSample: 1804945
  - mStartSample: 1810042
    mEndSample: 1810042
  - mStartSample: 1815139
    mEndSample: 1815139
  - mStartSample: 1820235
    mEndSample: 1820235
  - mStartSample: 1825332
    mEndSample: 1825332
  - mStartSample: 1830429
    mEndSample: 1830429
  - mStartSample: 1835526
    mEndSample: 1835526
  - mStartSample: 1845719
    mEndSample: 1845719
  - mStartSample: 1853800
    mEndSample: 1853800
  - mStartSample: 1855912
    mEndSample: 1855912
  - mStartSample: 1866106
    mEndSample: 1866106
  - mStartSample: 1876299
    mEndSample: 1876299
  - mStartSample: 1881396
    mEndSample: 1881396
  - mStartSample: 1886492
    mEndSample: 1886492
  - mStartSample: 1891589
    mEndSample: 1891589
  - mStartSample: 1896686
    mEndSample: 1896686
  - mStartSample: 1901783
    mEndSample: 1901783
  - mStartSample: 1906879
    mEndSample: 1906879
  - mStartSample: 1911976
    mEndSample: 1911976
  - mStartSample: 1917073
    mEndSample: 1917073
  - mStartSample: 1922169
    mEndSample: 1922169
  - mStartSample: 1927266
    mEndSample: 1927266
  - mStartSample: 1932363
    mEndSample: 1932363
  - mStartSample: 1937459
    mEndSample: 1937459
  - mStartSample: 1942556
    mEndSample: 1942556
  - mStartSample: 1947653
    mEndSample: 1947653
  - mStartSample: 1952750
    mEndSample: 1952750
  - mStartSample: 1957846
    mEndSample: 1957846
  - mStartSample: 1962943
    mEndSample: 1962943
  - mStartSample: 1968040
    mEndSample: 1968040
  - mStartSample: 1973136
    mEndSample: 1973136
  - mStartSample: 1978233
    mEndSample: 1978233
  - mStartSample: 1983330
    mEndSample: 1983330
  - mStartSample: 1988426
    mEndSample: 1988426
  - mStartSample: 1993523
    mEndSample: 1993523
  - mStartSample: 1997869
    mEndSample: 1997869
  - mStartSample: 2002977
    mEndSample: 2002977
  - mStartSample: 2008085
    mEndSample: 2008085
  - mStartSample: 2013193
    mEndSample: 2013193
  - mStartSample: 2018301
    mEndSample: 2018301
  - mStartSample: 2023409
    mEndSample: 2023409
  - mStartSample: 2028517
    mEndSample: 2028517
  - mStartSample: 2033625
    mEndSample: 2033625
  - mStartSample: 2038733
    mEndSample: 2038733
  - mStartSample: 2043841
    mEndSample: 2043841
  - mStartSample: 2048950
    mEndSample: 2048950
  - mStartSample: 2054058
    mEndSample: 2054058
  - mStartSample: 2059166
    mEndSample: 2059166
  - mStartSample: 2064274
    mEndSample: 2064274
  - mStartSample: 2069382
    mEndSample: 2069382
  - mStartSample: 2074490
    mEndSample: 2074490
  - mStartSample: 2079598
    mEndSample: 2079598
  - mStartSample: 2089814
    mEndSample: 2089814
  - mStartSample: 2097576
    mEndSample: 2097576
  - mStartSample: 2098710
    mEndSample: 2098710
  - mStartSample: 2100031
    mEndSample: 2100031
  - mStartSample: 2110247
    mEndSample: 2110247
  - mStartSample: 2120463
    mEndSample: 2120463
  - mStartSample: 2125571
    mEndSample: 2125571
  - mStartSample: 2130679
    mEndSample: 2130679
  - mStartSample: 2135787
    mEndSample: 2135787
  - mStartSample: 2140896
    mEndSample: 2140896
  - mStartSample: 2146004
    mEndSample: 2146004
  - mStartSample: 2151112
    mEndSample: 2151112
  - mStartSample: 2156220
    mEndSample: 2156220
  - mStartSample: 2160946
    mEndSample: 2160946
  - mStartSample: 2166042
    mEndSample: 2166042
  - mStartSample: 2171138
    mEndSample: 2171138
  - mStartSample: 2176234
    mEndSample: 2176234
  - mStartSample: 2181331
    mEndSample: 2181331
  - mStartSample: 2186427
    mEndSample: 2186427
  - mStartSample: 2191523
    mEndSample: 2191523
  - mStartSample: 2196620
    mEndSample: 2196620
  - mStartSample: 2201716
    mEndSample: 2201716
  - mStartSample: 2206812
    mEndSample: 2206812
  - mStartSample: 2211909
    mEndSample: 2211909
  - mStartSample: 2217005
    mEndSample: 2217005
  - mStartSample: 2222101
    mEndSample: 2222101
  - mStartSample: 2227197
    mEndSample: 2227197
  - mStartSample: 2232294
    mEndSample: 2232294
  - mStartSample: 2237390
    mEndSample: 2237390
  - mStartSample: 2242486
    mEndSample: 2242486
  - mStartSample: 2247583
    mEndSample: 2247583
  - mStartSample: 2252679
    mEndSample: 2252679
  - mStartSample: 2257775
    mEndSample: 2257775
  - mStartSample: 2262872
    mEndSample: 2262872
  - mStartSample: 2267968
    mEndSample: 2267968
  - mStartSample: 2273064
    mEndSample: 2273064
  - mStartSample: 2278160
    mEndSample: 2278160
  - mStartSample: 2283257
    mEndSample: 2283257
  - mStartSample: 2293449
    mEndSample: 2293449
  - mStartSample: 2301156
    mEndSample: 2301156
  - mStartSample: 2302348
    mEndSample: 2302348
  - mStartSample: 2303642
    mEndSample: 2303642
  - mStartSample: 2313835
    mEndSample: 2313835
  - mStartSample: 2324027
    mEndSample: 2324027
  - mStartSample: 2329123
    mEndSample: 2329123
  - mStartSample: 2334220
    mEndSample: 2334220
  - mStartSample: 2339316
    mEndSample: 2339316
  - mStartSample: 2344412
    mEndSample: 2344412
  - mStartSample: 2349509
    mEndSample: 2349509
  - mStartSample: 2354605
    mEndSample: 2354605
  - mStartSample: 2359701
    mEndSample: 2359701
  - mStartSample: 2364798
    mEndSample: 2364798
  - mStartSample: 2369894
    mEndSample: 2369894
  - mStartSample: 2374990
    mEndSample: 2374990
  - mStartSample: 2380086
    mEndSample: 2380086
  - mStartSample: 2385183
    mEndSample: 2385183
  - mStartSample: 2390279
    mEndSample: 2390279
  - mStartSample: 2395375
    mEndSample: 2395375
  - mStartSample: 2400472
    mEndSample: 2400472
  - mStartSample: 2405568
    mEndSample: 2405568
  - mStartSample: 2410656
    mEndSample: 2410656
  - mStartSample: 2415744
    mEndSample: 2415744
  - mStartSample: 2420833
    mEndSample: 2420833
  - mStartSample: 2425921
    mEndSample: 2425921
  - mStartSample: 2431010
    mEndSample: 2431010
  - mStartSample: 2436098
    mEndSample: 2436098
  - mStartSample: 2441187
    mEndSample: 2441187
  - mStartSample: 2446275
    mEndSample: 2446275
  - mStartSample: 2451364
    mEndSample: 2451364
  - mStartSample: 2456452
    mEndSample: 2456452
  - mStartSample: 2461541
    mEndSample: 2461541
  - mStartSample: 2466629
    mEndSample: 2466629
  - mStartSample: 2471718
    mEndSample: 2471718
  - mStartSample: 2476806
    mEndSample: 2476806
  - mStartSample: 2481894
    mEndSample: 2481894
  - mStartSample: 2486983
    mEndSample: 2486983
  - mStartSample: 2492071
    mEndSample: 2492071
  - mStartSample: 2497160
    mEndSample: 2497160
  - mStartSample: 2502248
    mEndSample: 2502248
  - mStartSample: 2507337
    mEndSample: 2507337
  - mStartSample: 2512425
    mEndSample: 2512425
  - mStartSample: 2517514
    mEndSample: 2517514
  - mStartSample: 2522602
    mEndSample: 2522602
  - mStartSample: 2527691
    mEndSample: 2527691
  - mStartSample: 2537868
    mEndSample: 2537868
  - mStartSample: 2542956
    mEndSample: 2542956
  - mStartSample: 2548044
    mEndSample: 2548044
  - mStartSample: 2558221
    mEndSample: 2558221
  - mStartSample: 2563310
    mEndSample: 2563310
  - mStartSample: 2568398
    mEndSample: 2568398
  - mStartSample: 2612723
    mEndSample: 2612723
  - mStartSample: 2617891
    mEndSample: 2617891
  - mStartSample: 2623059
    mEndSample: 2623059
  - mStartSample: 2628227
    mEndSample: 2628227
  - mStartSample: 2633395
    mEndSample: 2633395
  - mStartSample: 2638563
    mEndSample: 2638563
  - mStartSample: 2643731
    mEndSample: 2643731
  - mStartSample: 2648899
    mEndSample: 2648899
  - mStartSample: 2654067
    mEndSample: 2654067
  - mStartSample: 2659235
    mEndSample: 2659235
  - mStartSample: 2664403
    mEndSample: 2664403
  - mStartSample: 2669571
    mEndSample: 2669571
  - mStartSample: 2674739
    mEndSample: 2674739
  - mStartSample: 2679907
    mEndSample: 2679907
  - mStartSample: 2685075
    mEndSample: 2685075
  - mStartSample: 2690243
    mEndSample: 2690243
  - mStartSample: 2695411
    mEndSample: 2695411
  - mStartSample: 2700579
    mEndSample: 2700579
  - mStartSample: 2705747
    mEndSample: 2705747
  - mStartSample: 2710915
    mEndSample: 2710915
  - mStartSample: 2716083
    mEndSample: 2716083
  - mStartSample: 2721251
    mEndSample: 2721251
  - mStartSample: 2726419
    mEndSample: 2726419
  - mStartSample: 2731587
    mEndSample: 2731587
  - mStartSample: 2736755
    mEndSample: 2736755
  - mStartSample: 2741923
    mEndSample: 2741923
  - mStartSample: 2747091
    mEndSample: 2747091
  - mStartSample: 2752259
    mEndSample: 2752259
  - mStartSample: 2757427
    mEndSample: 2757427
  - mStartSample: 2762595
    mEndSample: 2762595
  - mStartSample: 2767763
    mEndSample: 2767763
  - mStartSample: 2772168
    mEndSample: 2772168
  - mStartSample: 2777104
    mEndSample: 2777104
  - mStartSample: 2782041
    mEndSample: 2782041
  - mStartSample: 2786977
    mEndSample: 2786977
  - mStartSample: 2791914
    mEndSample: 2791914
  - mStartSample: 2796850
    mEndSample: 2796850
  - mStartSample: 2801787
    mEndSample: 2801787
  - mStartSample: 2806723
    mEndSample: 2806723
  - mStartSample: 2811660
    mEndSample: 2811660
  - mStartSample: 2816787
    mEndSample: 2816787
  - mStartSample: 2821915
    mEndSample: 2821915
  - mStartSample: 2827043
    mEndSample: 2827043
  - mStartSample: 2832171
    mEndSample: 2832171
  - mStartSample: 2837299
    mEndSample: 2837299
  - mStartSample: 2842427
    mEndSample: 2842427
  - mStartSample: 2847555
    mEndSample: 2847555
  - mStartSample: 2852683
    mEndSample: 2852683
  - mStartSample: 2857811
    mEndSample: 2857811
  - mStartSample: 2862939
    mEndSample: 2862939
  - mStartSample: 2868066
    mEndSample: 2868066
  - mStartSample: 2873194
    mEndSample: 2873194
  - mStartSample: 2878322
    mEndSample: 2878322
  - mStartSample: 2883450
    mEndSample: 2883450
  - mStartSample: 2888578
    mEndSample: 2888578
  - mStartSample: 2893706
    mEndSample: 2893706
  - mStartSample: 2898774
    mEndSample: 2898774
  - mStartSample: 2903843
    mEndSample: 2903843
  - mStartSample: 2908912
    mEndSample: 2908912
  - mStartSample: 2913981
    mEndSample: 2913981
  - mStartSample: 2919050
    mEndSample: 2919050
  - mStartSample: 2924119
    mEndSample: 2924119
  - mStartSample: 2929188
    mEndSample: 2929188
  - mStartSample: 2934257
    mEndSample: 2934257
  - mStartSample: 2939326
    mEndSample: 2939326
  - mStartSample: 2944395
    mEndSample: 2944395
  - mStartSample: 2949464
    mEndSample: 2949464
  - mStartSample: 2954533
    mEndSample: 2954533
  - mStartSample: 2959602
    mEndSample: 2959602
  - mStartSample: 2964671
    mEndSample: 2964671
  - mStartSample: 2969740
    mEndSample: 2969740
  - mStartSample: 2974809
    mEndSample: 2974809
  - mStartSample: 2979878
    mEndSample: 2979878
  - mStartSample: 2984947
    mEndSample: 2984947
  - mStartSample: 2990016
    mEndSample: 2990016
  - mStartSample: 2995085
    mEndSample: 2995085
  - mStartSample: 3000154
    mEndSample: 3000154
  - mStartSample: 3005223
    mEndSample: 3005223
  - mStartSample: 3010292
    mEndSample: 3010292
  - mStartSample: 3015361
    mEndSample: 3015361
  - mStartSample: 3020430
    mEndSample: 3020430
  - mStartSample: 3025499
    mEndSample: 3025499
  - mStartSample: 3030568
    mEndSample: 3030568
  - mStartSample: 3035637
    mEndSample: 3035637
  - mStartSample: 3040706
    mEndSample: 3040706
  - mStartSample: 3045774
    mEndSample: 3045774
  - mStartSample: 3050843
    mEndSample: 3050843
  - mStartSample: 3055912
    mEndSample: 3055912
  - mStartSample: 3060981
    mEndSample: 3060981
  - mStartSample: 3066050
    mEndSample: 3066050
  - mStartSample: 3071119
    mEndSample: 3071119
  - mStartSample: 3076188
    mEndSample: 3076188
  - mStartSample: 3081257
    mEndSample: 3081257
  - mStartSample: 3086326
    mEndSample: 3086326
  - mStartSample: 3091395
    mEndSample: 3091395
  - mStartSample: 3096464
    mEndSample: 3096464
  - mStartSample: 3101533
    mEndSample: 3101533
  - mStartSample: 3106602
    mEndSample: 3106602
  - mStartSample: 3111671
    mEndSample: 3111671
  - mStartSample: 3116740
    mEndSample: 3116740
  - mStartSample: 3121809
    mEndSample: 3121809
  - mStartSample: 3126878
    mEndSample: 3126878
  - mStartSample: 3131947
    mEndSample: 3131947
  - mStartSample: 3137680
    mEndSample: 3137680
  - mStartSample: 3142768
    mEndSample: 3142768
  - mStartSample: 3147856
    mEndSample: 3147856
  - mStartSample: 3152945
    mEndSample: 3152945
  - mStartSample: 3158033
    mEndSample: 3158033
  - mStartSample: 3163122
    mEndSample: 3163122
  - mStartSample: 3168210
    mEndSample: 3168210
  - mStartSample: 3173299
    mEndSample: 3173299
  - mStartSample: 3178387
    mEndSample: 3178387
  - mStartSample: 3183476
    mEndSample: 3183476
  - mStartSample: 3188564
    mEndSample: 3188564
  - mStartSample: 3193653
    mEndSample: 3193653
  - mStartSample: 3198741
    mEndSample: 3198741
  - mStartSample: 3203830
    mEndSample: 3203830
  - mStartSample: 3208918
    mEndSample: 3208918
  - mStartSample: 3214006
    mEndSample: 3214006
  - mStartSample: 3219095
    mEndSample: 3219095
  - mStartSample: 3224183
    mEndSample: 3224183
  - mStartSample: 3229272
    mEndSample: 3229272
  - mStartSample: 3234360
    mEndSample: 3234360
  - mStartSample: 3239449
    mEndSample: 3239449
  - mStartSample: 3244537
    mEndSample: 3244537
  - mStartSample: 3249626
    mEndSample: 3249626
  - mStartSample: 3254714
    mEndSample: 3254714
  - mStartSample: 3256506
    mEndSample: 3256506
  - mStartSample: 3258090
    mEndSample: 3258090
  - mStartSample: 3259803
    mEndSample: 3259803
  - mStartSample: 3275068
    mEndSample: 3275068
  - mStartSample: 3280156
    mEndSample: 3280156
  - mStartSample: 3290333
    mEndSample: 3290333
  - mStartSample: 3296100
    mEndSample: 3296100
  - mStartSample: 3298300
    mEndSample: 3298300
  - mStartSample: 3299550
    mEndSample: 3299550
  - mStartSample: 3300900
    mEndSample: 3300900
  - mStartSample: 3346696
    mEndSample: 3346696
  - mStartSample: 3351784
    mEndSample: 3351784
  - mStartSample: 3356873
    mEndSample: 3356873
  - mStartSample: 3361961
    mEndSample: 3361961
  - mStartSample: 3367050
    mEndSample: 3367050
  - mStartSample: 3372138
    mEndSample: 3372138
  - mStartSample: 3377226
    mEndSample: 3377226
  - mStartSample: 3382315
    mEndSample: 3382315
  - mStartSample: 3387403
    mEndSample: 3387403
  - mStartSample: 3392492
    mEndSample: 3392492
  - mStartSample: 3397580
    mEndSample: 3397580
  - mStartSample: 3402669
    mEndSample: 3402669
  - mStartSample: 3407757
    mEndSample: 3407757
  - mStartSample: 3412846
    mEndSample: 3412846
  - mStartSample: 3417934
    mEndSample: 3417934
  - mStartSample: 3423023
    mEndSample: 3423023
  - mStartSample: 3428111
    mEndSample: 3428111
  - mStartSample: 3433200
    mEndSample: 3433200
  - mStartSample: 3438288
    mEndSample: 3438288
  - mStartSample: 3443376
    mEndSample: 3443376
  - mStartSample: 3448465
    mEndSample: 3448465
  - mStartSample: 3453553
    mEndSample: 3453553
  - mStartSample: 3458642
    mEndSample: 3458642
  - mStartSample: 3463730
    mEndSample: 3463730
  - mStartSample: 3473907
    mEndSample: 3473907
  - mStartSample: 3481200
    mEndSample: 3481200
  - mStartSample: 3482550
    mEndSample: 3482550
  - mStartSample: 3484084
    mEndSample: 3484084
  - mStartSample: 3494261
    mEndSample: 3494261
  - mStartSample: 3504438
    mEndSample: 3504438
  - mStartSample: 3509526
    mEndSample: 3509526
  - mStartSample: 3514615
    mEndSample: 3514615
  - mStartSample: 3519703
    mEndSample: 3519703
  - mStartSample: 3524792
    mEndSample: 3524792
  - mStartSample: 3529880
    mEndSample: 3529880
  - mStartSample: 3534969
    mEndSample: 3534969
  - mStartSample: 3540057
    mEndSample: 3540057
  - mStartSample: 3545146
    mEndSample: 3545146
  - mStartSample: 3550234
    mEndSample: 3550234
  - mStartSample: 3555323
    mEndSample: 3555323
  - mStartSample: 3560411
    mEndSample: 3560411
  - mStartSample: 3565500
    mEndSample: 3565500
  - mStartSample: 3570588
    mEndSample: 3570588
  - mStartSample: 3575676
    mEndSample: 3575676
  - mStartSample: 3580765
    mEndSample: 3580765
  - mStartSample: 3585853
    mEndSample: 3585853
  - mStartSample: 3590942
    mEndSample: 3590942
  - mStartSample: 3596030
    mEndSample: 3596030
  - mStartSample: 3601119
    mEndSample: 3601119
  - mStartSample: 3606207
    mEndSample: 3606207
  - mStartSample: 3611296
    mEndSample: 3611296
  - mStartSample: 3616384
    mEndSample: 3616384
  - mStartSample: 3621473
    mEndSample: 3621473
  - mStartSample: 3626561
    mEndSample: 3626561
  - mStartSample: 3636738
    mEndSample: 3636738
  - mStartSample: 3646915
    mEndSample: 3646915
  - mStartSample: 3657092
    mEndSample: 3657092
  - mStartSample: 3660825
    mEndSample: 3660825
  - mStartSample: 3662209
    mEndSample: 3662209
  - mStartSample: 3664650
    mEndSample: 3664650
  - mStartSample: 3667269
    mEndSample: 3667269
  - mStartSample: 3713065
    mEndSample: 3713065
  - mStartSample: 3718153
    mEndSample: 3718153
  - mStartSample: 3723242
    mEndSample: 3723242
  - mStartSample: 3728330
    mEndSample: 3728330
  - mStartSample: 3733419
    mEndSample: 3733419
  - mStartSample: 3738507
    mEndSample: 3738507
  - mStartSample: 3743596
    mEndSample: 3743596
  - mStartSample: 3748684
    mEndSample: 3748684
  - mStartSample: 3753773
    mEndSample: 3753773
  - mStartSample: 3758861
    mEndSample: 3758861
  - mStartSample: 3763950
    mEndSample: 3763950
  - mStartSample: 3769038
    mEndSample: 3769038
  - mStartSample: 3774126
    mEndSample: 3774126
  - mStartSample: 3779215
    mEndSample: 3779215
  - mStartSample: 3784303
    mEndSample: 3784303
  - mStartSample: 3789392
    mEndSample: 3789392
  - mStartSample: 3794480
    mEndSample: 3794480
  - mStartSample: 3799569
    mEndSample: 3799569
  - mStartSample: 3804657
    mEndSample: 3804657
  - mStartSample: 3809746
    mEndSample: 3809746
  - mStartSample: 3814834
    mEndSample: 3814834
  - mStartSample: 3819923
    mEndSample: 3819923
  - mStartSample: 3825011
    mEndSample: 3825011
  - mStartSample: 3830100
    mEndSample: 3830100
  - mStartSample: 3840276
    mEndSample: 3840276
  - mStartSample: 3850453
    mEndSample: 3850453
  - mStartSample: 3860630
    mEndSample: 3860630
  - mStartSample: 3870807
    mEndSample: 3870807
  - mStartSample: 3875896
    mEndSample: 3875896
  - mStartSample: 3880984
    mEndSample: 3880984
  - mStartSample: 3886073
    mEndSample: 3886073
  - mStartSample: 3891161
    mEndSample: 3891161
  - mStartSample: 3896250
    mEndSample: 3896250
  - mStartSample: 3901338
    mEndSample: 3901338
  - mStartSample: 3906426
    mEndSample: 3906426
  - mStartSample: 3911515
    mEndSample: 3911515
  - mStartSample: 3916603
    mEndSample: 3916603
  - mStartSample: 3921692
    mEndSample: 3921692
  - mStartSample: 3926780
    mEndSample: 3926780
  - mStartSample: 3931869
    mEndSample: 3931869
  - mStartSample: 3936957
    mEndSample: 3936957
  - mStartSample: 3942046
    mEndSample: 3942046
  - mStartSample: 3947134
    mEndSample: 3947134
  - mStartSample: 3952223
    mEndSample: 3952223
  - mStartSample: 3957311
    mEndSample: 3957311
  - mStartSample: 3962400
    mEndSample: 3962400
  - mStartSample: 3967488
    mEndSample: 3967488
  - mStartSample: 3972576
    mEndSample: 3972576
  - mStartSample: 3977665
    mEndSample: 3977665
  - mStartSample: 3982753
    mEndSample: 3982753
  - mStartSample: 3987842
    mEndSample: 3987842
  - mStartSample: 3992930
    mEndSample: 3992930
  - mStartSample: 3998019
    mEndSample: 3998019
  - mStartSample: 4003107
    mEndSample: 4003107
  - mStartSample: 4008196
    mEndSample: 4008196
  - mStartSample: 4013284
    mEndSample: 4013284
  - mStartSample: 4018373
    mEndSample: 4018373
  - mStartSample: 4023461
    mEndSample: 4023461
  - mStartSample: 4028550
    mEndSample: 4028550
  - mStartSample: 4033638
    mEndSample: 4033638
  - mStartSample: 4038726
    mEndSample: 4038726
  - mStartSample: 4043815
    mEndSample: 4043815
  - mStartSample: 4048903
    mEndSample: 4048903
  - mStartSample: 4053992
    mEndSample: 4053992
  - mStartSample: 4059080
    mEndSample: 4059080
  - mStartSample: 4064169
    mEndSample: 4064169
  - mStartSample: 4069257
    mEndSample: 4069257
  - mStartSample: 4074346
    mEndSample: 4074346
  - mStartSample: 4084523
    mEndSample: 4084523
  - mStartSample: 4091066
    mEndSample: 4091066
  - mStartSample: 4092672
    mEndSample: 4092672
  - mStartSample: 4094700
    mEndSample: 4094700
  - mStartSample: 4104876
    mEndSample: 4104876
  - mStartSample: 4115053
    mEndSample: 4115053
  - mStartSample: 4120142
    mEndSample: 4120142
  - mStartSample: 4125230
    mEndSample: 4125230
  - mStartSample: 4130319
    mEndSample: 4130319
  - mStartSample: 4135407
    mEndSample: 4135407
  - mStartSample: 4140496
    mEndSample: 4140496
  - mStartSample: 4145584
    mEndSample: 4145584
  - mStartSample: 4151664
    mEndSample: 4151664
  - mStartSample: 4156752
    mEndSample: 4156752
  - mStartSample: 4160850
    mEndSample: 4160850
  - mStartSample: 4165938
    mEndSample: 4165938
  - mStartSample: 4171026
    mEndSample: 4171026
  - mStartSample: 4176115
    mEndSample: 4176115
  - mStartSample: 4181203
    mEndSample: 4181203
  - mStartSample: 4186292
    mEndSample: 4186292
  - mStartSample: 4191380
    mEndSample: 4191380
  - mStartSample: 4196469
    mEndSample: 4196469
  - mStartSample: 4201557
    mEndSample: 4201557
  - mStartSample: 4206646
    mEndSample: 4206646
  - mStartSample: 4211734
    mEndSample: 4211734
  - mStartSample: 4216823
    mEndSample: 4216823
  - mStartSample: 4221911
    mEndSample: 4221911
  - mStartSample: 4227000
    mEndSample: 4227000
  - mStartSample: 4232088
    mEndSample: 4232088
  - mStartSample: 4237176
    mEndSample: 4237176
  - mStartSample: 4242265
    mEndSample: 4242265
  - mStartSample: 4247353
    mEndSample: 4247353
  - mStartSample: 4252442
    mEndSample: 4252442
  - mStartSample: 4257530
    mEndSample: 4257530
  - mStartSample: 4262619
    mEndSample: 4262619
  - mStartSample: 4267707
    mEndSample: 4267707
  - mStartSample: 4272796
    mEndSample: 4272796
  - mStartSample: 4277884
    mEndSample: 4277884
  - mStartSample: 4288061
    mEndSample: 4288061
  - mStartSample: 4295700
    mEndSample: 4295700
  - mStartSample: 4297140
    mEndSample: 4297140
  - mStartSample: 4298238
    mEndSample: 4298238
  - mStartSample: 4308415
    mEndSample: 4308415
  - mStartSample: 4318592
    mEndSample: 4318592
  - mStartSample: 4323680
    mEndSample: 4323680
  - mStartSample: 4328769
    mEndSample: 4328769
  - mStartSample: 4333857
    mEndSample: 4333857
  - mStartSample: 4338946
    mEndSample: 4338946
  - mStartSample: 4344034
    mEndSample: 4344034
  - mStartSample: 4349123
    mEndSample: 4349123
  - mStartSample: 4354211
    mEndSample: 4354211
  - mStartSample: 4359300
    mEndSample: 4359300
  - mStartSample: 4364388
    mEndSample: 4364388
  - mStartSample: 4369476
    mEndSample: 4369476
  - mStartSample: 4374565
    mEndSample: 4374565
  - mStartSample: 4379653
    mEndSample: 4379653
  - mStartSample: 4384742
    mEndSample: 4384742
  - mStartSample: 4389830
    mEndSample: 4389830
  - mStartSample: 4394919
    mEndSample: 4394919
  - mStartSample: 4400007
    mEndSample: 4400007
  - mStartSample: 4405096
    mEndSample: 4405096
  - mStartSample: 4410184
    mEndSample: 4410184
  - mStartSample: 4415273
    mEndSample: 4415273
  - mStartSample: 4420361
    mEndSample: 4420361
  - mStartSample: 4425450
    mEndSample: 4425450
  - mStartSample: 4430538
    mEndSample: 4430538
  - mStartSample: 4435626
    mEndSample: 4435626
  - mStartSample: 4440715
    mEndSample: 4440715
  - mStartSample: 4445803
    mEndSample: 4445803
  - mStartSample: 4450892
    mEndSample: 4450892
  - mStartSample: 4455980
    mEndSample: 4455980
  - mStartSample: 4461069
    mEndSample: 4461069
  - mStartSample: 4466157
    mEndSample: 4466157
  - mStartSample: 4471246
    mEndSample: 4471246
  - mStartSample: 4476334
    mEndSample: 4476334
  - mStartSample: 4481423
    mEndSample: 4481423
  - mStartSample: 4486511
    mEndSample: 4486511
  - mStartSample: 4491600
    mEndSample: 4491600
  - mStartSample: 4496688
    mEndSample: 4496688
  - mStartSample: 4501776
    mEndSample: 4501776
  - mStartSample: 4506865
    mEndSample: 4506865
  - mStartSample: 4511953
    mEndSample: 4511953
  - mStartSample: 4517042
    mEndSample: 4517042
  - mStartSample: 4522130
    mEndSample: 4522130
  - mStartSample: 4527219
    mEndSample: 4527219
  - mStartSample: 4532307
    mEndSample: 4532307
  - mStartSample: 4537396
    mEndSample: 4537396
  - mStartSample: 4542484
    mEndSample: 4542484
  - mStartSample: 4547573
    mEndSample: 4547573
  - mStartSample: 4552661
    mEndSample: 4552661
  - mStartSample: 4557750
    mEndSample: 4557750
  - mStartSample: 4562838
    mEndSample: 4562838
  - mStartSample: 4573015
    mEndSample: 4573015
  - mStartSample: 4578103
    mEndSample: 4578103
  - mStartSample: 4583192
    mEndSample: 4583192
  - mStartSample: 4593369
    mEndSample: 4593369
  - mStartSample: 4598457
    mEndSample: 4598457
  - mStartSample: 4603546
    mEndSample: 4603546
  _SerializedPayloadTypes:
  - SonicBloom.Koreo.TextPayload
  _AssetPayloads: []
  _AssetPayloadIdxs: 
  _ColorPayloads: []
  _ColorPayloadIdxs: 
  _CurvePayloads: []
  _CurvePayloadIdxs: 
  _FloatPayloads: []
  _FloatPayloadIdxs: 
  _GradientPayloads: []
  _GradientPayloadIdxs: 
  _IntPayloads: []
  _IntPayloadIdxs: 
  _SpectrumPayloads: []
  _SpectrumPayloadIdxs: 
  _TextPayloads:
  - mTextVal: 1
  - mTextVal: 7
  - mTextVal: 1
  - mTextVal: 7
  - mTextVal: 1
  - mTextVal: 7
  - mTextVal: 1
  - mTextVal: 7
  - mTextVal: 1
  - mTextVal: 7
  - mTextVal: 1
  - mTextVal: 7
  - mTextVal: 1
  - mTextVal: 7
  - mTextVal: 1
  - mTextVal: 7
  - mTextVal: 1
  - mTextVal: 7
  - mTextVal: 1
  - mTextVal: 7
  - mTextVal: 1
  - mTextVal: 7
  - mTextVal: 1
  - mTextVal: 7
  _TextPayloadIdxs: 000000002100000022000000290000002a00000031000000320000004e0000004f000000a0000000a1000000c4000000c5000000de000000ee000000fb000000fc0000009a0100009b0100002302000024020000600200006102000006030000
