%YAML 1.1
%TAG !u! tag:unity3d.com,2011:
--- !u!114 &11400000
MonoBehaviour:
  m_ObjectHideFlags: 0
  m_PrefabParentObject: {fileID: 0}
  m_PrefabInternal: {fileID: 0}
  m_GameObject: {fileID: 0}
  m_Enabled: 1
  m_EditorHideFlags: 0
  m_Script: {fileID: -1223223985, guid: aa81bbec85a3f423193272a7c6154986, type: 3}
  m_Name: P29track
  m_EditorClassIdentifier: 
  mEventID: Note
  mEventList:
  - mStartSample: 5725
    mEndSample: 5725
  - mStartSample: 35266
    mEndSample: 35266
  - mStartSample: 45800
    mEndSample: 45800
  - mStartSample: 55418
    mEndSample: 55418
  - mStartSample: 65723
    mEndSample: 65723
  - mStartSample: 73280
    mEndSample: 73280
  - mStartSample: 84043
    mEndSample: 84043
  - mStartSample: 114729
    mEndSample: 114729
  - mStartSample: 124118
    mEndSample: 124118
  - mStartSample: 133736
    mEndSample: 133736
  - mStartSample: 144041
    mEndSample: 144041
  - mStartSample: 151598
    mEndSample: 151598
  - mStartSample: 162361
    mEndSample: 162361
  - mStartSample: 182742
    mEndSample: 182742
  - mStartSample: 191902
    mEndSample: 191902
  - mStartSample: 211367
    mEndSample: 211367
  - mStartSample: 222130
    mEndSample: 222130
  - mStartSample: 232206
    mEndSample: 232206
  - mStartSample: 250040
    mEndSample: 250040
  - mStartSample: 260960
    mEndSample: 260960
  - mStartSample: 269220
    mEndSample: 269220
  - mStartSample: 279160
    mEndSample: 279160
  - mStartSample: 287840
    mEndSample: 287840
  - mStartSample: 314860
    mEndSample: 314860
  - mStartSample: 324516
    mEndSample: 324516
  - mStartSample: 334173
    mEndSample: 334173
  - mStartSample: 343830
    mEndSample: 343830
  - mStartSample: 353487
    mEndSample: 353487
  - mStartSample: 372801
    mEndSample: 372801
  - mStartSample: 382458
    mEndSample: 382458
  - mStartSample: 392115
    mEndSample: 392115
  - mStartSample: 401772
    mEndSample: 401772
  - mStartSample: 406600
    mEndSample: 406600
  - mStartSample: 411429
    mEndSample: 411429
  - mStartSample: 421086
    mEndSample: 421086
  - mStartSample: 430743
    mEndSample: 430743
  - mStartSample: 488684
    mEndSample: 488684
  - mStartSample: 498341
    mEndSample: 498341
  - mStartSample: 507998
    mEndSample: 507998
  - mStartSample: 517655
    mEndSample: 517655
  - mStartSample: 527312
    mEndSample: 527312
  - mStartSample: 536969
    mEndSample: 536969
  - mStartSample: 546626
    mEndSample: 546626
  - mStartSample: 623881
    mEndSample: 623881
  - mStartSample: 633538
    mEndSample: 633538
  - mStartSample: 643195
    mEndSample: 643195
  - mStartSample: 652852
    mEndSample: 652852
  - mStartSample: 662509
    mEndSample: 662509
  - mStartSample: 672166
    mEndSample: 672166
  - mStartSample: 681823
    mEndSample: 681823
  - mStartSample: 691480
    mEndSample: 691480
  - mStartSample: 701137
    mEndSample: 701137
  - mStartSample: 710794
    mEndSample: 710794
  - mStartSample: 720451
    mEndSample: 720451
  - mStartSample: 730108
    mEndSample: 730108
  - mStartSample: 741710
    mEndSample: 741710
  - mStartSample: 751367
    mEndSample: 751367
  - mStartSample: 761023
    mEndSample: 761023
  - mStartSample: 770680
    mEndSample: 770680
  - mStartSample: 780337
    mEndSample: 780337
  - mStartSample: 789994
    mEndSample: 789994
  - mStartSample: 799651
    mEndSample: 799651
  - mStartSample: 809308
    mEndSample: 809308
  - mStartSample: 818965
    mEndSample: 818965
  - mStartSample: 828622
    mEndSample: 828622
  - mStartSample: 838279
    mEndSample: 838279
  - mStartSample: 847936
    mEndSample: 847936
  - mStartSample: 855648
    mEndSample: 855648
  - mStartSample: 865305
    mEndSample: 865305
  - mStartSample: 874962
    mEndSample: 874962
  - mStartSample: 932903
    mEndSample: 932903
  - mStartSample: 942559
    mEndSample: 942559
  - mStartSample: 952216
    mEndSample: 952216
  - mStartSample: 961873
    mEndSample: 961873
  - mStartSample: 971530
    mEndSample: 971530
  - mStartSample: 991617
    mEndSample: 991617
  - mStartSample: 1001274
    mEndSample: 1001274
  - mStartSample: 1010931
    mEndSample: 1010931
  - mStartSample: 1020588
    mEndSample: 1020588
  - mStartSample: 1025416
    mEndSample: 1025416
  - mStartSample: 1030245
    mEndSample: 1030245
  - mStartSample: 1039902
    mEndSample: 1039902
  - mStartSample: 1049559
    mEndSample: 1049559
  - mStartSample: 1108629
    mEndSample: 1108629
  - mStartSample: 1118286
    mEndSample: 1118286
  - mStartSample: 1127943
    mEndSample: 1127943
  - mStartSample: 1137600
    mEndSample: 1137600
  - mStartSample: 1147257
    mEndSample: 1147257
  - mStartSample: 1156914
    mEndSample: 1156914
  - mStartSample: 1166571
    mEndSample: 1166571
  - mStartSample: 1245580
    mEndSample: 1245580
  - mStartSample: 1255237
    mEndSample: 1255237
  - mStartSample: 1264894
    mEndSample: 1264894
  - mStartSample: 1274551
    mEndSample: 1274551
  - mStartSample: 1284208
    mEndSample: 1284208
  - mStartSample: 1293865
    mEndSample: 1293865
  - mStartSample: 1303522
    mEndSample: 1303522
  - mStartSample: 1313179
    mEndSample: 1313179
  - mStartSample: 1322836
    mEndSample: 1322836
  - mStartSample: 1332493
    mEndSample: 1332493
  - mStartSample: 1342150
    mEndSample: 1342150
  - mStartSample: 1351807
    mEndSample: 1351807
  - mStartSample: 1363409
    mEndSample: 1363409
  - mStartSample: 1373066
    mEndSample: 1373066
  - mStartSample: 1382722
    mEndSample: 1382722
  - mStartSample: 1392379
    mEndSample: 1392379
  - mStartSample: 1402036
    mEndSample: 1402036
  - mStartSample: 1411693
    mEndSample: 1411693
  - mStartSample: 1421350
    mEndSample: 1421350
  - mStartSample: 1431007
    mEndSample: 1431007
  - mStartSample: 1440664
    mEndSample: 1440664
  - mStartSample: 1450321
    mEndSample: 1450321
  - mStartSample: 1459978
    mEndSample: 1459978
  - mStartSample: 1469635
    mEndSample: 1469635
  - mStartSample: 1478870
    mEndSample: 1478870
  - mStartSample: 1556775
    mEndSample: 1556775
  - mStartSample: 1566575
    mEndSample: 1566575
  - mStartSample: 1576375
    mEndSample: 1576375
  - mStartSample: 1586175
    mEndSample: 1586175
  - mStartSample: 1605775
    mEndSample: 1605775
  - mStartSample: 1615575
    mEndSample: 1615575
  - mStartSample: 1625375
    mEndSample: 1625375
  - mStartSample: 1635175
    mEndSample: 1635175
  - mStartSample: 1654775
    mEndSample: 1654775
  - mStartSample: 1664575
    mEndSample: 1664575
  - mStartSample: 1674375
    mEndSample: 1674375
  - mStartSample: 1684175
    mEndSample: 1684175
  - mStartSample: 1693975
    mEndSample: 1693975
  - mStartSample: 1703775
    mEndSample: 1703775
  - mStartSample: 1713575
    mEndSample: 1713575
  - mStartSample: 1723375
    mEndSample: 1723375
  - mStartSample: 1733175
    mEndSample: 1733175
  - mStartSample: 1742975
    mEndSample: 1742975
  - mStartSample: 1762575
    mEndSample: 1762575
  - mStartSample: 1772375
    mEndSample: 1772375
  - mStartSample: 1782175
    mEndSample: 1782175
  - mStartSample: 1791975
    mEndSample: 1791975
  - mStartSample: 1801775
    mEndSample: 1801775
  - mStartSample: 1811575
    mEndSample: 1811575
  - mStartSample: 1843218
    mEndSample: 1843218
  - mStartSample: 1853280
    mEndSample: 1853280
  - mStartSample: 1861821
    mEndSample: 1861821
  - mStartSample: 1870375
    mEndSample: 1870375
  - mStartSample: 1880175
    mEndSample: 1880175
  - mStartSample: 1889975
    mEndSample: 1889975
  - mStartSample: 1899775
    mEndSample: 1899775
  - mStartSample: 1909575
    mEndSample: 1909575
  - mStartSample: 1919375
    mEndSample: 1919375
  - mStartSample: 1929175
    mEndSample: 1929175
  - mStartSample: 1938975
    mEndSample: 1938975
  - mStartSample: 1948775
    mEndSample: 1948775
  - mStartSample: 1958575
    mEndSample: 1958575
  - mStartSample: 1968375
    mEndSample: 1968375
  - mStartSample: 1978175
    mEndSample: 1978175
  - mStartSample: 1987975
    mEndSample: 1987975
  - mStartSample: 1997775
    mEndSample: 1997775
  - mStartSample: 2007575
    mEndSample: 2007575
  - mStartSample: 2017375
    mEndSample: 2017375
  - mStartSample: 2027175
    mEndSample: 2027175
  - mStartSample: 2036975
    mEndSample: 2036975
  - mStartSample: 2046775
    mEndSample: 2046775
  - mStartSample: 2056575
    mEndSample: 2056575
  - mStartSample: 2066375
    mEndSample: 2066375
  - mStartSample: 2076175
    mEndSample: 2076175
  - mStartSample: 2085975
    mEndSample: 2085975
  - mStartSample: 2095775
    mEndSample: 2095775
  - mStartSample: 2105575
    mEndSample: 2105575
  - mStartSample: 2115375
    mEndSample: 2115375
  - mStartSample: 2125175
    mEndSample: 2125175
  - mStartSample: 2134975
    mEndSample: 2134975
  - mStartSample: 2144775
    mEndSample: 2144775
  - mStartSample: 2154575
    mEndSample: 2154575
  - mStartSample: 2164375
    mEndSample: 2164375
  - mStartSample: 2174175
    mEndSample: 2174175
  - mStartSample: 2183975
    mEndSample: 2183975
  - mStartSample: 2193775
    mEndSample: 2193775
  - mStartSample: 2203575
    mEndSample: 2203575
  - mStartSample: 2213375
    mEndSample: 2213375
  - mStartSample: 2223175
    mEndSample: 2223175
  - mStartSample: 2232975
    mEndSample: 2232975
  - mStartSample: 2242775
    mEndSample: 2242775
  - mStartSample: 2252575
    mEndSample: 2252575
  - mStartSample: 2262375
    mEndSample: 2262375
  - mStartSample: 2272175
    mEndSample: 2272175
  - mStartSample: 2281975
    mEndSample: 2281975
  - mStartSample: 2291775
    mEndSample: 2291775
  - mStartSample: 2301575
    mEndSample: 2301575
  - mStartSample: 2311375
    mEndSample: 2311375
  - mStartSample: 2321175
    mEndSample: 2321175
  - mStartSample: 2330975
    mEndSample: 2330975
  - mStartSample: 2340775
    mEndSample: 2340775
  - mStartSample: 2350575
    mEndSample: 2350575
  - mStartSample: 2360375
    mEndSample: 2360375
  - mStartSample: 2370175
    mEndSample: 2370175
  - mStartSample: 2379975
    mEndSample: 2379975
  - mStartSample: 2389775
    mEndSample: 2389775
  - mStartSample: 2399575
    mEndSample: 2399575
  - mStartSample: 2409375
    mEndSample: 2409375
  - mStartSample: 2419175
    mEndSample: 2419175
  - mStartSample: 2428975
    mEndSample: 2428975
  - mStartSample: 2438775
    mEndSample: 2438775
  - mStartSample: 2448575
    mEndSample: 2448575
  - mStartSample: 2458375
    mEndSample: 2458375
  - mStartSample: 2468175
    mEndSample: 2468175
  - mStartSample: 2477975
    mEndSample: 2477975
  - mStartSample: 2487775
    mEndSample: 2487775
  - mStartSample: 2496539
    mEndSample: 2496539
  - mStartSample: 2506638
    mEndSample: 2506638
  - mStartSample: 2516737
    mEndSample: 2516737
  - mStartSample: 2526836
    mEndSample: 2526836
  - mStartSample: 2547035
    mEndSample: 2547035
  - mStartSample: 2557134
    mEndSample: 2557134
  - mStartSample: 2567233
    mEndSample: 2567233
  - mStartSample: 2577332
    mEndSample: 2577332
  - mStartSample: 2594688
    mEndSample: 2594688
  - mStartSample: 2603917
    mEndSample: 2603917
  - mStartSample: 2614016
    mEndSample: 2614016
  - mStartSample: 2624116
    mEndSample: 2624116
  - mStartSample: 2634215
    mEndSample: 2634215
  - mStartSample: 2644314
    mEndSample: 2644314
  - mStartSample: 2653641
    mEndSample: 2653641
  - mStartSample: 2663514
    mEndSample: 2663514
  - mStartSample: 2673387
    mEndSample: 2673387
  - mStartSample: 2683260
    mEndSample: 2683260
  - mStartSample: 2703006
    mEndSample: 2703006
  - mStartSample: 2712879
    mEndSample: 2712879
  - mStartSample: 2722752
    mEndSample: 2722752
  - mStartSample: 2732626
    mEndSample: 2732626
  - mStartSample: 2742499
    mEndSample: 2742499
  - mStartSample: 2752372
    mEndSample: 2752372
  - mStartSample: 2781991
    mEndSample: 2781991
  - mStartSample: 2791864
    mEndSample: 2791864
  - mStartSample: 2801738
    mEndSample: 2801738
  - mStartSample: 2811611
    mEndSample: 2811611
  - mStartSample: 2821484
    mEndSample: 2821484
  - mStartSample: 2831357
    mEndSample: 2831357
  - mStartSample: 2841230
    mEndSample: 2841230
  - mStartSample: 2851103
    mEndSample: 2851103
  - mStartSample: 2860976
    mEndSample: 2860976
  - mStartSample: 2870849
    mEndSample: 2870849
  - mStartSample: 2880723
    mEndSample: 2880723
  - mStartSample: 2890596
    mEndSample: 2890596
  - mStartSample: 2900469
    mEndSample: 2900469
  - mStartSample: 2910342
    mEndSample: 2910342
  - mStartSample: 2920215
    mEndSample: 2920215
  - mStartSample: 2930088
    mEndSample: 2930088
  - mStartSample: 2939961
    mEndSample: 2939961
  - mStartSample: 2949835
    mEndSample: 2949835
  - mStartSample: 2959708
    mEndSample: 2959708
  - mStartSample: 2969581
    mEndSample: 2969581
  - mStartSample: 2979454
    mEndSample: 2979454
  - mStartSample: 2989327
    mEndSample: 2989327
  - mStartSample: 2999200
    mEndSample: 2999200
  - mStartSample: 3009073
    mEndSample: 3009073
  - mStartSample: 3018946
    mEndSample: 3018946
  - mStartSample: 3028820
    mEndSample: 3028820
  - mStartSample: 3048566
    mEndSample: 3048566
  - mStartSample: 3053344
    mEndSample: 3053344
  - mStartSample: 3058439
    mEndSample: 3058439
  - mStartSample: 3128616
    mEndSample: 3128616
  - mStartSample: 3158157
    mEndSample: 3158157
  - mStartSample: 3168691
    mEndSample: 3168691
  - mStartSample: 3178309
    mEndSample: 3178309
  - mStartSample: 3188614
    mEndSample: 3188614
  - mStartSample: 3196171
    mEndSample: 3196171
  - mStartSample: 3205737
    mEndSample: 3205737
  - mStartSample: 3234400
    mEndSample: 3234400
  - mStartSample: 3245320
    mEndSample: 3245320
  - mStartSample: 3254784
    mEndSample: 3254784
  - mStartSample: 3264144
    mEndSample: 3264144
  - mStartSample: 3272464
    mEndSample: 3272464
  - mStartSample: 3283800
    mEndSample: 3283800
  - mStartSample: 3293563
    mEndSample: 3293563
  - mStartSample: 3303327
    mEndSample: 3303327
  - mStartSample: 3313091
    mEndSample: 3313091
  - mStartSample: 3322855
    mEndSample: 3322855
  - mStartSample: 3342383
    mEndSample: 3342383
  - mStartSample: 3352146
    mEndSample: 3352146
  - mStartSample: 3361910
    mEndSample: 3361910
  - mStartSample: 3371783
    mEndSample: 3371783
  - mStartSample: 3376215
    mEndSample: 3376215
  - mStartSample: 3381656
    mEndSample: 3381656
  - mStartSample: 3391529
    mEndSample: 3391529
  - mStartSample: 3401402
    mEndSample: 3401402
  - mStartSample: 3460641
    mEndSample: 3460641
  - mStartSample: 3470514
    mEndSample: 3470514
  - mStartSample: 3480387
    mEndSample: 3480387
  - mStartSample: 3490260
    mEndSample: 3490260
  - mStartSample: 3500133
    mEndSample: 3500133
  - mStartSample: 3510007
    mEndSample: 3510007
  - mStartSample: 3519880
    mEndSample: 3519880
  - mStartSample: 3598865
    mEndSample: 3598865
  - mStartSample: 3608738
    mEndSample: 3608738
  - mStartSample: 3618611
    mEndSample: 3618611
  - mStartSample: 3628484
    mEndSample: 3628484
  - mStartSample: 3638357
    mEndSample: 3638357
  - mStartSample: 3648230
    mEndSample: 3648230
  - mStartSample: 3658104
    mEndSample: 3658104
  - mStartSample: 3667977
    mEndSample: 3667977
  - mStartSample: 3677850
    mEndSample: 3677850
  - mStartSample: 3687723
    mEndSample: 3687723
  - mStartSample: 3697596
    mEndSample: 3697596
  - mStartSample: 3707469
    mEndSample: 3707469
  - mStartSample: 3717342
    mEndSample: 3717342
  - mStartSample: 3727215
    mEndSample: 3727215
  - mStartSample: 3737089
    mEndSample: 3737089
  - mStartSample: 3746962
    mEndSample: 3746962
  - mStartSample: 3756835
    mEndSample: 3756835
  - mStartSample: 3766708
    mEndSample: 3766708
  - mStartSample: 3776581
    mEndSample: 3776581
  - mStartSample: 3786454
    mEndSample: 3786454
  - mStartSample: 3796327
    mEndSample: 3796327
  - mStartSample: 3806201
    mEndSample: 3806201
  - mStartSample: 3816074
    mEndSample: 3816074
  - mStartSample: 3825947
    mEndSample: 3825947
  - mStartSample: 3835820
    mEndSample: 3835820
  - mStartSample: 3845693
    mEndSample: 3845693
  - mStartSample: 3855566
    mEndSample: 3855566
  - mStartSample: 3912326
    mEndSample: 3912326
  - mStartSample: 3922348
    mEndSample: 3922348
  - mStartSample: 3932371
    mEndSample: 3932371
  - mStartSample: 3942394
    mEndSample: 3942394
  - mStartSample: 3952416
    mEndSample: 3952416
  - mStartSample: 3962439
    mEndSample: 3962439
  - mStartSample: 3972462
    mEndSample: 3972462
  - mStartSample: 3982485
    mEndSample: 3982485
  - mStartSample: 3992507
    mEndSample: 3992507
  - mStartSample: 4002530
    mEndSample: 4002530
  - mStartSample: 4007520
    mEndSample: 4007520
  - mStartSample: 4012553
    mEndSample: 4012553
  - mStartSample: 4022576
    mEndSample: 4022576
  - mStartSample: 4032598
    mEndSample: 4032598
  - mStartSample: 4052644
    mEndSample: 4052644
  - mStartSample: 4072689
    mEndSample: 4072689
  - mStartSample: 4092734
    mEndSample: 4092734
  - mStartSample: 4100877
    mEndSample: 4100877
  - mStartSample: 4110899
    mEndSample: 4110899
  - mStartSample: 4120922
    mEndSample: 4120922
  - mStartSample: 4130945
    mEndSample: 4130945
  - mStartSample: 4140968
    mEndSample: 4140968
  - mStartSample: 4150184
    mEndSample: 4150184
  - mStartSample: 4208125
    mEndSample: 4208125
  - mStartSample: 4217782
    mEndSample: 4217782
  - mStartSample: 4227439
    mEndSample: 4227439
  - mStartSample: 4237096
    mEndSample: 4237096
  - mStartSample: 4246753
    mEndSample: 4246753
  - mStartSample: 4256410
    mEndSample: 4256410
  - mStartSample: 4266067
    mEndSample: 4266067
  - mStartSample: 4275724
    mEndSample: 4275724
  - mStartSample: 4285381
    mEndSample: 4285381
  - mStartSample: 4295038
    mEndSample: 4295038
  - mStartSample: 4304694
    mEndSample: 4304694
  - mStartSample: 4314351
    mEndSample: 4314351
  - mStartSample: 4324008
    mEndSample: 4324008
  - mStartSample: 4333665
    mEndSample: 4333665
  - mStartSample: 4343322
    mEndSample: 4343322
  - mStartSample: 4352979
    mEndSample: 4352979
  - mStartSample: 4362636
    mEndSample: 4362636
  - mStartSample: 4372293
    mEndSample: 4372293
  - mStartSample: 4384200
    mEndSample: 4384200
  - mStartSample: 4393856
    mEndSample: 4393856
  - mStartSample: 4403513
    mEndSample: 4403513
  - mStartSample: 4413170
    mEndSample: 4413170
  - mStartSample: 4422827
    mEndSample: 4422827
  - mStartSample: 4432484
    mEndSample: 4432484
  - mStartSample: 4442141
    mEndSample: 4442141
  - mStartSample: 4451798
    mEndSample: 4451798
  - mStartSample: 4461455
    mEndSample: 4461455
  - mStartSample: 4509740
    mEndSample: 4509740
  - mStartSample: 4519397
    mEndSample: 4519397
  - mStartSample: 4529054
    mEndSample: 4529054
  - mStartSample: 4539969
    mEndSample: 4539969
  - mStartSample: 4559569
    mEndSample: 4559569
  - mStartSample: 4569369
    mEndSample: 4569369
  - mStartSample: 4579169
    mEndSample: 4579169
  - mStartSample: 4598769
    mEndSample: 4598769
  - mStartSample: 4608569
    mEndSample: 4608569
  - mStartSample: 4618369
    mEndSample: 4618369
  - mStartSample: 4628169
    mEndSample: 4628169
  - mStartSample: 4667369
    mEndSample: 4667369
  - mStartSample: 4677169
    mEndSample: 4677169
  - mStartSample: 4686969
    mEndSample: 4686969
  - mStartSample: 4696769
    mEndSample: 4696769
  - mStartSample: 4726169
    mEndSample: 4726169
  - mStartSample: 4735969
    mEndSample: 4735969
  - mStartSample: 4755569
    mEndSample: 4755569
  - mStartSample: 4765369
    mEndSample: 4765369
  - mStartSample: 4775169
    mEndSample: 4775169
  - mStartSample: 4836507
    mEndSample: 4836507
  - mStartSample: 4853569
    mEndSample: 4853569
  - mStartSample: 4876500
    mEndSample: 4876500
  - mStartSample: 4885137
    mEndSample: 4885137
  - mStartSample: 4896510
    mEndSample: 4896510
  - mStartSample: 4918750
    mEndSample: 4918750
  - mStartSample: 4925318
    mEndSample: 4925318
  - mStartSample: 4935384
    mEndSample: 4935384
  - mStartSample: 4945437
    mEndSample: 4945437
  - mStartSample: 4985653
    mEndSample: 4985653
  - mStartSample: 4995707
    mEndSample: 4995707
  - mStartSample: 5005761
    mEndSample: 5005761
  - mStartSample: 5015815
    mEndSample: 5015815
  - mStartSample: 5045977
    mEndSample: 5045977
  - mStartSample: 5056031
    mEndSample: 5056031
  - mStartSample: 5076139
    mEndSample: 5076139
  - mStartSample: 5086193
    mEndSample: 5086193
  - mStartSample: 5096247
    mEndSample: 5096247
  - mStartSample: 5105564
    mEndSample: 5105564
  - mStartSample: 5114881
    mEndSample: 5114881
  - mStartSample: 5124197
    mEndSample: 5124197
  - mStartSample: 5133514
    mEndSample: 5133514
  - mStartSample: 5142831
    mEndSample: 5142831
  - mStartSample: 5152148
    mEndSample: 5152148
  - mStartSample: 5161465
    mEndSample: 5161465
  - mStartSample: 5170782
    mEndSample: 5170782
  - mStartSample: 5195700
    mEndSample: 5195700
  - mStartSample: 5205015
    mEndSample: 5205015
  - mStartSample: 5213640
    mEndSample: 5213640
  - mStartSample: 5222748
    mEndSample: 5222748
  - mStartSample: 5232500
    mEndSample: 5232500
  - mStartSample: 5242252
    mEndSample: 5242252
  - mStartSample: 5251820
    mEndSample: 5251820
  - mStartSample: 5284626
    mEndSample: 5284626
  - mStartSample: 5294580
    mEndSample: 5294580
  - mStartSample: 5302875
    mEndSample: 5302875
  - mStartSample: 5313066
    mEndSample: 5313066
  - mStartSample: 5322309
    mEndSample: 5322309
  - mStartSample: 5333448
    mEndSample: 5333448
  - mStartSample: 5404730
    mEndSample: 5404730
  - mStartSample: 5414603
    mEndSample: 5414603
  - mStartSample: 5424476
    mEndSample: 5424476
  - mStartSample: 5434349
    mEndSample: 5434349
  - mStartSample: 5444222
    mEndSample: 5444222
  - mStartSample: 5463968
    mEndSample: 5463968
  - mStartSample: 5473841
    mEndSample: 5473841
  - mStartSample: 5483715
    mEndSample: 5483715
  - mStartSample: 5493588
    mEndSample: 5493588
  - mStartSample: 5498100
    mEndSample: 5498100
  - mStartSample: 5503461
    mEndSample: 5503461
  - mStartSample: 5513334
    mEndSample: 5513334
  - mStartSample: 5523207
    mEndSample: 5523207
  - mStartSample: 5582446
    mEndSample: 5582446
  - mStartSample: 5592319
    mEndSample: 5592319
  - mStartSample: 5602192
    mEndSample: 5602192
  - mStartSample: 5612065
    mEndSample: 5612065
  - mStartSample: 5621938
    mEndSample: 5621938
  - mStartSample: 5631812
    mEndSample: 5631812
  - mStartSample: 5641685
    mEndSample: 5641685
  - mStartSample: 5700924
    mEndSample: 5700924
  - mStartSample: 5710797
    mEndSample: 5710797
  - mStartSample: 5720670
    mEndSample: 5720670
  - mStartSample: 5730362
    mEndSample: 5730362
  - mStartSample: 5740054
    mEndSample: 5740054
  - mStartSample: 5749747
    mEndSample: 5749747
  - mStartSample: 5759439
    mEndSample: 5759439
  - mStartSample: 5769131
    mEndSample: 5769131
  - mStartSample: 5778824
    mEndSample: 5778824
  - mStartSample: 5788516
    mEndSample: 5788516
  - mStartSample: 5798208
    mEndSample: 5798208
  - mStartSample: 5807900
    mEndSample: 5807900
  - mStartSample: 5817592
    mEndSample: 5817592
  - mStartSample: 5827285
    mEndSample: 5827285
  - mStartSample: 5836977
    mEndSample: 5836977
  - mStartSample: 5846669
    mEndSample: 5846669
  - mStartSample: 5856362
    mEndSample: 5856362
  - mStartSample: 5866054
    mEndSample: 5866054
  - mStartSample: 5875747
    mEndSample: 5875747
  - mStartSample: 5885439
    mEndSample: 5885439
  - mStartSample: 5895131
    mEndSample: 5895131
  - mStartSample: 5904824
    mEndSample: 5904824
  - mStartSample: 5914516
    mEndSample: 5914516
  - mStartSample: 5924208
    mEndSample: 5924208
  - mStartSample: 5933901
    mEndSample: 5933901
  - mStartSample: 5943593
    mEndSample: 5943593
  - mStartSample: 5953285
    mEndSample: 5953285
  - mStartSample: 5982362
    mEndSample: 5982362
  - mStartSample: 5992054
    mEndSample: 5992054
  - mStartSample: 6001747
    mEndSample: 6001747
  - mStartSample: 6011439
    mEndSample: 6011439
  - mStartSample: 6021131
    mEndSample: 6021131
  - mStartSample: 6030824
    mEndSample: 6030824
  - mStartSample: 6059901
    mEndSample: 6059901
  - mStartSample: 6069593
    mEndSample: 6069593
  - mStartSample: 6079285
    mEndSample: 6079285
  - mStartSample: 6088977
    mEndSample: 6088977
  - mStartSample: 6098670
    mEndSample: 6098670
  - mStartSample: 6108362
    mEndSample: 6108362
  _SerializedPayloadTypes:
  - SonicBloom.Koreo.TextPayload
  _AssetPayloads: []
  _AssetPayloadIdxs: 
  _ColorPayloads: []
  _ColorPayloadIdxs: 
  _CurvePayloads: []
  _CurvePayloadIdxs: 
  _FloatPayloads: []
  _FloatPayloadIdxs: 
  _GradientPayloads: []
  _GradientPayloadIdxs: 
  _IntPayloads: []
  _IntPayloadIdxs: 
  _SpectrumPayloads: []
  _SpectrumPayloadIdxs: 
  _TextPayloads:
  - mTextVal: 1
  - mTextVal: 7
  - mTextVal: 1
  - mTextVal: 7
  - mTextVal: 1
  - mTextVal: 7
  - mTextVal: 1
  - mTextVal: 7
  - mTextVal: 1
  - mTextVal: 7
  - mTextVal: 1
  - mTextVal: 7
  - mTextVal: 1
  - mTextVal: 7
  - mTextVal: 1
  - mTextVal: 7
  - mTextVal: 1
  - mTextVal: 7
  - mTextVal: 1
  - mTextVal: 7
  - mTextVal: 1
  - mTextVal: 7
  - mTextVal: 1
  - mTextVal: 7
  - mTextVal: 1
  - mTextVal: 7
  - mTextVal: 1
  - mTextVal: 7
  - mTextVal: 1
  - mTextVal: 7
  - mTextVal: 1
  - mTextVal: 7
  - mTextVal: 1
  - mTextVal: 7
  - mTextVal: 1
  - mTextVal: 7
  - mTextVal: 1
  - mTextVal: 7
  - mTextVal: 1
  - mTextVal: 7
  - mTextVal: 1
  - mTextVal: 7
  - mTextVal: 1
  - mTextVal: 7
  - mTextVal: 1
  - mTextVal: 7
  - mTextVal: 1
  - mTextVal: 7
  - mTextVal: 1
  - mTextVal: 7
  - mTextVal: 1
  - mTextVal: 7
  - mTextVal: 1
  - mTextVal: 7
  - mTextVal: 1
  - mTextVal: 7
  - mTextVal: 1
  - mTextVal: 7
  - mTextVal: 1
  - mTextVal: 7
  - mTextVal: 1
  - mTextVal: 7
  - mTextVal: 1
  - mTextVal: 7
  - mTextVal: 1
  - mTextVal: 7
  - mTextVal: 1
  - mTextVal: 7
  - mTextVal: 1
  - mTextVal: 7
  _TextPayloadIdxs: 1700000023000000240000002a0000002b0000003a0000003b00000045000000460000005200000053000000590000005a000000690000006a00000072000000730000007a0000007b00000084000000850000008a0000008e00000095000000960000009d0000009e000000a5000000a6000000ad000000ae000000b5000000b6000000bd000000be000000c5000000c6000000cd00000004010000090100000a0100000e0100000f0100001b0100001c01000022010000230100003d0100003e01000054010000550100006f010000930100009d0100009e010000a4010000ab010000b7010000b8010000be010000c1010000c8010000c9010000d0010000d1010000d9010000da010000df010000e0010000e5010000
