%YAML 1.1
%TAG !u! tag:unity3d.com,2011:
--- !u!114 &11400000
MonoBehaviour:
  m_ObjectHideFlags: 0
  m_PrefabParentObject: {fileID: 0}
  m_PrefabInternal: {fileID: 0}
  m_GameObject: {fileID: 0}
  m_Enabled: 1
  m_EditorHideFlags: 0
  m_Script: {fileID: -2076007791, guid: aa81bbec85a3f423193272a7c6154986, type: 3}
  m_Name: K001New
  m_EditorClassIdentifier: 
  mSourceClip: {fileID: 8300000, guid: 40162dfb199b252419461deb42f98bdd, type: 3}
  mAudioFilePath: 
  mSampleRate: 44100
  mIgnoreLatencyOffset: 0
  mTempoSections:
  - sectionName: New Section
    startSample: 0
    samplesPerBeat: 22050
    beatsPerMeasure: 4
    bStartNewMeasure: 1
  mTracks:
  - {fileID: 11400000, guid: 415acff830116432eb64971d4dcd0dcd, type: 2}
