%YAML 1.1
%TAG !u! tag:unity3d.com,2011:
--- !u!114 &11400000
MonoBehaviour:
  m_ObjectHideFlags: 0
  m_PrefabParentObject: {fileID: 0}
  m_PrefabInternal: {fileID: 0}
  m_GameObject: {fileID: 0}
  m_Enabled: 1
  m_EditorHideFlags: 0
  m_Script: {fileID: -2076007791, guid: aa81bbec85a3f423193272a7c6154986, type: 3}
  m_Name: P64
  m_EditorClassIdentifier: 
  mSourceClip: {fileID: 8300000, guid: 61336cace3c1bc849a8e4f1fa8c360ef, type: 3}
  mAudioFilePath: 
  mSampleRate: 44100
  mIgnoreLatencyOffset: 0
  mTempoSections:
  - sectionName: New Section
    startSample: 0
    samplesPerBeat: 18503.496503496503
    beatsPerMeasure: 4
    bStartNewMeasure: 1
  - sectionName: New Section
    startSample: 21000
    samplesPerBeat: 18387.769284225156
    beatsPerMeasure: 4
    bStartNewMeasure: 1
  - sectionName: New Section
    startSample: 315932
    samplesPerBeat: 18568.42105263158
    beatsPerMeasure: 4
    bStartNewMeasure: 1
  - sectionName: New Section
    startSample: 613026
    samplesPerBeat: 18490.56603773585
    beatsPerMeasure: 4
    bStartNewMeasure: 1
  - sectionName: New Section
    startSample: 2388550
    samplesPerBeat: 18503.496503496503
    beatsPerMeasure: 4
    bStartNewMeasure: 1
  - sectionName: New Section
    startSample: 3572773
    samplesPerBeat: 18503.496503496503
    beatsPerMeasure: 4
    bStartNewMeasure: 1
  mTracks:
  - {fileID: 11400000, guid: 4e531605d8cdedb4aaf80941fc1967ab, type: 2}
  - {fileID: 11400000, guid: c89f445adc6cd324cb00499620f55a18, type: 2}
