%YAML 1.1
%TAG !u! tag:unity3d.com,2011:
--- !u!114 &11400000
MonoBehaviour:
  m_ObjectHideFlags: 0
  m_PrefabParentObject: {fileID: 0}
  m_PrefabInternal: {fileID: 0}
  m_GameObject: {fileID: 0}
  m_Enabled: 1
  m_EditorHideFlags: 0
  m_Script: {fileID: -1223223985, guid: aa81bbec85a3f423193272a7c6154986, type: 3}
  m_Name: P51track
  m_EditorClassIdentifier: 
  mEventID: Note
  mEventList:
  - mStartSample: 1350
    mEndSample: 1350
  - mStartSample: 8240
    mEndSample: 8240
  - mStartSample: 15330
    mEndSample: 15330
  - mStartSample: 29111
    mEndSample: 29111
  - mStartSample: 36001
    mEndSample: 36001
  - mStartSample: 42892
    mEndSample: 42892
  - mStartSample: 56673
    mEndSample: 56673
  - mStartSample: 63564
    mEndSample: 63564
  - mStartSample: 70455
    mEndSample: 70455
  - mStartSample: 84236
    mEndSample: 84236
  - mStartSample: 111798
    mEndSample: 111798
  - mStartSample: 118688
    mEndSample: 118688
  - mStartSample: 125580
    mEndSample: 125580
  - mStartSample: 139361
    mEndSample: 139361
  - mStartSample: 146251
    mEndSample: 146251
  - mStartSample: 153142
    mEndSample: 153142
  - mStartSample: 166923
    mEndSample: 166923
  - mStartSample: 173814
    mEndSample: 173814
  - mStartSample: 180705
    mEndSample: 180705
  - mStartSample: 194486
    mEndSample: 194486
  - mStartSample: 222048
    mEndSample: 222048
  - mStartSample: 228938
    mEndSample: 228938
  - mStartSample: 235830
    mEndSample: 235830
  - mStartSample: 249611
    mEndSample: 249611
  - mStartSample: 256501
    mEndSample: 256501
  - mStartSample: 263392
    mEndSample: 263392
  - mStartSample: 277173
    mEndSample: 277173
  - mStartSample: 284064
    mEndSample: 284064
  - mStartSample: 290955
    mEndSample: 290955
  - mStartSample: 304736
    mEndSample: 304736
  - mStartSample: 332298
    mEndSample: 332298
  - mStartSample: 339188
    mEndSample: 339188
  - mStartSample: 346080
    mEndSample: 346080
  - mStartSample: 359861
    mEndSample: 359861
  - mStartSample: 366751
    mEndSample: 366751
  - mStartSample: 373642
    mEndSample: 373642
  - mStartSample: 387423
    mEndSample: 387423
  - mStartSample: 394314
    mEndSample: 394314
  - mStartSample: 401205
    mEndSample: 401205
  - mStartSample: 414986
    mEndSample: 414986
  - mStartSample: 442548
    mEndSample: 442548
  - mStartSample: 449439
    mEndSample: 449439
  - mStartSample: 456330
    mEndSample: 456330
  - mStartSample: 470111
    mEndSample: 470111
  - mStartSample: 483892
    mEndSample: 483892
  - mStartSample: 497673
    mEndSample: 497673
  - mStartSample: 511455
    mEndSample: 511455
  - mStartSample: 525236
    mEndSample: 525236
  - mStartSample: 552798
    mEndSample: 552798
  - mStartSample: 559689
    mEndSample: 559689
  - mStartSample: 566580
    mEndSample: 566580
  - mStartSample: 580361
    mEndSample: 580361
  - mStartSample: 594142
    mEndSample: 594142
  - mStartSample: 607923
    mEndSample: 607923
  - mStartSample: 621705
    mEndSample: 621705
  - mStartSample: 635486
    mEndSample: 635486
  - mStartSample: 649267
    mEndSample: 649267
  - mStartSample: 656158
    mEndSample: 656158
  - mStartSample: 663048
    mEndSample: 663048
  - mStartSample: 669939
    mEndSample: 669939
  - mStartSample: 676830
    mEndSample: 676830
  - mStartSample: 690611
    mEndSample: 690611
  - mStartSample: 704392
    mEndSample: 704392
  - mStartSample: 718173
    mEndSample: 718173
  - mStartSample: 731955
    mEndSample: 731955
  - mStartSample: 745736
    mEndSample: 745736
  - mStartSample: 752626
    mEndSample: 752626
  - mStartSample: 759517
    mEndSample: 759517
  - mStartSample: 773298
    mEndSample: 773298
  - mStartSample: 787080
    mEndSample: 787080
  - mStartSample: 814642
    mEndSample: 814642
  - mStartSample: 842205
    mEndSample: 842205
  - mStartSample: 869767
    mEndSample: 869767
  - mStartSample: 897330
    mEndSample: 897330
  - mStartSample: 924892
    mEndSample: 924892
  - mStartSample: 952455
    mEndSample: 952455
  - mStartSample: 966236
    mEndSample: 966236
  - mStartSample: 980017
    mEndSample: 980017
  - mStartSample: 993798
    mEndSample: 993798
  - mStartSample: 1007580
    mEndSample: 1007580
  - mStartSample: 1048923
    mEndSample: 1048923
  - mStartSample: 1055813
    mEndSample: 1055813
  - mStartSample: 1062705
    mEndSample: 1062705
  - mStartSample: 1076486
    mEndSample: 1076486
  - mStartSample: 1083376
    mEndSample: 1083376
  - mStartSample: 1090267
    mEndSample: 1090267
  - mStartSample: 1104048
    mEndSample: 1104048
  - mStartSample: 1110939
    mEndSample: 1110939
  - mStartSample: 1117830
    mEndSample: 1117830
  - mStartSample: 1131611
    mEndSample: 1131611
  - mStartSample: 1159173
    mEndSample: 1159173
  - mStartSample: 1166063
    mEndSample: 1166063
  - mStartSample: 1172955
    mEndSample: 1172955
  - mStartSample: 1186736
    mEndSample: 1186736
  - mStartSample: 1193626
    mEndSample: 1193626
  - mStartSample: 1200517
    mEndSample: 1200517
  - mStartSample: 1214298
    mEndSample: 1214298
  - mStartSample: 1221189
    mEndSample: 1221189
  - mStartSample: 1228080
    mEndSample: 1228080
  - mStartSample: 1241861
    mEndSample: 1241861
  - mStartSample: 1269423
    mEndSample: 1269423
  - mStartSample: 1276313
    mEndSample: 1276313
  - mStartSample: 1283205
    mEndSample: 1283205
  - mStartSample: 1296986
    mEndSample: 1296986
  - mStartSample: 1303876
    mEndSample: 1303876
  - mStartSample: 1310767
    mEndSample: 1310767
  - mStartSample: 1324548
    mEndSample: 1324548
  - mStartSample: 1331439
    mEndSample: 1331439
  - mStartSample: 1338330
    mEndSample: 1338330
  - mStartSample: 1352111
    mEndSample: 1352111
  - mStartSample: 1379673
    mEndSample: 1379673
  - mStartSample: 1386563
    mEndSample: 1386563
  - mStartSample: 1393455
    mEndSample: 1393455
  - mStartSample: 1407236
    mEndSample: 1407236
  - mStartSample: 1414126
    mEndSample: 1414126
  - mStartSample: 1421017
    mEndSample: 1421017
  - mStartSample: 1434798
    mEndSample: 1434798
  - mStartSample: 1441689
    mEndSample: 1441689
  - mStartSample: 1448580
    mEndSample: 1448580
  - mStartSample: 1503705
    mEndSample: 1503705
  - mStartSample: 1551939
    mEndSample: 1551939
  - mStartSample: 1558830
    mEndSample: 1558830
  - mStartSample: 1572611
    mEndSample: 1572611
  - mStartSample: 1586392
    mEndSample: 1586392
  - mStartSample: 1613955
    mEndSample: 1613955
  - mStartSample: 1627736
    mEndSample: 1627736
  - mStartSample: 1641517
    mEndSample: 1641517
  - mStartSample: 1662189
    mEndSample: 1662189
  - mStartSample: 1669080
    mEndSample: 1669080
  - mStartSample: 1682861
    mEndSample: 1682861
  - mStartSample: 1696642
    mEndSample: 1696642
  - mStartSample: 1710423
    mEndSample: 1710423
  - mStartSample: 1724205
    mEndSample: 1724205
  - mStartSample: 1737986
    mEndSample: 1737986
  - mStartSample: 1751767
    mEndSample: 1751767
  - mStartSample: 1772439
    mEndSample: 1772439
  - mStartSample: 1779330
    mEndSample: 1779330
  - mStartSample: 1786220
    mEndSample: 1786220
  - mStartSample: 1793111
    mEndSample: 1793111
  - mStartSample: 1800001
    mEndSample: 1800001
  - mStartSample: 1806892
    mEndSample: 1806892
  - mStartSample: 1813783
    mEndSample: 1813783
  - mStartSample: 1820673
    mEndSample: 1820673
  - mStartSample: 1827564
    mEndSample: 1827564
  - mStartSample: 1834455
    mEndSample: 1834455
  - mStartSample: 1841345
    mEndSample: 1841345
  - mStartSample: 1848236
    mEndSample: 1848236
  - mStartSample: 1855126
    mEndSample: 1855126
  - mStartSample: 1862017
    mEndSample: 1862017
  - mStartSample: 1868908
    mEndSample: 1868908
  - mStartSample: 1875798
    mEndSample: 1875798
  - mStartSample: 1882689
    mEndSample: 1882689
  - mStartSample: 1889580
    mEndSample: 1889580
  - mStartSample: 1896470
    mEndSample: 1896470
  - mStartSample: 1903361
    mEndSample: 1903361
  - mStartSample: 1910251
    mEndSample: 1910251
  - mStartSample: 1917142
    mEndSample: 1917142
  - mStartSample: 1924033
    mEndSample: 1924033
  - mStartSample: 1930923
    mEndSample: 1930923
  - mStartSample: 1937814
    mEndSample: 1937814
  - mStartSample: 1944705
    mEndSample: 1944705
  - mStartSample: 1951595
    mEndSample: 1951595
  - mStartSample: 1958486
    mEndSample: 1958486
  - mStartSample: 1965376
    mEndSample: 1965376
  - mStartSample: 1972267
    mEndSample: 1972267
  - mStartSample: 1979158
    mEndSample: 1979158
  - mStartSample: 1986048
    mEndSample: 1986048
  - mStartSample: 1992939
    mEndSample: 1992939
  - mStartSample: 1999830
    mEndSample: 1999830
  - mStartSample: 2027392
    mEndSample: 2027392
  - mStartSample: 2041173
    mEndSample: 2041173
  - mStartSample: 2054955
    mEndSample: 2054955
  - mStartSample: 2082517
    mEndSample: 2082517
  - mStartSample: 2096298
    mEndSample: 2096298
  - mStartSample: 2110080
    mEndSample: 2110080
  - mStartSample: 2137642
    mEndSample: 2137642
  - mStartSample: 2144533
    mEndSample: 2144533
  - mStartSample: 2151423
    mEndSample: 2151423
  - mStartSample: 2158314
    mEndSample: 2158314
  - mStartSample: 2165205
    mEndSample: 2165205
  - mStartSample: 2172095
    mEndSample: 2172095
  - mStartSample: 2178986
    mEndSample: 2178986
  - mStartSample: 2185876
    mEndSample: 2185876
  - mStartSample: 2192767
    mEndSample: 2192767
  - mStartSample: 2199658
    mEndSample: 2199658
  - mStartSample: 2206548
    mEndSample: 2206548
  - mStartSample: 2213439
    mEndSample: 2213439
  - mStartSample: 2220330
    mEndSample: 2220330
  - mStartSample: 2247892
    mEndSample: 2247892
  - mStartSample: 2289236
    mEndSample: 2289236
  - mStartSample: 2296126
    mEndSample: 2296126
  - mStartSample: 2303017
    mEndSample: 2303017
  - mStartSample: 2316798
    mEndSample: 2316798
  - mStartSample: 2323688
    mEndSample: 2323688
  - mStartSample: 2330579
    mEndSample: 2330579
  - mStartSample: 2344360
    mEndSample: 2344360
  - mStartSample: 2351251
    mEndSample: 2351251
  - mStartSample: 2358142
    mEndSample: 2358142
  - mStartSample: 2371923
    mEndSample: 2371923
  - mStartSample: 2399485
    mEndSample: 2399485
  - mStartSample: 2406375
    mEndSample: 2406375
  - mStartSample: 2413267
    mEndSample: 2413267
  - mStartSample: 2427048
    mEndSample: 2427048
  - mStartSample: 2433938
    mEndSample: 2433938
  - mStartSample: 2440829
    mEndSample: 2440829
  - mStartSample: 2454610
    mEndSample: 2454610
  - mStartSample: 2461501
    mEndSample: 2461501
  - mStartSample: 2468392
    mEndSample: 2468392
  - mStartSample: 2482173
    mEndSample: 2482173
  - mStartSample: 2509735
    mEndSample: 2509735
  - mStartSample: 2516625
    mEndSample: 2516625
  - mStartSample: 2523517
    mEndSample: 2523517
  - mStartSample: 2537298
    mEndSample: 2537298
  - mStartSample: 2544188
    mEndSample: 2544188
  - mStartSample: 2551079
    mEndSample: 2551079
  - mStartSample: 2564860
    mEndSample: 2564860
  - mStartSample: 2571751
    mEndSample: 2571751
  - mStartSample: 2578642
    mEndSample: 2578642
  - mStartSample: 2592423
    mEndSample: 2592423
  - mStartSample: 2619985
    mEndSample: 2619985
  - mStartSample: 2626875
    mEndSample: 2626875
  - mStartSample: 2633767
    mEndSample: 2633767
  - mStartSample: 2647548
    mEndSample: 2647548
  - mStartSample: 2654438
    mEndSample: 2654438
  - mStartSample: 2661329
    mEndSample: 2661329
  - mStartSample: 2675110
    mEndSample: 2675110
  - mStartSample: 2682001
    mEndSample: 2682001
  - mStartSample: 2688892
    mEndSample: 2688892
  - mStartSample: 2702673
    mEndSample: 2702673
  - mStartSample: 2730235
    mEndSample: 2730235
  - mStartSample: 2737126
    mEndSample: 2737126
  - mStartSample: 2744017
    mEndSample: 2744017
  - mStartSample: 2757798
    mEndSample: 2757798
  - mStartSample: 2771579
    mEndSample: 2771579
  - mStartSample: 2785360
    mEndSample: 2785360
  - mStartSample: 2799142
    mEndSample: 2799142
  - mStartSample: 2812923
    mEndSample: 2812923
  - mStartSample: 2840485
    mEndSample: 2840485
  - mStartSample: 2847376
    mEndSample: 2847376
  - mStartSample: 2854267
    mEndSample: 2854267
  - mStartSample: 2868048
    mEndSample: 2868048
  - mStartSample: 2881829
    mEndSample: 2881829
  - mStartSample: 2895610
    mEndSample: 2895610
  - mStartSample: 2909392
    mEndSample: 2909392
  - mStartSample: 2923173
    mEndSample: 2923173
  - mStartSample: 2936954
    mEndSample: 2936954
  - mStartSample: 2943845
    mEndSample: 2943845
  - mStartSample: 2950735
    mEndSample: 2950735
  - mStartSample: 2957626
    mEndSample: 2957626
  - mStartSample: 2964517
    mEndSample: 2964517
  - mStartSample: 2978298
    mEndSample: 2978298
  - mStartSample: 2992079
    mEndSample: 2992079
  - mStartSample: 3005860
    mEndSample: 3005860
  - mStartSample: 3019642
    mEndSample: 3019642
  - mStartSample: 3033423
    mEndSample: 3033423
  - mStartSample: 3040313
    mEndSample: 3040313
  - mStartSample: 3047204
    mEndSample: 3047204
  - mStartSample: 3060985
    mEndSample: 3060985
  - mStartSample: 3074767
    mEndSample: 3074767
  - mStartSample: 3102329
    mEndSample: 3102329
  - mStartSample: 3129892
    mEndSample: 3129892
  - mStartSample: 3157454
    mEndSample: 3157454
  - mStartSample: 3185017
    mEndSample: 3185017
  - mStartSample: 3212579
    mEndSample: 3212579
  - mStartSample: 3240142
    mEndSample: 3240142
  - mStartSample: 3253923
    mEndSample: 3253923
  - mStartSample: 3267704
    mEndSample: 3267704
  - mStartSample: 3281485
    mEndSample: 3281485
  - mStartSample: 3295267
    mEndSample: 3295267
  - mStartSample: 3336610
    mEndSample: 3336610
  - mStartSample: 3343500
    mEndSample: 3343500
  - mStartSample: 3350392
    mEndSample: 3350392
  - mStartSample: 3364173
    mEndSample: 3364173
  - mStartSample: 3371063
    mEndSample: 3371063
  - mStartSample: 3377954
    mEndSample: 3377954
  - mStartSample: 3391735
    mEndSample: 3391735
  - mStartSample: 3398626
    mEndSample: 3398626
  - mStartSample: 3405517
    mEndSample: 3405517
  - mStartSample: 3419298
    mEndSample: 3419298
  - mStartSample: 3446860
    mEndSample: 3446860
  - mStartSample: 3453750
    mEndSample: 3453750
  - mStartSample: 3460642
    mEndSample: 3460642
  - mStartSample: 3474423
    mEndSample: 3474423
  - mStartSample: 3481313
    mEndSample: 3481313
  - mStartSample: 3488204
    mEndSample: 3488204
  - mStartSample: 3501985
    mEndSample: 3501985
  - mStartSample: 3508876
    mEndSample: 3508876
  - mStartSample: 3515767
    mEndSample: 3515767
  - mStartSample: 3529548
    mEndSample: 3529548
  - mStartSample: 3557110
    mEndSample: 3557110
  - mStartSample: 3564000
    mEndSample: 3564000
  - mStartSample: 3570892
    mEndSample: 3570892
  - mStartSample: 3584673
    mEndSample: 3584673
  - mStartSample: 3591563
    mEndSample: 3591563
  - mStartSample: 3598454
    mEndSample: 3598454
  - mStartSample: 3612235
    mEndSample: 3612235
  - mStartSample: 3619126
    mEndSample: 3619126
  - mStartSample: 3626017
    mEndSample: 3626017
  - mStartSample: 3639798
    mEndSample: 3639798
  - mStartSample: 3667360
    mEndSample: 3667360
  - mStartSample: 3674250
    mEndSample: 3674250
  - mStartSample: 3681142
    mEndSample: 3681142
  - mStartSample: 3694923
    mEndSample: 3694923
  - mStartSample: 3701813
    mEndSample: 3701813
  - mStartSample: 3708704
    mEndSample: 3708704
  - mStartSample: 3722485
    mEndSample: 3722485
  - mStartSample: 3729376
    mEndSample: 3729376
  - mStartSample: 3736267
    mEndSample: 3736267
  - mStartSample: 3791392
    mEndSample: 3791392
  - mStartSample: 3839626
    mEndSample: 3839626
  - mStartSample: 3846517
    mEndSample: 3846517
  - mStartSample: 3860298
    mEndSample: 3860298
  - mStartSample: 3874079
    mEndSample: 3874079
  - mStartSample: 3901642
    mEndSample: 3901642
  - mStartSample: 3915423
    mEndSample: 3915423
  - mStartSample: 3929204
    mEndSample: 3929204
  - mStartSample: 3949876
    mEndSample: 3949876
  - mStartSample: 3956767
    mEndSample: 3956767
  - mStartSample: 3970548
    mEndSample: 3970548
  - mStartSample: 3984329
    mEndSample: 3984329
  - mStartSample: 3998110
    mEndSample: 3998110
  - mStartSample: 4011892
    mEndSample: 4011892
  - mStartSample: 4025673
    mEndSample: 4025673
  - mStartSample: 4039454
    mEndSample: 4039454
  - mStartSample: 4060126
    mEndSample: 4060126
  - mStartSample: 4067017
    mEndSample: 4067017
  - mStartSample: 4073907
    mEndSample: 4073907
  - mStartSample: 4080798
    mEndSample: 4080798
  - mStartSample: 4087688
    mEndSample: 4087688
  - mStartSample: 4094579
    mEndSample: 4094579
  - mStartSample: 4101470
    mEndSample: 4101470
  - mStartSample: 4108360
    mEndSample: 4108360
  - mStartSample: 4115251
    mEndSample: 4115251
  - mStartSample: 4122142
    mEndSample: 4122142
  - mStartSample: 4129032
    mEndSample: 4129032
  - mStartSample: 4135923
    mEndSample: 4135923
  - mStartSample: 4142813
    mEndSample: 4142813
  - mStartSample: 4149704
    mEndSample: 4149704
  - mStartSample: 4156595
    mEndSample: 4156595
  - mStartSample: 4163485
    mEndSample: 4163485
  - mStartSample: 4170376
    mEndSample: 4170376
  - mStartSample: 4177267
    mEndSample: 4177267
  - mStartSample: 4184157
    mEndSample: 4184157
  - mStartSample: 4191048
    mEndSample: 4191048
  - mStartSample: 4197938
    mEndSample: 4197938
  - mStartSample: 4204829
    mEndSample: 4204829
  - mStartSample: 4211720
    mEndSample: 4211720
  - mStartSample: 4218610
    mEndSample: 4218610
  - mStartSample: 4225501
    mEndSample: 4225501
  - mStartSample: 4232392
    mEndSample: 4232392
  - mStartSample: 4239282
    mEndSample: 4239282
  - mStartSample: 4246173
    mEndSample: 4246173
  - mStartSample: 4253063
    mEndSample: 4253063
  - mStartSample: 4259954
    mEndSample: 4259954
  - mStartSample: 4266845
    mEndSample: 4266845
  - mStartSample: 4273735
    mEndSample: 4273735
  - mStartSample: 4280626
    mEndSample: 4280626
  - mStartSample: 4287517
    mEndSample: 4287517
  - mStartSample: 4315079
    mEndSample: 4315079
  - mStartSample: 4328860
    mEndSample: 4328860
  - mStartSample: 4342642
    mEndSample: 4342642
  - mStartSample: 4370204
    mEndSample: 4370204
  - mStartSample: 4383985
    mEndSample: 4383985
  - mStartSample: 4397767
    mEndSample: 4397767
  - mStartSample: 4425329
    mEndSample: 4425329
  - mStartSample: 4432220
    mEndSample: 4432220
  - mStartSample: 4439110
    mEndSample: 4439110
  - mStartSample: 4446001
    mEndSample: 4446001
  - mStartSample: 4452892
    mEndSample: 4452892
  - mStartSample: 4459782
    mEndSample: 4459782
  - mStartSample: 4466673
    mEndSample: 4466673
  - mStartSample: 4473563
    mEndSample: 4473563
  - mStartSample: 4480454
    mEndSample: 4480454
  - mStartSample: 4487345
    mEndSample: 4487345
  - mStartSample: 4494235
    mEndSample: 4494235
  - mStartSample: 4501126
    mEndSample: 4501126
  - mStartSample: 4508017
    mEndSample: 4508017
  - mStartSample: 4535579
    mEndSample: 4535579
  _SerializedPayloadTypes:
  - SonicBloom.Koreo.TextPayload
  _AssetPayloads: []
  _AssetPayloadIdxs: 
  _ColorPayloads: []
  _ColorPayloadIdxs: 
  _CurvePayloads: []
  _CurvePayloadIdxs: 
  _FloatPayloads: []
  _FloatPayloadIdxs: 
  _GradientPayloads: []
  _GradientPayloadIdxs: 
  _IntPayloads: []
  _IntPayloadIdxs: 
  _SpectrumPayloads: []
  _SpectrumPayloadIdxs: 
  _TextPayloads:
  - mTextVal: 1
  - mTextVal: 7
  - mTextVal: 1
  - mTextVal: 7
  - mTextVal: 1
  - mTextVal: 7
  - mTextVal: 1
  - mTextVal: 7
  - mTextVal: 1
  - mTextVal: 7
  - mTextVal: 1
  - mTextVal: 7
  - mTextVal: 1
  - mTextVal: 7
  - mTextVal: 1
  - mTextVal: 7
  - mTextVal: 1
  - mTextVal: 1
  - mTextVal: 7
  - mTextVal: 1
  - mTextVal: 7
  - mTextVal: 1
  - mTextVal: 7
  - mTextVal: 1
  - mTextVal: 7
  - mTextVal: 1
  - mTextVal: 7
  - mTextVal: 1
  - mTextVal: 7
  - mTextVal: 1
  - mTextVal: 7
  - mTextVal: 1
  - mTextVal: 7
  - mTextVal: 1
  - mTextVal: 7
  - mTextVal: 1
  - mTextVal: 7
  - mTextVal: 1
  - mTextVal: 1
  - mTextVal: 7
  - mTextVal: 1
  - mTextVal: 7
  _TextPayloadIdxs: 00000000090000000a00000013000000140000001d0000001e00000027000000380000004500000050000000590000005a00000063000000640000006d0000006e00000087000000a8000000af000000bb000000bd000000c6000000c7000000d0000000d1000000da000000db000000e4000000f5000000020100000d010000160100001701000020010000210100002a0100002b01000044010000650100006c01000078010000
